%YAML 1.1
%TAG !u! tag:unity3d.com,2011:
--- !u!114 &11400000
MonoBehaviour:
  m_ObjectHideFlags: 0
  m_CorrespondingSourceObject: {fileID: 0}
  m_PrefabInstance: {fileID: 0}
  m_PrefabAsset: {fileID: 0}
  m_GameObject: {fileID: 0}
  m_Enabled: 1
  m_EditorHideFlags: 0
  m_Script: {fileID: -1893448595, guid: a040fb66244a7f54289914d98ea4ef7d, type: 3}
  m_Name: PongFighter_Player
  m_EditorClassIdentifier: 
  _data:
    _json: '{"graph":{"variables":{"collection":{"$content":[],"$version":"A"},"$version":"A"},"controlInputDefinitions":[],"controlOutputDefinitions":[],"valueInputDefinitions":[],"valueOutputDefinitions":[],"title":null,"summary":null,"pan":{"x":1387.115,"y":526.2616},"zoom":0.25,"elements":[{"coroutine":false,"defaultValues":{"key":{"$content":"Z","$type":"UnityEngine.KeyCode"},"action":{"$content":"Down","$type":"Ludiq.PressState"}},"position":{"x":-704.0,"y":-349.0},"guid":"705d5248-bd1b-4a39-b2d0-3d5aa440408e","$version":"A","$type":"Bolt.OnKeyboardInput","$id":"9"},{"coroutine":false,"defaultValues":{"key":{"$content":"Z","$type":"UnityEngine.KeyCode"},"action":{"$content":"Up","$type":"Ludiq.PressState"}},"position":{"x":-714.0,"y":82.0},"guid":"5a34e049-b93b-4b0b-ac4e-ced5b21aa584","$version":"A","$type":"Bolt.OnKeyboardInput","$id":"11"},{"coroutine":false,"defaultValues":{},"position":{"x":1761.0,"y":1042.0},"guid":"b418571b-a09c-4367-b764-6934ed277121","$version":"A","$type":"Bolt.Update","$id":"13"},{"specifyFallback":false,"kind":"Object","defaultValues":{"name":{"$content":"ControlZ","$type":"System.String"},"object":null},"position":{"x":-1057.0,"y":-191.0},"guid":"930c82c3-8a60-47ef-9664-d48febb80c0b","$version":"A","$type":"Bolt.GetVariable","$id":"15"},{"chainable":false,"member":{"name":"velocity","parameterTypes":null,"targetType":"UnityEngine.Rigidbody2D","targetTypeName":"UnityEngine.Rigidbody2D","$version":"A"},"defaultValues":{"target":null,"input":{"x":0.0,"y":0.0,"$type":"UnityEngine.Vector2"}},"position":{"x":-200.0,"y":-356.0},"guid":"2cd362f9-26a9-4e42-9eec-4f9970e3cb13","$version":"A","$type":"Bolt.SetMember","$id":"17"},{"member":{"name":"identity","parameterTypes":null,"targetType":"UnityEngine.Quaternion","targetTypeName":"UnityEngine.Quaternion","$version":"A"},"defaultValues":{},"position":{"x":2411.0,"y":-154.0},"guid":"8f6e67c1-e648-4792-bf3b-39303fb33d63","$version":"A","$type":"Bolt.GetMember","$id":"20"},{"defaultValues":{},"position":{"x":-458.0,"y":-169.0},"guid":"b3291e31-ec4f-4f80-9c61-8256374cf9c3","$version":"A","$type":"Bolt.GenericMultiply","$id":"23"},{"member":{"name":"up","parameterTypes":null,"targetType":"UnityEngine.Transform","targetTypeName":"UnityEngine.Transform","$version":"A"},"defaultValues":{"target":null},"position":{"x":452.0,"y":-228.0},"guid":"e44cb621-128e-4e17-b015-4cefdea55d92","$version":"A","$type":"Bolt.GetMember","$id":"25"},{"specifyFallback":false,"kind":"Object","defaultValues":{"name":{"$content":"ControlX","$type":"System.String"},"object":null},"position":{"x":199.0,"y":-161.0},"guid":"4a916691-73a3-4b41-ad66-09cf48831808","$version":"A","$type":"Bolt.GetVariable","$id":"28"},{"type":"System.Boolean","value":{"$content":true,"$type":"System.Boolean"},"defaultValues":{},"position":{"x":2238.0,"y":274.0},"guid":"6c4dd885-cdea-4a76-a49a-cdeeceede62d","$version":"A","$type":"Bolt.Literal","$id":"30"},{"chainable":false,"member":{"name":"velocity","parameterTypes":null,"targetType":"UnityEngine.Rigidbody2D","targetTypeName":"UnityEngine.Rigidbody2D","$version":"A"},"defaultValues":{"target":null,"input":{"x":0.0,"y":0.0,"$type":"UnityEngine.Vector2"}},"position":{"x":1012.0,"y":-337.0},"guid":"035a3e59-2c85-4ef6-a266-24fa40257b6a","$version":"A","$type":"Bolt.SetMember","$id":"32"},{"defaultValues":{},"position":{"x":2154.0,"y":-413.0},"guid":"b73eccac-8bf6-43d5-b018-4cb7fbbc6313","$version":"A","$type":"Bolt.Branch","$id":"35"},{"member":{"name":"x","parameterTypes":null,"targetType":"UnityEngine.Vector3","targetTypeName":"UnityEngine.Vector3","$version":"A"},"defaultValues":{"target":{"x":0.0,"y":0.0,"z":0.0,"$type":"UnityEngine.Vector3"}},"position":{"x":488.0,"y":541.0},"guid":"c6ed3ac0-a6a9-490b-980d-4adbe1576545","$version":"A","$type":"Bolt.GetMember","$id":"37"},{"kind":"Object","defaultValues":{"name":{"$content":"hitByBulletPlayer2","$type":"System.String"},"object":null},"position":{"x":2909.0,"y":1091.0},"guid":"1cd2196a-45b7-44c9-b270-b18e800ddee9","$version":"A","$type":"Bolt.SetVariable","$id":"40"},{"coroutine":false,"defaultValues":{},"position":{"x":-590.0,"y":364.0},"guid":"a9059632-35d9-44e9-bfc1-a8575c3eb5db","$version":"A","$type":"Bolt.Update","$id":"42"},{"nest":{"source":"Macro","macro":0,"embed":null},"defaultValues":{},"position":{"x":-344.0,"y":647.0},"guid":"a8c823e6-7d10-4b26-8062-db9136daf3c4","$version":"A","$type":"Bolt.SuperUnit","$id":"44"},{"chainable":false,"member":{"name":"position","parameterTypes":null,"targetType":"UnityEngine.Transform","targetTypeName":"UnityEngine.Transform","$version":"A"},"defaultValues":{"target":null,"input":{"x":0.0,"y":0.0,"z":0.0,"$type":"UnityEngine.Vector3"}},"position":{"x":902.0,"y":705.0},"guid":"7f35592d-3c3f-486c-836b-508c9a9f96a1","$version":"A","$type":"Bolt.SetMember","$id":"47"},{"chainable":false,"member":{"name":"velocity","parameterTypes":null,"targetType":"UnityEngine.Rigidbody2D","targetTypeName":"UnityEngine.Rigidbody2D","$version":"A"},"defaultValues":{"target":null,"input":{"x":0.0,"y":0.0,"$type":"UnityEngine.Vector2"}},"position":{"x":987.0,"y":88.0},"guid":"ef25e27a-8108-4344-add5-2e752821cda0","$version":"A","$type":"Bolt.SetMember","$id":"50"},{"defaultValues":{},"position":{"x":253.0,"y":377.0},"guid":"12af3f02-ce23-4b7d-97d3-441804bcd300","$version":"A","$type":"Bolt.Branch","$id":"53"},{"member":{"name":"y","parameterTypes":null,"targetType":"UnityEngine.Vector3","targetTypeName":"UnityEngine.Vector3","$version":"A"},"defaultValues":{"target":{"x":0.0,"y":0.0,"z":0.0,"$type":"UnityEngine.Vector3"}},"position":{"x":-141.0,"y":503.0},"guid":"ba8b3b55-9c95-4272-85f3-59b813494d07","$version":"A","$type":"Bolt.GetMember","$id":"55"},{"member":{"name":"time","parameterTypes":null,"targetType":"UnityEngine.Time","targetTypeName":"UnityEngine.Time","$version":"A"},"defaultValues":{},"position":{"x":1834.0,"y":-319.0},"guid":"44cf8102-2845-4508-9ed8-3c000f99a8bd","$version":"A","$type":"Bolt.GetMember","$id":"58"},{"specifyFallback":false,"kind":"Object","defaultValues":{"name":{"$content":"SetNearScreen","$type":"System.String"},"object":null},"position":{"x":-1434.0,"y":434.0},"guid":"1c3de9ad-0039-4959-bc41-bf68e5ae5dfb","$version":"A","$type":"Bolt.GetVariable","$id":"61"},{"member":{"name":"time","parameterTypes":null,"targetType":"UnityEngine.Time","targetTypeName":"UnityEngine.Time","$version":"A"},"defaultValues":{},"position":{"x":2723.0,"y":-377.0},"guid":"cd3239ac-0668-4877-b37c-23d18e944f9e","$version":"A","$type":"Bolt.GetMember","$id":"63"},{"numeric":true,"defaultValues":{"b":{"$content":0.0,"$type":"System.Single"}},"position":{"x":1998.0,"y":-322.0},"guid":"d44249e6-694e-4d3c-b651-5c48a3dc058e","$version":"A","$type":"Bolt.Greater","$id":"66"},{"kind":"Object","defaultValues":{"name":{"$content":"hitByBulletPlayer2","$type":"System.String"},"object":null},"position":{"x":2431.0,"y":146.0},"guid":"fbc3cef4-6b1d-4e5e-8ffe-b3e3701be007","$version":"A","$type":"Bolt.SetVariable","$id":"68"},{"chainable":false,"member":{"name":"velocity","parameterTypes":null,"targetType":"UnityEngine.Rigidbody2D","targetTypeName":"UnityEngine.Rigidbody2D","$version":"A"},"defaultValues":{"target":null,"input":{"x":0.0,"y":0.0,"$type":"UnityEngine.Vector2"}},"position":{"x":3077.0,"y":863.0},"guid":"9e31e2ee-2a94-426b-8756-0eec0f3866d1","$version":"A","$type":"Bolt.SetMember","$id":"70"},{"chainable":false,"member":{"name":"velocity","parameterTypes":null,"targetType":"UnityEngine.Rigidbody2D","targetTypeName":"UnityEngine.Rigidbody2D","$version":"A"},"defaultValues":{"target":null,"input":{"x":0.0,"y":0.0,"$type":"UnityEngine.Vector2"}},"position":{"x":435.0,"y":374.0},"guid":"13031931-57e8-4e7b-8c89-13f1704f5ba5","$version":"A","$type":"Bolt.SetMember","$id":"73"},{"type":"System.Boolean","value":{"$content":false,"$type":"System.Boolean"},"defaultValues":{},"position":{"x":2735.0,"y":1291.0},"guid":"9e136aff-7eb1-4083-b447-4c1cac6f7a45","$version":"A","$type":"Bolt.Literal","$id":"76"},{"coroutine":false,"defaultValues":{"key":{"$content":"D","$type":"UnityEngine.KeyCode"},"action":{"$content":"Down","$type":"Ludiq.PressState"}},"position":{"x":1682.0,"y":-413.0},"guid":"041fb510-8d97-4675-a22a-d3db83f390a6","$version":"A","$type":"Bolt.OnKeyboardInput","$id":"78"},{"numeric":true,"defaultValues":{"b":{"$content":2.0,"$type":"System.Single"}},"position":{"x":2672.0,"y":1025.0},"guid":"bd1522db-4bce-48f0-ae12-8bb035b08998","$version":"A","$type":"Bolt.Greater","$id":"80"},{"specifyFallback":false,"kind":"Object","defaultValues":{"name":{"$content":"speed","$type":"System.String"},"object":null},"position":{"x":452.0,"y":-120.0},"guid":"07dbe1d7-a9ff-4086-b0fa-d985d514390e","$version":"A","$type":"Bolt.GetVariable","$id":"82"},{"chainable":false,"member":{"name":".ctor","parameterTypes":["System.Single","System.Single"],"targetType":"UnityEngine.Vector3","targetTypeName":"UnityEngine.Vector3","$version":"A"},"defaultValues":{"%x":{"$content":0.0,"$type":"System.Single"},"%y":{"$content":0.0,"$type":"System.Single"}},"position":{"x":-1076.0,"y":465.0},"guid":"ee237115-5db9-47d4-8306-9708811eb5b7","$version":"A","$type":"Bolt.InvokeMember","$id":"84"},{"specifyFallback":false,"kind":"Object","defaultValues":{"name":{"$content":"bullet","$type":"System.String"},"object":null},"position":{"x":2386.0,"y":-439.0},"guid":"48968266-34a7-4de4-98ff-92f5abb8036b","$version":"A","$type":"Bolt.GetVariable","$id":"87"},{"coroutine":false,"defaultValues":{"key":{"$content":"X","$type":"UnityEngine.KeyCode"},"action":{"$content":"Up","$type":"Ludiq.PressState"}},"position":{"x":448.0,"y":90.0},"guid":"aa13b87c-efb1-4475-9b76-a6e9b239a54c","$version":"A","$type":"Bolt.OnKeyboardInput","$id":"89"},{"specifyFallback":false,"kind":"Object","defaultValues":{"name":{"$content":"speed","$type":"System.String"},"object":null},"position":{"x":-704.0,"y":-111.0},"guid":"03949df8-b7c6-4936-8a90-f663be8a6d8e","$version":"A","$type":"Bolt.GetVariable","$id":"91"},{"specifyFallback":false,"kind":"Object","defaultValues":{"name":{"$content":"playerMuzzle","$type":"System.String"},"object":null},"position":{"x":2205.0,"y":-279.0},"guid":"32f82419-e5f4-47b9-8a99-a6a193e034bc","$version":"A","$type":"Bolt.GetVariable","$id":"93"},{"chainable":false,"member":{"name":"velocity","parameterTypes":null,"targetType":"UnityEngine.Rigidbody2D","targetTypeName":"UnityEngine.Rigidbody2D","$version":"A"},"defaultValues":{"target":null,"input":{"x":0.0,"y":0.0,"$type":"UnityEngine.Vector2"}},"position":{"x":-175.0,"y":80.0},"guid":"93ef7428-72d4-43bb-a126-cebacd12965e","$version":"A","$type":"Bolt.SetMember","$id":"95"},{"argumentCount":0,"coroutine":false,"defaultValues":{"target":null,"name":{"$content":"","$type":"System.String"}},"position":{"x":2089.0,"y":161.0},"guid":"9272e9c6-cf1b-4c39-8f96-92520e14a2d5","$version":"A","$type":"Bolt.CustomEvent","$id":"98"},{"chainable":false,"member":{"name":"position","parameterTypes":null,"targetType":"UnityEngine.Transform","targetTypeName":"UnityEngine.Transform","$version":"A"},"defaultValues":{"target":null,"input":{"x":0.0,"y":0.0,"z":0.0,"$type":"UnityEngine.Vector3"}},"position":{"x":-894.0,"y":347.0},"guid":"a6b27811-5f67-468c-874c-d06dca92103d","$version":"A","$type":"Bolt.SetMember","$id":"100"},{"defaultValues":{},"position":{"x":-1235.0,"y":487.0},"guid":"47617461-28c0-43c4-9825-843d2fee6690","$version":"A","$type":"Bolt.GenericAdd","$id":"103"},{"defaultValues":{},"position":{"x":293.0,"y":709.0},"guid":"ec267954-604e-42cb-bd95-dd1229e43723","$version":"A","$type":"Bolt.Branch","$id":"105"},{"specifyFallback":false,"kind":"Object","defaultValues":{"name":{"$content":"hitByBulletPlayer2","$type":"System.String"},"object":null},"position":{"x":1812.0,"y":1226.0},"guid":"b3eaf7f0-5dd4-4517-bb40-d333fa240320","$version":"A","$type":"Bolt.GetVariable","$id":"107"},{"defaultValues":{},"position":{"x":2129.0,"y":1039.0},"guid":"7f1d93b3-da79-47ef-b710-88f042d6b14c","$version":"A","$type":"Bolt.Branch","$id":"109"},{"member":{"name":"up","parameterTypes":null,"targetType":"UnityEngine.Transform","targetTypeName":"UnityEngine.Transform","$version":"A"},"defaultValues":{"target":null},"position":{"x":-708.0,"y":-208.0},"guid":"339f6803-ec17-4a80-9750-234a6c5f9381","$version":"A","$type":"Bolt.GetMember","$id":"111"},{"member":{"name":"position","parameterTypes":null,"targetType":"UnityEngine.Transform","targetTypeName":"UnityEngine.Transform","$version":"A"},"defaultValues":{"target":null},"position":{"x":-473.0,"y":507.0},"guid":"57889730-04fb-4e5c-8290-690d93e84d05","$version":"A","$type":"Bolt.GetMember","$id":"114"},{"type":"System.Int32","value":{"$content":-1,"$type":"System.Int32"},"defaultValues":{},"position":{"x":474.0,"y":-9.0},"guid":"61243c38-5ee8-4178-895e-3e53a4128568","$version":"A","$type":"Bolt.Literal","$id":"117"},{"chainable":false,"member":{"name":"Instantiate","parameterTypes":["UnityEngine.Object","UnityEngine.Vector3","UnityEngine.Quaternion"],"targetType":"UnityEngine.GameObject","targetTypeName":"UnityEngine.GameObject","$version":"A"},"defaultValues":{"%original":null,"%position":{"x":0.0,"y":0.0,"z":0.0,"$type":"UnityEngine.Vector3"}},"position":{"x":2578.0,"y":-401.0},"guid":"fd20e01e-2ee6-4d47-841b-490d6c2a31d8","$version":"A","$type":"Bolt.InvokeMember","$id":"119"},{"numeric":true,"defaultValues":{"b":{"$content":0.0,"$type":"System.Single"}},"position":{"x":104.0,"y":719.0},"guid":"a0c1e65d-d576-44ad-8bcb-30b3420dd7d1","$version":"A","$type":"Bolt.Less","$id":"122"},{"chainable":false,"member":{"name":".ctor","parameterTypes":["System.Single","System.Single"],"targetType":"UnityEngine.Vector3","targetTypeName":"UnityEngine.Vector3","$version":"A"},"defaultValues":{"%x":{"$content":0.0,"$type":"System.Single"},"%y":{"$content":0.0,"$type":"System.Single"}},"position":{"x":671.0,"y":372.0},"guid":"c2359dde-2e3e-4fda-bf66-5ff6b63719f1","$version":"A","$type":"Bolt.InvokeMember","$id":"124"},{"outputCount":2,"defaultValues":{},"position":{"x":-305.0,"y":361.0},"guid":"183eeee2-bca6-4c5b-8237-923a071841c3","$version":"A","$type":"Bolt.Sequence","$id":"127"},{"specifyFallback":false,"kind":"Object","defaultValues":{"name":{"$content":"fireRate","$type":"System.String"},"object":null},"position":{"x":2696.0,"y":-287.0},"guid":"7be51906-efed-4344-aba1-8e9d1c14141f","$version":"A","$type":"Bolt.GetVariable","$id":"129"},{"defaultValues":{},"position":{"x":2866.0,"y":-342.0},"guid":"b42d97bd-c239-4c66-b9f4-a1597348d985","$version":"A","$type":"Bolt.GenericAdd","$id":"131"},{"member":{"name":"position","parameterTypes":null,"targetType":"UnityEngine.Transform","targetTypeName":"UnityEngine.Transform","$version":"A"},"defaultValues":{"target":null},"position":{"x":2396.0,"y":-278.0},"guid":"0557c1a0-44e0-410c-9660-f2b0667e2436","$version":"A","$type":"Bolt.GetMember","$id":"133"},{"nest":{"source":"Macro","macro":1,"embed":null},"defaultValues":{},"position":{"x":-1434.0,"y":550.0},"guid":"bcb151db-984a-473d-8613-8818f135e1c7","$version":"A","$type":"Bolt.SuperUnit","$id":"136"},{"specifyFallback":false,"kind":"Application","defaultValues":{"name":{"$content":"Event
      CollideBulletPlayer2","$type":"System.String"}},"position":{"x":1696.0,"y":190.0},"guid":"e4083af5-411c-4586-bc18-8c74249a8a08","$version":"A","$type":"Bolt.GetVariable","$id":"139"},{"defaultValues":{"duration":{"$content":4.0,"$type":"System.Single"},"unscaledTime":{"$content":false,"$type":"System.Boolean"}},"position":{"x":2347.0,"y":1037.0},"guid":"b3052c51-61cd-4da4-8c1d-57701f05d226","$version":"A","$type":"Bolt.Cooldown","$id":"141"},{"chainable":false,"member":{"name":".ctor","parameterTypes":["System.Single","System.Single"],"targetType":"UnityEngine.Vector3","targetTypeName":"UnityEngine.Vector3","$version":"A"},"defaultValues":{"%x":{"$content":0.0,"$type":"System.Single"},"%y":{"$content":0.0,"$type":"System.Single"}},"position":{"x":723.0,"y":702.0},"guid":"0d52b3c6-ca21-41c8-9939-fad134e84505","$version":"A","$type":"Bolt.InvokeMember","$id":"143"},{"coroutine":false,"defaultValues":{"key":{"$content":"X","$type":"UnityEngine.KeyCode"},"action":{"$content":"Down","$type":"Ludiq.PressState"}},"position":{"x":458.0,"y":-341.0},"guid":"ef876cac-ba40-42bb-a135-2ff2bc695642","$version":"A","$type":"Bolt.OnKeyboardInput","$id":"146"},{"defaultValues":{},"position":{"x":682.0,"y":-103.0},"guid":"171da151-98a0-4557-9739-98051add7c97","$version":"A","$type":"Bolt.GenericMultiply","$id":"148"},{"numeric":true,"defaultValues":{"b":{"$content":0.0,"$type":"System.Single"}},"position":{"x":83.0,"y":471.0},"guid":"798079d7-fc6a-45de-8c65-c2f7ec36e1da","$version":"A","$type":"Bolt.Greater","$id":"150"},{"kind":"Object","defaultValues":{"name":{"$content":"nextFire","$type":"System.String"},"object":null},"position":{"x":2994.0,"y":-410.0},"guid":"7dd1ebad-d003-45af-a337-2b37639a3e7e","$version":"A","$type":"Bolt.SetVariable","$id":"152"},{"coroutine":false,"defaultValues":{},"position":{"x":-1434.0,"y":348.0},"guid":"d52ea097-5a18-4cc8-a5e2-447ca454e1cb","$version":"A","$type":"Bolt.Start","$id":"154"},{"specifyFallback":false,"kind":"Object","defaultValues":{"name":{"$content":"nextFire","$type":"System.String"},"object":null},"position":{"x":1796.0,"y":-234.0},"guid":"0b993a89-255e-4512-8f2f-572e6aea614c","$version":"A","$type":"Bolt.GetVariable","$id":"156"},{"defaultValues":{},"position":{"x":2849.0,"y":862.0},"guid":"6133165b-d307-414f-ba8f-e9e99fce413f","$version":"A","$type":"Bolt.Branch","$id":"158"},{"chainable":false,"member":{"name":"position","parameterTypes":null,"targetType":"UnityEngine.Transform","targetTypeName":"UnityEngine.Transform","$version":"A"},"defaultValues":{"target":null,"input":{"x":0.0,"y":0.0,"z":0.0,"$type":"UnityEngine.Vector3"}},"position":{"x":878.0,"y":375.0},"guid":"59f371f1-4481-4515-ba4d-d667d6727b34","$version":"A","$type":"Bolt.SetMember","$id":"160"},{"defaultValues":{},"position":{"x":836.0,"y":-228.0},"guid":"6a151c75-c58e-4831-83d6-138cc44991f3","$version":"A","$type":"Bolt.GenericMultiply","$id":"163"},{"chainable":false,"member":{"name":"velocity","parameterTypes":null,"targetType":"UnityEngine.Rigidbody2D","targetTypeName":"UnityEngine.Rigidbody2D","$version":"A"},"defaultValues":{"target":null,"input":{"x":0.0,"y":0.0,"$type":"UnityEngine.Vector2"}},"position":{"x":501.0,"y":706.0},"guid":"a77c9cb4-af15-4ce9-85ab-21466bb89e0f","$version":"A","$type":"Bolt.SetMember","$id":"165"},{"sourceUnit":{"$ref":"78"},"sourceKey":"trigger","destinationUnit":{"$ref":"35"},"destinationKey":"enter","guid":"01639045-7a28-436a-b763-b72727d36dd4","$type":"Bolt.ControlConnection"},{"sourceUnit":{"$ref":"127"},"sourceKey":"0","destinationUnit":{"$ref":"53"},"destinationKey":"enter","guid":"c4b640d8-3443-470e-a476-5d26cc7bcde0","$type":"Bolt.ControlConnection"},{"sourceUnit":{"$ref":"35"},"sourceKey":"ifTrue","destinationUnit":{"$ref":"119"},"destinationKey":"enter","guid":"8e27c2fe-ab8c-49f2-8ebf-a77ecb9e5379","$type":"Bolt.ControlConnection"},{"sourceUnit":{"$ref":"53"},"sourceKey":"ifTrue","destinationUnit":{"$ref":"73"},"destinationKey":"assign","guid":"2735051e-ce35-4bc3-b495-7eeebf2b2dff","$type":"Bolt.ControlConnection"},{"sourceUnit":{"$ref":"154"},"sourceKey":"trigger","destinationUnit":{"$ref":"100"},"destinationKey":"assign","guid":"078bc385-967b-47f2-91f7-adf5251a98c5","$type":"Bolt.ControlConnection"},{"sourceUnit":{"$ref":"73"},"sourceKey":"assigned","destinationUnit":{"$ref":"124"},"destinationKey":"enter","guid":"6235bb73-4732-4ce5-9768-addeba220918","$type":"Bolt.ControlConnection"},{"sourceUnit":{"$ref":"165"},"sourceKey":"assigned","destinationUnit":{"$ref":"143"},"destinationKey":"enter","guid":"e987dfe6-965d-4fa1-8a6f-eca0a967cde5","$type":"Bolt.ControlConnection"},{"sourceUnit":{"$ref":"105"},"sourceKey":"ifTrue","destinationUnit":{"$ref":"165"},"destinationKey":"assign","guid":"7c008313-8517-46e2-aee7-c7e0b2c9aea6","$type":"Bolt.ControlConnection"},{"sourceUnit":{"$ref":"124"},"sourceKey":"exit","destinationUnit":{"$ref":"160"},"destinationKey":"assign","guid":"61d0811d-0cc8-46fb-b81b-39851a7a435b","$type":"Bolt.ControlConnection"},{"sourceUnit":{"$ref":"146"},"sourceKey":"trigger","destinationUnit":{"$ref":"32"},"destinationKey":"assign","guid":"ae92a5ab-2eec-41c3-b8c5-32eb35d613b6","$type":"Bolt.ControlConnection"},{"sourceUnit":{"$ref":"11"},"sourceKey":"trigger","destinationUnit":{"$ref":"95"},"destinationKey":"assign","guid":"d2c9e5f6-cd3e-45d3-8b96-1bd26a5ae454","$type":"Bolt.ControlConnection"},{"sourceUnit":{"$ref":"42"},"sourceKey":"trigger","destinationUnit":{"$ref":"127"},"destinationKey":"enter","guid":"7d21b373-b8bc-4eb1-a200-19a399783db9","$type":"Bolt.ControlConnection"},{"sourceUnit":{"$ref":"109"},"sourceKey":"ifTrue","destinationUnit":{"$ref":"141"},"destinationKey":"enter","guid":"9a54e8fe-aaee-431d-8c24-57b0d582dc7f","$type":"Bolt.ControlConnection"},{"sourceUnit":{"$ref":"13"},"sourceKey":"trigger","destinationUnit":{"$ref":"109"},"destinationKey":"enter","guid":"5a955364-5a3c-495c-bc69-275dee094ad0","$type":"Bolt.ControlConnection"},{"sourceUnit":{"$ref":"89"},"sourceKey":"trigger","destinationUnit":{"$ref":"50"},"destinationKey":"assign","guid":"716b110b-6a74-419b-90f2-502462f65a67","$type":"Bolt.ControlConnection"},{"sourceUnit":{"$ref":"127"},"sourceKey":"1","destinationUnit":{"$ref":"105"},"destinationKey":"enter","guid":"9b182c7d-4795-4fe0-ae76-f655bea660c9","$type":"Bolt.ControlConnection"},{"sourceUnit":{"$ref":"119"},"sourceKey":"exit","destinationUnit":{"$ref":"152"},"destinationKey":"assign","guid":"b90e9cd5-e9e6-4359-bf27-d3f70eb7cb37","$type":"Bolt.ControlConnection"},{"sourceUnit":{"$ref":"141"},"sourceKey":"tick","destinationUnit":{"$ref":"158"},"destinationKey":"enter","guid":"43328686-9f39-4fb5-9d73-50bee4987b80","$type":"Bolt.ControlConnection"},{"sourceUnit":{"$ref":"143"},"sourceKey":"exit","destinationUnit":{"$ref":"47"},"destinationKey":"assign","guid":"6a1bb576-4cd1-4f80-9927-652db0c3557d","$type":"Bolt.ControlConnection"},{"sourceUnit":{"$ref":"158"},"sourceKey":"ifTrue","destinationUnit":{"$ref":"70"},"destinationKey":"assign","guid":"d0eeecf6-38d1-488e-81d2-8a0bccad56a4","$type":"Bolt.ControlConnection"},{"sourceUnit":{"$ref":"98"},"sourceKey":"trigger","destinationUnit":{"$ref":"68"},"destinationKey":"assign","guid":"907679a3-291e-4699-be3d-ae82c7842f73","$type":"Bolt.ControlConnection"},{"sourceUnit":{"$ref":"141"},"sourceKey":"becameReady","destinationUnit":{"$ref":"40"},"destinationKey":"assign","guid":"decb2c7f-1b40-4a04-b846-669cb884ca8e","$type":"Bolt.ControlConnection"},{"sourceUnit":{"$ref":"9"},"sourceKey":"trigger","destinationUnit":{"$ref":"17"},"destinationKey":"assign","guid":"e28cdece-a4ac-4443-88a2-47fa49c7faa0","$type":"Bolt.ControlConnection"},{"sourceUnit":{"$ref":"150"},"sourceKey":"comparison","destinationUnit":{"$ref":"53"},"destinationKey":"condition","guid":"08efa783-1e2c-4c5e-9716-8842b80317ed","$type":"Bolt.ValueConnection"},{"sourceUnit":{"$ref":"136"},"sourceKey":"Left","destinationUnit":{"$ref":"103"},"destinationKey":"b","guid":"78488d22-b1d9-44a7-bf90-524e729c7107","$type":"Bolt.ValueConnection"},{"sourceUnit":{"$ref":"107"},"sourceKey":"value","destinationUnit":{"$ref":"109"},"destinationKey":"condition","guid":"90ffe65c-4183-4c1c-8c85-8402218e2586","$type":"Bolt.ValueConnection"},{"sourceUnit":{"$ref":"93"},"sourceKey":"value","destinationUnit":{"$ref":"133"},"destinationKey":"target","guid":"d69b7b59-dbff-4769-948d-cc4da313dc7b","$type":"Bolt.ValueConnection"},{"sourceUnit":{"$ref":"139"},"sourceKey":"value","destinationUnit":{"$ref":"98"},"destinationKey":"name","guid":"e25dca3d-6986-4d16-9953-ba759c51f85c","$type":"Bolt.ValueConnection"},{"sourceUnit":{"$ref":"44"},"sourceKey":"Bot","destinationUnit":{"$ref":"122"},"destinationKey":"b","guid":"2e44b47b-ba34-45e9-9ac6-8f538c2bc970","$type":"Bolt.ValueConnection"},{"sourceUnit":{"$ref":"55"},"sourceKey":"value","destinationUnit":{"$ref":"122"},"destinationKey":"a","guid":"66693fc2-34b8-483a-8c0f-cd6ceae1fceb","$type":"Bolt.ValueConnection"},{"sourceUnit":{"$ref":"15"},"sourceKey":"value","destinationUnit":{"$ref":"9"},"destinationKey":"key","guid":"c59e1bf8-1fea-47ee-9a30-5ffc97088589","$type":"Bolt.ValueConnection"},{"sourceUnit":{"$ref":"15"},"sourceKey":"value","destinationUnit":{"$ref":"11"},"destinationKey":"key","guid":"abf952ba-7892-424f-b1d1-3188fb197b4c","$type":"Bolt.ValueConnection"},{"sourceUnit":{"$ref":"117"},"sourceKey":"output","destinationUnit":{"$ref":"148"},"destinationKey":"b","guid":"e39bdb9a-1de4-4cab-948a-cce7b37f6d89","$type":"Bolt.ValueConnection"},{"sourceUnit":{"$ref":"87"},"sourceKey":"value","destinationUnit":{"$ref":"119"},"destinationKey":"%original","guid":"dfa3add1-0d70-45e5-9db7-011a84bad3cb","$type":"Bolt.ValueConnection"},{"sourceUnit":{"$ref":"103"},"sourceKey":"sum","destinationUnit":{"$ref":"84"},"destinationKey":"%x","guid":"8eeec316-e329-4d8a-8226-e6562c9d851d","$type":"Bolt.ValueConnection"},{"sourceUnit":{"$ref":"28"},"sourceKey":"value","destinationUnit":{"$ref":"89"},"destinationKey":"key","guid":"d026b789-1d3a-428c-afc3-85d9012482ed","$type":"Bolt.ValueConnection"},{"sourceUnit":{"$ref":"23"},"sourceKey":"product","destinationUnit":{"$ref":"17"},"destinationKey":"input","guid":"513be77b-0f8a-49df-bedb-d05899dcf5d5","$type":"Bolt.ValueConnection"},{"sourceUnit":{"$ref":"111"},"sourceKey":"value","destinationUnit":{"$ref":"23"},"destinationKey":"a","guid":"1e688b26-ba54-4ef8-bc8f-37e3ae82e456","$type":"Bolt.ValueConnection"},{"sourceUnit":{"$ref":"37"},"sourceKey":"value","destinationUnit":{"$ref":"124"},"destinationKey":"%x","guid":"618b2658-e148-4828-b8a6-f4f8c95eb382","$type":"Bolt.ValueConnection"},{"sourceUnit":{"$ref":"30"},"sourceKey":"output","destinationUnit":{"$ref":"68"},"destinationKey":"input","guid":"10dde996-1232-4f76-9645-7f21bf43875b","$type":"Bolt.ValueConnection"},{"sourceUnit":{"$ref":"76"},"sourceKey":"output","destinationUnit":{"$ref":"40"},"destinationKey":"input","guid":"d2a8f3d8-4966-4732-a85d-9f2d2aa3c36e","$type":"Bolt.ValueConnection"},{"sourceUnit":{"$ref":"143"},"sourceKey":"result","destinationUnit":{"$ref":"47"},"destinationKey":"input","guid":"b1076ba0-07b5-4043-a275-2231d07e576a","$type":"Bolt.ValueConnection"},{"sourceUnit":{"$ref":"133"},"sourceKey":"value","destinationUnit":{"$ref":"119"},"destinationKey":"%position","guid":"04ddf273-5124-47b7-936f-4dad95f9b39a","$type":"Bolt.ValueConnection"},{"sourceUnit":{"$ref":"156"},"sourceKey":"value","destinationUnit":{"$ref":"66"},"destinationKey":"b","guid":"0a97f6b4-01d5-4ea8-875e-93d2778f5081","$type":"Bolt.ValueConnection"},{"sourceUnit":{"$ref":"28"},"sourceKey":"value","destinationUnit":{"$ref":"146"},"destinationKey":"key","guid":"8166199d-5226-4721-9b06-adf0cbcee09c","$type":"Bolt.ValueConnection"},{"sourceUnit":{"$ref":"124"},"sourceKey":"result","destinationUnit":{"$ref":"160"},"destinationKey":"input","guid":"eee801f4-6e71-4cf1-bd4f-b9e228661ef9","$type":"Bolt.ValueConnection"},{"sourceUnit":{"$ref":"66"},"sourceKey":"comparison","destinationUnit":{"$ref":"35"},"destinationKey":"condition","guid":"c97e0253-189c-43d3-ad4c-a4a224ccc5b0","$type":"Bolt.ValueConnection"},{"sourceUnit":{"$ref":"163"},"sourceKey":"product","destinationUnit":{"$ref":"32"},"destinationKey":"input","guid":"da20f37c-4035-43f1-9842-9936e884313e","$type":"Bolt.ValueConnection"},{"sourceUnit":{"$ref":"25"},"sourceKey":"value","destinationUnit":{"$ref":"163"},"destinationKey":"a","guid":"5340933c-d286-47d6-a80e-d5f64d688f64","$type":"Bolt.ValueConnection"},{"sourceUnit":{"$ref":"55"},"sourceKey":"value","destinationUnit":{"$ref":"150"},"destinationKey":"a","guid":"ab4cee04-57fc-4124-877c-c137d1c1d74b","$type":"Bolt.ValueConnection"},{"sourceUnit":{"$ref":"131"},"sourceKey":"sum","destinationUnit":{"$ref":"152"},"destinationKey":"input","guid":"ef3fab2e-ca38-4749-96b6-d7e4eed7d672","$type":"Bolt.ValueConnection"},{"sourceUnit":{"$ref":"122"},"sourceKey":"comparison","destinationUnit":{"$ref":"105"},"destinationKey":"condition","guid":"eb275b95-1ed6-4c09-b9fa-b1e7a7eeb22d","$type":"Bolt.ValueConnection"},{"sourceUnit":{"$ref":"44"},"sourceKey":"Bot","destinationUnit":{"$ref":"143"},"destinationKey":"%y","guid":"80f0a509-146f-440c-ae29-18c4b82f8f2d","$type":"Bolt.ValueConnection"},{"sourceUnit":{"$ref":"58"},"sourceKey":"value","destinationUnit":{"$ref":"66"},"destinationKey":"a","guid":"597909c7-ec50-4504-975e-88e993970c36","$type":"Bolt.ValueConnection"},{"sourceUnit":{"$ref":"91"},"sourceKey":"value","destinationUnit":{"$ref":"23"},"destinationKey":"b","guid":"d76e22e8-666f-4560-ad28-8dcb62208bfb","$type":"Bolt.ValueConnection"},{"sourceUnit":{"$ref":"44"},"sourceKey":"Top","destinationUnit":{"$ref":"124"},"destinationKey":"%y","guid":"a6e49964-9d60-4cbf-a193-f4ff8ae88983","$type":"Bolt.ValueConnection"},{"sourceUnit":{"$ref":"114"},"sourceKey":"value","destinationUnit":{"$ref":"55"},"destinationKey":"target","guid":"ffa364a9-9ffe-46c7-9d72-24b47fae7bf7","$type":"Bolt.ValueConnection"},{"sourceUnit":{"$ref":"44"},"sourceKey":"Top","destinationUnit":{"$ref":"150"},"destinationKey":"b","guid":"56cd6920-c36a-4e64-9e47-6ec90b44122e","$type":"Bolt.ValueConnection"},{"sourceUnit":{"$ref":"141"},"sourceKey":"remainingSeconds","destinationUnit":{"$ref":"80"},"destinationKey":"a","guid":"42128ae3-290d-46ef-b45f-178bc825696d","$type":"Bolt.ValueConnection"},{"sourceUnit":{"$ref":"80"},"sourceKey":"comparison","destinationUnit":{"$ref":"158"},"destinationKey":"condition","guid":"3f08fa3d-e7e1-49a6-8fd4-4e2e18defeae","$type":"Bolt.ValueConnection"},{"sourceUnit":{"$ref":"114"},"sourceKey":"value","destinationUnit":{"$ref":"37"},"destinationKey":"target","guid":"20f62a45-37ac-43f4-9188-1c40160bdd71","$type":"Bolt.ValueConnection"},{"sourceUnit":{"$ref":"37"},"sourceKey":"value","destinationUnit":{"$ref":"143"},"destinationKey":"%x","guid":"414f68c9-8ec7-45ef-83f9-769830516111","$type":"Bolt.ValueConnection"},{"sourceUnit":{"$ref":"129"},"sourceKey":"value","destinationUnit":{"$ref":"131"},"destinationKey":"b","guid":"76c143f4-31b7-432f-8157-3e07ea22a9fc","$type":"Bolt.ValueConnection"},{"sourceUnit":{"$ref":"82"},"sourceKey":"value","destinationUnit":{"$ref":"148"},"destinationKey":"a","guid":"324392a7-9c4a-4bd6-a38d-2c552bfa38b1","$type":"Bolt.ValueConnection"},{"sourceUnit":{"$ref":"84"},"sourceKey":"result","destinationUnit":{"$ref":"100"},"destinationKey":"input","guid":"64f919f8-a280-4410-9b6d-74ee6a4e7668","$type":"Bolt.ValueConnection"},{"sourceUnit":{"$ref":"20"},"sourceKey":"value","destinationUnit":{"$ref":"119"},"destinationKey":"%rotation","guid":"5d0a3e7d-7296-4f53-ae9f-eaf42ec99041","$type":"Bolt.ValueConnection"},{"sourceUnit":{"$ref":"61"},"sourceKey":"value","destinationUnit":{"$ref":"103"},"destinationKey":"a","guid":"0d0c3cc0-24c8-437b-b9aa-7a6f734e9c4a","$type":"Bolt.ValueConnection"},{"sourceUnit":{"$ref":"148"},"sourceKey":"product","destinationUnit":{"$ref":"163"},"destinationKey":"b","guid":"db3cb6d8-550c-44b9-8bc6-59b78126c0a7","$type":"Bolt.ValueConnection"},{"sourceUnit":{"$ref":"63"},"sourceKey":"value","destinationUnit":{"$ref":"131"},"destinationKey":"a","guid":"28d9b2f6-c596-4ad7-a10b-9a9694b586bf","$type":"Bolt.ValueConnection"},{"position":{"xMin":1648.0,"yMin":-477.0,"xMax":3165.0,"yMax":-42.0},"label":"Instantiate
      Bullet","comment":null,"color":{"r":0.9154094,"g":1.0,"b":0.0,"a":1.0},"guid":"97b72465-08e1-498d-b8fa-647d44d32449","$version":"A","$type":"Ludiq.GraphGroup"},{"position":{"xMin":1737.0,"yMin":816.0,"xMax":3243.0,"yMax":1385.0},"label":"If
      hit can''t move for 2s then Invicibility for 2s","comment":null,"color":{"r":1.0,"g":0.0,"b":0.6787672,"a":1.0},"guid":"abf027ce-c2c8-4837-9f69-e10081442839","$version":"A","$type":"Ludiq.GraphGroup"},{"position":{"xMin":-1123.333,"yMin":-475.6666,"xMax":1207.667,"yMax":276.0002},"label":"Group
      Moving","comment":null,"color":{"r":1.0,"g":0.2077968,"b":0.0,"a":1.0},"guid":"52910d61-f166-481e-bc71-9e10bd6ba226","$version":"A","$type":"Ludiq.GraphGroup"},{"position":{"xMin":-659.0,"yMin":299.0,"xMax":1075.0,"yMax":869.0},"label":"Contraintes
      d\u00e9placement","comment":null,"color":{"r":0.4517581,"g":1.0,"b":0.0,"a":1.0},"guid":"408ddd1f-3351-4e49-a2e8-6f04727e5c00","$version":"A","$type":"Ludiq.GraphGroup"},{"position":{"xMin":166.0,"yMin":-395.0,"xMax":1174.0,"yMax":244.0},"label":"Moving
      Down","comment":null,"color":{"r":0.0,"g":0.0,"b":0.0,"a":1.0},"guid":"318960e2-ca33-48bc-a0ec-766f49c727d3","$version":"A","$type":"Ludiq.GraphGroup"},{"position":{"xMin":-1072.0,"yMin":-403.0,"xMax":12.0,"yMax":236.0},"label":"Moving
      Up","comment":null,"color":{"r":0.0,"g":0.0,"b":0.0,"a":1.0},"guid":"e75d9f40-88e0-490d-9884-fbe2a58fbbf2","$version":"A","$type":"Ludiq.GraphGroup"},{"position":{"xMin":1628.0,"yMin":57.0,"xMax":2704.0,"yMax":440.0},"label":"Collision
      with Bullet","comment":null,"color":{"r":1.0,"g":0.0,"b":0.0,"a":1.0},"guid":"f125bfeb-1d5a-41b8-8240-b7c50dc43595","$version":"A","$type":"Ludiq.GraphGroup"},{"position":{"xMin":-1484.0,"yMin":296.0,"xMax":-719.0,"yMax":738.0},"label":"Set
      player proche de l''\u00e9cran","comment":null,"color":{"r":0.0,"g":0.0,"b":0.0,"a":1.0},"guid":"5bbf7a6a-464d-4104-9911-6193ed246ac2","$version":"A","$type":"Ludiq.GraphGroup"}],"$version":"A"}}'
    _objectReferences:
    - {fileID: 11400000, guid: 98050da19ee84ea449809de89b3c2cff, type: 2}
    - {fileID: 11400000, guid: 98050da19ee84ea449809de89b3c2cff, type: 2}
