%YAML 1.1
%TAG !u! tag:unity3d.com,2011:
--- !u!114 &11400000
MonoBehaviour:
  m_ObjectHideFlags: 0
  m_CorrespondingSourceObject: {fileID: 0}
  m_PrefabInstance: {fileID: 0}
  m_PrefabAsset: {fileID: 0}
  m_GameObject: {fileID: 0}
  m_Enabled: 1
  m_EditorHideFlags: 0
  m_Script: {fileID: -1893448595, guid: a040fb66244a7f54289914d98ea4ef7d, type: 3}
  m_Name: PongFighter_UIScoreBar
  m_EditorClassIdentifier: 
  _data:
    _json: '{"graph":{"variables":{"collection":{"$content":[],"$version":"A"},"$version":"A"},"controlInputDefinitions":[],"controlOutputDefinitions":[],"valueInputDefinitions":[],"valueOutputDefinitions":[],"title":null,"summary":null,"pan":{"x":-109.7745,"y":-271.2977},"zoom":0.8,"elements":[{"coroutine":false,"defaultValues":{},"position":{"x":-1130.0,"y":171.0},"guid":"8e017106-c135-4693-a492-d94d644c3f23","$version":"A","$type":"Bolt.Update","$id":"9"},{"defaultValues":{"minuend":{"$content":1.0,"$type":"System.Single"},"subtrahend":{"$content":0.3,"$type":"System.Single"}},"position":{"x":-296.0,"y":-104.0},"guid":"bb47cfa2-7a7f-49d8-897c-6efa16b4b579","$version":"A","$type":"Bolt.ScalarSubtract","$id":"11"},{"specifyFallback":false,"kind":"Application","defaultValues":{"name":{"$content":"Score","$type":"System.String"}},"position":{"x":-1194.0,"y":457.0},"guid":"0e331db2-94ba-4425-95c2-643fc9b3a440","$version":"A","$type":"Bolt.GetVariable","$id":"13"},{"type":"System.String","value":{"$content":"Scores
      : ","$type":"System.String"},"defaultValues":{},"position":{"x":-1151.0,"y":348.0},"guid":"52b05351-d01d-4774-80a0-0c7cf3b15886","$version":"A","$type":"Bolt.Literal","$id":"15"},{"defaultValues":{},"position":{"x":-965.0,"y":389.0},"guid":"989f97ac-5ac4-48a4-8ccf-c8db9d785386","$version":"A","$type":"Bolt.GenericAdd","$id":"17"},{"coroutine":false,"defaultValues":{},"position":{"x":-656.0,"y":-366.0},"guid":"3d8cb221-2252-46d2-b72f-ec0fee00dd32","$version":"A","$type":"Bolt.Start","$id":"19"},{"specifyFallback":false,"kind":"Object","defaultValues":{"name":{"$content":"Scores","$type":"System.String"},"object":null},"position":{"x":-187.0,"y":-532.0},"guid":"689a51ec-10c6-4f18-9c00-ebf92db6c0c2","$version":"A","$type":"Bolt.GetVariable","$id":"21"},{"chainable":false,"member":{"name":"position","parameterTypes":null,"targetType":"UnityEngine.Transform","targetTypeName":"UnityEngine.Transform","$version":"A"},"defaultValues":{"target":null,"input":{"x":0.0,"y":0.0,"z":0.0,"$type":"UnityEngine.Vector3"}},"position":{"x":104.0,"y":-414.0},"guid":"9b2b5d6a-bfcd-4f6b-9bd0-135dcb2e6bc5","$version":"A","$type":"Bolt.SetMember","$id":"23"},{"nest":{"source":"Macro","macro":0,"embed":null},"defaultValues":{},"position":{"x":-554.0,"y":-134.0},"guid":"a4201423-bec3-4c50-a067-15f4608277d3","$version":"A","$type":"Bolt.SuperUnit","$id":"26"},{"chainable":false,"member":{"name":".ctor","parameterTypes":["System.Single","System.Single"],"targetType":"UnityEngine.Vector3","targetTypeName":"UnityEngine.Vector3","$version":"A"},"defaultValues":{"%x":{"$content":0.0,"$type":"System.Single"},"%y":{"$content":0.0,"$type":"System.Single"}},"position":{"x":-77.0,"y":-136.0},"guid":"c0661afe-2cfb-4c72-ab92-0334bc561fa1","$version":"A","$type":"Bolt.InvokeMember","$id":"29"},{"chainable":false,"member":{"name":"text","parameterTypes":null,"targetType":"UnityEngine.UI.Text","targetTypeName":"UnityEngine.UI.Text","$version":"A"},"defaultValues":{"target":null,"input":{"$content":"","$type":"System.String"}},"position":{"x":-718.0,"y":175.0},"guid":"82bdd1a2-1adc-4411-b227-cff0f223abc6","$version":"A","$type":"Bolt.SetMember","$id":"32"},{"kind":"Application","defaultValues":{"name":{"$content":"Score","$type":"System.String"}},"position":{"x":-243.0,"y":-371.0},"guid":"32de0690-5150-4170-bf75-20c69bd4336e","$version":"A","$type":"Bolt.SetVariable","$id":"35"},{"type":"System.Single","value":{"$content":0.0,"$type":"System.Single"},"defaultValues":{},"position":{"x":-428.0,"y":-275.0},"guid":"16b11165-3163-4826-b983-9af41201c2ad","$version":"A","$type":"Bolt.Literal","$id":"37"},{"specifyFallback":false,"kind":"Object","defaultValues":{"name":{"$content":"Scores","$type":"System.String"},"object":null},"position":{"x":-939.0,"y":64.0},"guid":"0fc72e89-fee2-4970-89b2-9fc93c256265","$version":"A","$type":"Bolt.GetVariable","$id":"39"},{"sourceUnit":{"$ref":"19"},"sourceKey":"trigger","destinationUnit":{"$ref":"35"},"destinationKey":"assign","guid":"724a271c-afd6-410a-9cee-9374942692a5","$type":"Bolt.ControlConnection"},{"sourceUnit":{"$ref":"35"},"sourceKey":"assigned","destinationUnit":{"$ref":"23"},"destinationKey":"assign","guid":"fbdb803d-7d3c-4d8d-af31-e857eb0a9eda","$type":"Bolt.ControlConnection"},{"sourceUnit":{"$ref":"9"},"sourceKey":"trigger","destinationUnit":{"$ref":"32"},"destinationKey":"assign","guid":"32cdd821-14cb-40e2-b487-ac5028d62ea8","$type":"Bolt.ControlConnection"},{"sourceUnit":{"$ref":"26"},"sourceKey":"Top","destinationUnit":{"$ref":"11"},"destinationKey":"minuend","guid":"4a4ce1a9-8e4a-47e4-b866-718b85f32700","$type":"Bolt.ValueConnection"},{"sourceUnit":{"$ref":"13"},"sourceKey":"value","destinationUnit":{"$ref":"17"},"destinationKey":"b","guid":"7f12e4e8-ef6e-46f7-b371-e6667d352daf","$type":"Bolt.ValueConnection"},{"sourceUnit":{"$ref":"11"},"sourceKey":"difference","destinationUnit":{"$ref":"29"},"destinationKey":"%y","guid":"a3297f14-ddae-460d-b262-4c13fb12daa8","$type":"Bolt.ValueConnection"},{"sourceUnit":{"$ref":"29"},"sourceKey":"result","destinationUnit":{"$ref":"23"},"destinationKey":"input","guid":"2b6ed98d-155b-440a-beab-de7306dda5cf","$type":"Bolt.ValueConnection"},{"sourceUnit":{"$ref":"15"},"sourceKey":"output","destinationUnit":{"$ref":"17"},"destinationKey":"a","guid":"6f41d243-8cba-409c-9ca5-1f222557808a","$type":"Bolt.ValueConnection"},{"sourceUnit":{"$ref":"17"},"sourceKey":"sum","destinationUnit":{"$ref":"32"},"destinationKey":"input","guid":"cf5cc6a7-e69e-4bf9-97e2-665dbf28cdc0","$type":"Bolt.ValueConnection"},{"sourceUnit":{"$ref":"37"},"sourceKey":"output","destinationUnit":{"$ref":"35"},"destinationKey":"input","guid":"b0a86522-994d-4657-9569-1026b7535570","$type":"Bolt.ValueConnection"},{"sourceUnit":{"$ref":"21"},"sourceKey":"value","destinationUnit":{"$ref":"23"},"destinationKey":"target","guid":"ceb10504-8b7e-4a4d-8115-9372234baf7e","$type":"Bolt.ValueConnection"},{"sourceUnit":{"$ref":"39"},"sourceKey":"value","destinationUnit":{"$ref":"32"},"destinationKey":"target","guid":"4b6e8710-2219-4b55-a372-e2787dca3346","$type":"Bolt.ValueConnection"}],"$version":"A"}}'
    _objectReferences:
    - {fileID: 11400000, guid: 98050da19ee84ea449809de89b3c2cff, type: 2}
