%YAML 1.1
%TAG !u! tag:unity3d.com,2011:
--- !u!114 &11400000
MonoBehaviour:
  m_ObjectHideFlags: 0
  m_CorrespondingSourceObject: {fileID: 0}
  m_PrefabInstance: {fileID: 0}
  m_PrefabAsset: {fileID: 0}
  m_GameObject: {fileID: 0}
  m_Enabled: 1
  m_EditorHideFlags: 0
  m_Script: {fileID: -1893448595, guid: a040fb66244a7f54289914d98ea4ef7d, type: 3}
  m_Name: PongFighter_Debris
  m_EditorClassIdentifier: 
  _data:
    _json: '{"graph":{"variables":{"collection":{"$content":[],"$version":"A"},"$version":"A"},"controlInputDefinitions":[],"controlOutputDefinitions":[],"valueInputDefinitions":[],"valueOutputDefinitions":[],"title":null,"summary":null,"pan":{"x":-595.3445,"y":1169.109},"zoom":0.25,"elements":[{"coroutine":false,"defaultValues":{},"position":{"x":-1864.0,"y":167.0},"guid":"e68c3845-8cd8-4853-8909-28c696f7ad85","$version":"A","$type":"Bolt.Start","$id":"9"},{"specifyFallback":false,"kind":"Object","defaultValues":{"name":{"$content":"DebrisRenderer2","$type":"System.String"},"object":null},"position":{"x":-2612.0,"y":1367.0},"guid":"e2973918-fb74-4dfe-af33-6ab2e9139c08","$version":"A","$type":"Bolt.GetVariable","$id":"11"},{"argumentCount":0,"coroutine":false,"defaultValues":{"target":null,"name":{"$content":"","$type":"System.String"}},"position":{"x":-3281.0,"y":1424.0},"guid":"7ae1b04d-dbd2-4cf4-84ec-7b09906c3be7","$version":"A","$type":"Bolt.CustomEvent","$id":"13"},{"outputCount":3,"defaultValues":{},"position":{"x":598.0,"y":912.0},"guid":"1bafddbb-8999-4252-854b-7c528a3c5d8b","$version":"A","$type":"Bolt.Sequence","$id":"15"},{"defaultValues":{"b":{"$content":-1.0,"$type":"System.Single"}},"position":{"x":-918.0,"y":744.0},"guid":"dbf14a1a-4721-48e1-af7e-e7c831e82e79","$version":"A","$type":"Bolt.ScalarMultiply","$id":"17"},{"defaultValues":{},"position":{"x":-281.0,"y":1616.0},"guid":"1345bd77-1e89-4c1c-9bde-4b90a111bede","$version":"A","$type":"Bolt.GenericMultiply","$id":"19"},{"specifyFallback":false,"kind":"Object","defaultValues":{"name":{"$content":"DebrisRenderer1","$type":"System.String"},"object":null},"position":{"x":-2604.0,"y":1249.0},"guid":"75a10a0d-0019-46ef-bf5b-a28a54541e4d","$version":"A","$type":"Bolt.GetVariable","$id":"21"},{"member":{"name":"x","parameterTypes":null,"targetType":"UnityEngine.Vector3","targetTypeName":"UnityEngine.Vector3","$version":"A"},"defaultValues":{"target":{"x":0.0,"y":0.0,"z":0.0,"$type":"UnityEngine.Vector3"}},"position":{"x":-1832.0,"y":333.0},"guid":"82bfabf5-04ec-4c29-a94f-4ef7afbcb66e","$version":"A","$type":"Bolt.GetMember","$id":"23"},{"numeric":true,"defaultValues":{"b":{"$content":0.0,"$type":"System.Single"}},"position":{"x":-1382.0,"y":1577.0},"guid":"bb4bb81e-b273-43d1-a366-4c8e9cdc9cd7","$version":"A","$type":"Bolt.GreaterOrEqual","$id":"26"},{"defaultValues":{},"position":{"x":2086.0,"y":728.0},"guid":"dcded261-9512-4a65-b871-1a5d0e6f4612","$version":"A","$type":"Bolt.Branch","$id":"28"},{"specifyFallback":false,"kind":"Application","defaultValues":{"name":{"$content":"Score","$type":"System.String"}},"position":{"x":2113.0,"y":1343.0},"guid":"334487ff-0d1d-49ca-8123-ab0243c5c3a9","$version":"A","$type":"Bolt.GetVariable","$id":"30"},{"chainable":false,"member":{"name":"Destroy","parameterTypes":["UnityEngine.Object"],"targetType":"UnityEngine.GameObject","targetTypeName":"UnityEngine.GameObject","$version":"A"},"defaultValues":{"%obj":null},"position":{"x":-3027.0,"y":2276.0},"guid":"740391db-6d04-44f8-98c2-a2b718627595","$version":"A","$type":"Bolt.InvokeMember","$id":"32"},{"member":{"name":"position","parameterTypes":null,"targetType":"UnityEngine.Transform","targetTypeName":"UnityEngine.Transform","$version":"A"},"defaultValues":{"target":null},"position":{"x":-2027.0,"y":331.0},"guid":"400ef6c8-9dc1-4b2a-bbe3-75cf4acfa0a6","$version":"A","$type":"Bolt.GetMember","$id":"35"},{"type":"System.Boolean","value":{"$content":true,"$type":"System.Boolean"},"defaultValues":{},"position":{"x":-3241.0,"y":1584.0},"guid":"12a83b1f-b29f-4bef-bb31-799fe105b656","$version":"A","$type":"Bolt.Literal","$id":"38"},{"specifyFallback":false,"kind":"Object","defaultValues":{"name":{"$content":"speed","$type":"System.String"},"object":null},"position":{"x":-938.0,"y":1187.0},"guid":"20957873-202f-4052-8d8c-2ed16c27a3b6","$version":"A","$type":"Bolt.GetVariable","$id":"40"},{"chainable":false,"member":{"name":"Destroy","parameterTypes":["UnityEngine.Object"],"targetType":"UnityEngine.GameObject","targetTypeName":"UnityEngine.GameObject","$version":"A"},"defaultValues":{"%obj":null},"position":{"x":2152.0,"y":1074.0},"guid":"d3f58020-917b-4ccc-8d42-874d3c18a388","$version":"A","$type":"Bolt.InvokeMember","$id":"42"},{"type":"System.Single","value":{"$content":50.0,"$type":"System.Single"},"defaultValues":{},"position":{"x":2163.0,"y":1216.0},"guid":"fbf21662-363d-4eeb-98d2-3dbecae375ef","$version":"A","$type":"Bolt.Literal","$id":"45"},{"chainable":false,"member":{"name":"color","parameterTypes":null,"targetType":"UnityEngine.SpriteRenderer","targetTypeName":"UnityEngine.SpriteRenderer","$version":"A"},"defaultValues":{"target":null,"input":{"r":1.0,"g":1.0,"b":1.0,"a":1.0,"$type":"UnityEngine.Color"}},"position":{"x":-2083.0,"y":1105.0},"guid":"b94eed72-5352-4953-a059-b738441615cf","$version":"A","$type":"Bolt.SetMember","$id":"47"},{"defaultValues":{},"position":{"x":-776.0,"y":1602.0},"guid":"155b46d9-a49e-4f7c-80fd-8b17549c365b","$version":"A","$type":"Bolt.GenericSubtract","$id":"50"},{"defaultValues":{},"position":{"x":2291.0,"y":1233.0},"guid":"8fba94d0-22ad-4370-88a2-8c54c4796f1e","$version":"A","$type":"Bolt.GenericAdd","$id":"52"},{"specifyFallback":false,"kind":"Object","defaultValues":{"name":{"$content":"speed","$type":"System.String"},"object":null},"position":{"x":-1106.0,"y":747.0},"guid":"cf87c5c8-97fb-4475-84d1-fffb87d82d14","$version":"A","$type":"Bolt.GetVariable","$id":"54"},{"type":"System.Single","value":{"$content":0.3,"$type":"System.Single"},"defaultValues":{},"position":{"x":1909.0,"y":1773.0},"guid":"a22bf577-c3ae-42e1-8c8a-64f3fa9f2801","$version":"A","$type":"Bolt.Literal","$id":"56"},{"chainable":false,"member":{"name":"velocity","parameterTypes":null,"targetType":"UnityEngine.Rigidbody2D","targetTypeName":"UnityEngine.Rigidbody2D","$version":"A"},"defaultValues":{"target":null,"input":{"x":0.0,"y":0.0,"$type":"UnityEngine.Vector2"}},"position":{"x":-101.0,"y":1497.0},"guid":"ee266391-6709-4632-b127-62e1b895feb0","$version":"A","$type":"Bolt.SetMember","$id":"58"},{"argumentCount":0,"coroutine":false,"defaultValues":{"target":null,"name":{"$content":"","$type":"System.String"}},"position":{"x":-3261.0,"y":1140.0},"guid":"1c4a67ed-1a6e-4b74-8ab0-ba4148f3ca65","$version":"A","$type":"Bolt.CustomEvent","$id":"61"},{"chainable":false,"member":{"name":"velocity","parameterTypes":null,"targetType":"UnityEngine.Rigidbody2D","targetTypeName":"UnityEngine.Rigidbody2D","$version":"A"},"defaultValues":{"target":null,"input":{"x":0.0,"y":0.0,"$type":"UnityEngine.Vector2"}},"position":{"x":-646.0,"y":453.0},"guid":"2cd22b29-33c3-4997-b1a1-59b2ad68fe4a","$version":"A","$type":"Bolt.SetMember","$id":"63"},{"numeric":true,"defaultValues":{"b":{"$content":0.0,"$type":"System.Single"}},"position":{"x":-1607.0,"y":393.0},"guid":"cfa2d9b3-c998-4883-a988-58d50a73ef08","$version":"A","$type":"Bolt.GreaterOrEqual","$id":"66"},{"member":{"name":"right","parameterTypes":null,"targetType":"UnityEngine.Transform","targetTypeName":"UnityEngine.Transform","$version":"A"},"defaultValues":{"target":null},"position":{"x":-690.0,"y":1733.0},"guid":"1f4b5794-8f61-4baa-af98-886b7cfd4183","$version":"A","$type":"Bolt.GetMember","$id":"68"},{"member":{"name":"right","parameterTypes":null,"targetType":"UnityEngine.Transform","targetTypeName":"UnityEngine.Transform","$version":"A"},"defaultValues":{"target":null},"position":{"x":-998.0,"y":605.0},"guid":"584736ab-d8fb-4a89-be6a-86645be68d9c","$version":"A","$type":"Bolt.GetMember","$id":"71"},{"specifyFallback":false,"kind":"Object","defaultValues":{"name":{"$content":"hitByPlayer2","$type":"System.String"},"object":null},"position":{"x":1545.0,"y":1312.0},"guid":"a5f26731-baef-4a7b-be00-df00a0c8feae","$version":"A","$type":"Bolt.GetVariable","$id":"74"},{"nest":{"source":"Macro","macro":0,"embed":null},"defaultValues":{},"position":{"x":1509.0,"y":741.0},"guid":"ecf7d2e2-e828-4380-9400-334a36fedfef","$version":"A","$type":"Bolt.SuperUnit","$id":"76"},{"defaultValues":{},"position":{"x":-790.0,"y":127.0},"guid":"4f125f9e-98df-4cb4-8b2d-2e816e797dff","$version":"A","$type":"Bolt.GenericMultiply","$id":"79"},{"chainable":false,"member":{"name":"color","parameterTypes":null,"targetType":"UnityEngine.SpriteRenderer","targetTypeName":"UnityEngine.SpriteRenderer","$version":"A"},"defaultValues":{"target":null,"input":{"r":1.0,"g":1.0,"b":1.0,"a":1.0,"$type":"UnityEngine.Color"}},"position":{"x":-2327.0,"y":1426.0},"guid":"32d49800-492d-4df6-b005-c04b3c23a576","$version":"A","$type":"Bolt.SetMember","$id":"81"},{"numeric":true,"defaultValues":{"b":{"$content":0.0,"$type":"System.Single"}},"position":{"x":1879.0,"y":557.0},"guid":"376eedc6-60a2-4e5f-bb4c-58a93c400016","$version":"A","$type":"Bolt.Greater","$id":"84"},{"defaultValues":{},"position":{"x":2045.0,"y":410.0},"guid":"24ddcf4e-333e-4e64-b4f8-a4d31718a680","$version":"A","$type":"Bolt.Branch","$id":"86"},{"specifyFallback":false,"kind":"Object","defaultValues":{"name":{"$content":"speed","$type":"System.String"},"object":null},"position":{"x":-1006.0,"y":1599.0},"guid":"7686fca4-5613-4942-b12b-2ace4f96f640","$version":"A","$type":"Bolt.GetVariable","$id":"88"},{"kind":"Object","defaultValues":{"name":{"$content":"hitByPlayer2","$type":"System.String"},"object":null},"position":{"x":-3032.0,"y":1411.0},"guid":"52b349db-1870-4735-9a70-6e738721d5ba","$version":"A","$type":"Bolt.SetVariable","$id":"90"},{"member":{"name":"x","parameterTypes":null,"targetType":"UnityEngine.Vector3","targetTypeName":"UnityEngine.Vector3","$version":"A"},"defaultValues":{"target":{"x":0.0,"y":0.0,"z":0.0,"$type":"UnityEngine.Vector3"}},"position":{"x":1606.0,"y":567.0},"guid":"90d94bbe-e005-462a-a30f-cec2d5e94b36","$version":"A","$type":"Bolt.GetMember","$id":"92"},{"specifyFallback":false,"kind":"Application","defaultValues":{"name":{"$content":"EventColliderExplosion","$type":"System.String"}},"position":{"x":-3691.0,"y":2398.0},"guid":"4b5588c5-90a0-46a0-853f-a44577d98ee9","$version":"A","$type":"Bolt.GetVariable","$id":"95"},{"specifyFallback":false,"kind":"Object","defaultValues":{"name":{"$content":"speed","$type":"System.String"},"object":null},"position":{"x":-972.0,"y":215.0},"guid":"cff6d5a0-fd83-4091-90e1-d6ab2db3a29d","$version":"A","$type":"Bolt.GetVariable","$id":"97"},{"defaultValues":{},"position":{"x":-455.0,"y":1711.0},"guid":"f846b49e-de71-4499-8198-3bab7f435135","$version":"A","$type":"Bolt.GenericMultiply","$id":"99"},{"numeric":true,"defaultValues":{"b":{"$content":0.0,"$type":"System.Single"}},"position":{"x":1866.0,"y":785.0},"guid":"cb4544d2-4f71-4c3d-a02e-0e0f829201ac","$version":"A","$type":"Bolt.Less","$id":"101"},{"chainable":false,"member":{"name":"LoadScene","parameterTypes":["System.String"],"targetType":"UnityEngine.SceneManagement.SceneManager","targetTypeName":"UnityEngine.SceneManagement.SceneManager","$version":"A"},"defaultValues":{"%sceneName":{"$content":"GameOver","$type":"System.String"}},"position":{"x":2325.0,"y":395.0},"guid":"92523505-2579-4e5d-9784-83196a524397","$version":"A","$type":"Bolt.InvokeMember","$id":"103"},{"chainable":false,"member":{"name":".ctor","parameterTypes":["System.Single","System.Single","System.Single"],"targetType":"UnityEngine.Color","targetTypeName":"UnityEngine.Color","$version":"A"},"defaultValues":{"%r":{"$content":255.0,"$type":"System.Single"},"%g":{"$content":0.0,"$type":"System.Single"},"%b":{"$content":0.0,"$type":"System.Single"}},"position":{"x":-2572.0,"y":1077.0},"guid":"09705ec8-8c91-4401-ae1f-e694aa861f61","$version":"A","$type":"Bolt.InvokeMember","$id":"106"},{"defaultValues":{},"position":{"x":1861.0,"y":1643.0},"guid":"ed29ccc8-49e7-4696-9a9a-fef591507ed0","$version":"A","$type":"Bolt.Branch","$id":"109"},{"member":{"name":"position","parameterTypes":null,"targetType":"UnityEngine.Transform","targetTypeName":"UnityEngine.Transform","$version":"A"},"defaultValues":{"target":null},"position":{"x":1411.0,"y":591.0},"guid":"6ecd4b75-f1bf-40b8-8beb-f260e75e8b39","$version":"A","$type":"Bolt.GetMember","$id":"111"},{"coroutine":false,"defaultValues":{},"position":{"x":395.0,"y":930.0},"guid":"d27cdae4-c9ea-4728-8284-f26b897463ce","$version":"A","$type":"Bolt.Update","$id":"114"},{"kind":"Object","defaultValues":{"name":{"$content":"speed","$type":"System.String"},"object":null},"position":{"x":-549.0,"y":1065.0},"guid":"a941f964-ad7d-4091-a498-1de2273e3921","$version":"A","$type":"Bolt.SetVariable","$id":"116"},{"type":"System.Single","value":{"$content":0.2,"$type":"System.Single"},"defaultValues":{},"position":{"x":-874.0,"y":1323.0},"guid":"2d09ecad-1bbb-466d-9c6b-0c279b99b963","$version":"A","$type":"Bolt.Literal","$id":"118"},{"type":"System.Boolean","value":{"$content":true,"$type":"System.Boolean"},"defaultValues":{},"position":{"x":-3221.0,"y":1300.0},"guid":"d589779c-ac42-4ef1-b3da-a734fbb3f091","$version":"A","$type":"Bolt.Literal","$id":"120"},{"defaultValues":{},"position":{"x":1998.0,"y":1216.0},"guid":"b3347e3e-802b-40ce-86af-b2d6996ede81","$version":"A","$type":"Bolt.Self","$id":"122"},{"numeric":true,"defaultValues":{"b":{"$content":0.3,"$type":"System.Single"}},"position":{"x":1670.0,"y":1706.0},"guid":"41e1c3e7-1ad2-4f2a-8567-44f5ff98b203","$version":"A","$type":"Bolt.Less","$id":"124"},{"chainable":false,"member":{"name":"velocity","parameterTypes":null,"targetType":"UnityEngine.Rigidbody2D","targetTypeName":"UnityEngine.Rigidbody2D","$version":"A"},"defaultValues":{"target":null,"input":{"x":0.0,"y":0.0,"$type":"UnityEngine.Vector2"}},"position":{"x":-96.0,"y":1074.0},"guid":"65d524f9-bafe-4d97-a3b8-d6a3b1559b7c","$version":"A","$type":"Bolt.SetMember","$id":"126"},{"chainable":false,"member":{"name":"LoadScene","parameterTypes":["System.String"],"targetType":"UnityEngine.SceneManagement.SceneManager","targetTypeName":"UnityEngine.SceneManagement.SceneManager","$version":"A"},"defaultValues":{"%sceneName":{"$content":"GameOver","$type":"System.String"}},"position":{"x":2324.0,"y":726.0},"guid":"ad6a2ef0-40a5-484e-b098-82773f8d4d0b","$version":"A","$type":"Bolt.InvokeMember","$id":"129"},{"specifyFallback":false,"kind":"Application","defaultValues":{"name":{"$content":"Event
      CollideBulletPlayer2","$type":"System.String"}},"position":{"x":-3623.0,"y":1447.0},"guid":"683a426f-4ee6-45e8-bfd6-7f8116054ea8","$version":"A","$type":"Bolt.GetVariable","$id":"132"},{"member":{"name":"x","parameterTypes":null,"targetType":"UnityEngine.Vector3","targetTypeName":"UnityEngine.Vector3","$version":"A"},"defaultValues":{"target":{"x":0.0,"y":0.0,"z":0.0,"$type":"UnityEngine.Vector3"}},"position":{"x":-1550.0,"y":1597.0},"guid":"e1a5bc71-dec8-4ff0-b232-2e618dac8ca9","$version":"A","$type":"Bolt.GetMember","$id":"134"},{"defaultValues":{},"position":{"x":-1435.0,"y":189.0},"guid":"fad45550-573f-47b9-b344-e6c5ef91042c","$version":"A","$type":"Bolt.Branch","$id":"137"},{"defaultValues":{},"position":{"x":1751.0,"y":1203.0},"guid":"2b359b89-aa26-4bf2-b79c-896b0f43e742","$version":"A","$type":"Bolt.And","$id":"139"},{"chainable":false,"member":{"name":"color","parameterTypes":null,"targetType":"UnityEngine.SpriteRenderer","targetTypeName":"UnityEngine.SpriteRenderer","$version":"A"},"defaultValues":{"target":null,"input":{"r":1.0,"g":1.0,"b":1.0,"a":1.0,"$type":"UnityEngine.Color"}},"position":{"x":-2152.0,"y":1571.0},"guid":"4fea42a0-14a8-4eac-96e6-de2c48456c10","$version":"A","$type":"Bolt.SetMember","$id":"141"},{"kind":"Object","defaultValues":{"name":{"$content":"speed","$type":"System.String"},"object":null},"position":{"x":-579.0,"y":1485.0},"guid":"7c4aa129-3d95-491d-8910-a1c10ed8f6b2","$version":"A","$type":"Bolt.SetVariable","$id":"144"},{"defaultValues":{},"position":{"x":-271.0,"y":1189.0},"guid":"8994e3b6-5a59-411e-866f-9ebba478d0af","$version":"A","$type":"Bolt.GenericMultiply","$id":"146"},{"specifyFallback":false,"kind":"Object","defaultValues":{"name":{"$content":"DebrisTriggerKill","$type":"System.String"},"object":null},"position":{"x":-3701.0,"y":2262.0},"guid":"abbce6c7-2e94-4f2e-8624-679dc96fb1ce","$version":"A","$type":"Bolt.GetVariable","$id":"148"},{"defaultValues":{},"position":{"x":-762.0,"y":611.0},"guid":"6c2dae17-6a50-4df4-a746-c54415374d0a","$version":"A","$type":"Bolt.GenericMultiply","$id":"150"},{"specifyFallback":false,"kind":"Application","defaultValues":{"name":{"$content":"EventCollideBulletPlayer1","$type":"System.String"}},"position":{"x":-3603.0,"y":1162.0},"guid":"fda443e0-7aa6-469b-a01e-8964038e0624","$version":"A","$type":"Bolt.GetVariable","$id":"152"},{"chainable":false,"member":{"name":".ctor","parameterTypes":["System.Single","System.Single","System.Single"],"targetType":"UnityEngine.Color","targetTypeName":"UnityEngine.Color","$version":"A"},"defaultValues":{"%r":{"$content":0.0,"$type":"System.Single"},"%g":{"$content":255.0,"$type":"System.Single"},"%b":{"$content":0.0,"$type":"System.Single"}},"position":{"x":-2574.0,"y":1508.0},"guid":"90966000-00b4-4087-ae14-064e6d165b8c","$version":"A","$type":"Bolt.InvokeMember","$id":"154"},{"kind":"Application","defaultValues":{"name":{"$content":"Score","$type":"System.String"}},"position":{"x":2442.0,"y":1077.0},"guid":"170976ae-dadb-4ec8-8d60-e393af2a3dda","$version":"A","$type":"Bolt.SetVariable","$id":"157"},{"member":{"name":"right","parameterTypes":null,"targetType":"UnityEngine.Transform","targetTypeName":"UnityEngine.Transform","$version":"A"},"defaultValues":{"target":null},"position":{"x":-1012.0,"y":93.0},"guid":"8026a7ab-d4fa-488b-ade5-44c5359478c5","$version":"A","$type":"Bolt.GetMember","$id":"159"},{"member":{"name":"right","parameterTypes":null,"targetType":"UnityEngine.Transform","targetTypeName":"UnityEngine.Transform","$version":"A"},"defaultValues":{"target":null},"position":{"x":-466.0,"y":1302.0},"guid":"3d4eb5ac-ba19-4c86-afa4-fe9fafd16fea","$version":"A","$type":"Bolt.GetMember","$id":"162"},{"defaultValues":{},"position":{"x":-708.0,"y":1190.0},"guid":"45e9ae7f-2750-47e4-9dc8-c280a8156009","$version":"A","$type":"Bolt.GenericSubtract","$id":"165"},{"defaultValues":{},"position":{"x":1937.0,"y":1051.0},"guid":"54f801e5-5cb4-4eed-8cec-e84077ec8f98","$version":"A","$type":"Bolt.Branch","$id":"167"},{"member":{"name":"velocity","parameterTypes":null,"targetType":"UnityEngine.Rigidbody2D","targetTypeName":"UnityEngine.Rigidbody2D","$version":"A"},"defaultValues":{"target":null},"position":{"x":-1727.0,"y":1613.0},"guid":"a00eb981-cca3-48fe-ba11-0e5a3ce872f7","$version":"A","$type":"Bolt.GetMember","$id":"169"},{"type":"System.Single","value":{"$content":0.2,"$type":"System.Single"},"defaultValues":{},"position":{"x":-968.0,"y":1819.0},"guid":"6e0604d1-f9e5-4b08-bf5c-edc246c498af","$version":"A","$type":"Bolt.Literal","$id":"172"},{"chainable":false,"member":{"name":"color","parameterTypes":null,"targetType":"UnityEngine.SpriteRenderer","targetTypeName":"UnityEngine.SpriteRenderer","$version":"A"},"defaultValues":{"target":null,"input":{"r":1.0,"g":1.0,"b":1.0,"a":1.0,"$type":"UnityEngine.Color"}},"position":{"x":-2343.0,"y":1089.0},"guid":"dc64a1a9-6dd2-4efd-aa2f-0f78594a1b96","$version":"A","$type":"Bolt.SetMember","$id":"174"},{"defaultValues":{},"position":{"x":-3314.0,"y":2128.0},"guid":"39d61e2b-ba48-410f-9921-cffc20830e4a","$version":"A","$type":"Bolt.Self","$id":"177"},{"kind":"Object","defaultValues":{"name":{"$content":"speed","$type":"System.String"},"object":null},"position":{"x":2070.0,"y":1642.0},"guid":"713f018a-a744-4e64-96e3-c07936e2d243","$version":"A","$type":"Bolt.SetVariable","$id":"179"},{"kind":"Object","defaultValues":{"name":{"$content":"hitByPlayer1","$type":"System.String"},"object":null},"position":{"x":-3012.0,"y":1126.0},"guid":"79472069-ff2d-4a34-846d-4576c12eb619","$version":"A","$type":"Bolt.SetVariable","$id":"181"},{"argumentCount":0,"coroutine":false,"defaultValues":{"target":null,"name":{"$content":"","$type":"System.String"}},"position":{"x":1318.0,"y":2037.0},"guid":"c753ac0d-58ba-4641-a5c6-5cff894a70bb","$version":"A","$type":"Bolt.CustomEvent","$id":"183"},{"defaultValues":{},"position":{"x":1484.0,"y":2134.0},"guid":"ccaec388-1eb6-4f0a-89ee-6442bb9d8e52","$version":"A","$type":"Bolt.Self","$id":"185"},{"specifyFallback":false,"kind":"Object","defaultValues":{"name":{"$content":"speed","$type":"System.String"},"object":null},"position":{"x":1484.0,"y":1701.0},"guid":"ebb8c67e-da61-4061-9c88-e8e54177969e","$version":"A","$type":"Bolt.GetVariable","$id":"187"},{"chainable":false,"member":{"name":"velocity","parameterTypes":null,"targetType":"UnityEngine.Rigidbody2D","targetTypeName":"UnityEngine.Rigidbody2D","$version":"A"},"defaultValues":{"target":null,"input":{"x":0.0,"y":0.0,"$type":"UnityEngine.Vector2"}},"position":{"x":-661.0,"y":-59.0},"guid":"fcf0e344-51b3-469d-92d6-dd7985f9d091","$version":"A","$type":"Bolt.SetMember","$id":"189"},{"outputCount":2,"defaultValues":{},"position":{"x":1533.0,"y":412.0},"guid":"c494a4b0-144d-4b25-874b-e6f8be54e0da","$version":"A","$type":"Bolt.Sequence","$id":"192"},{"argumentCount":0,"coroutine":false,"defaultValues":{"target":null,"name":{"$content":"","$type":"System.String"}},"position":{"x":-3359.0,"y":2267.0},"guid":"800a520f-bdaf-4f4b-a36d-e7666c8490de","$version":"A","$type":"Bolt.CustomEvent","$id":"194"},{"type":"System.Int32","value":{"$content":-1,"$type":"System.Int32"},"defaultValues":{},"position":{"x":-624.0,"y":1868.0},"guid":"dbf257c8-759f-4df6-ba38-1cea9db75924","$version":"A","$type":"Bolt.Literal","$id":"196"},{"specifyFallback":false,"kind":"Object","defaultValues":{"name":{"$content":"hitByPlayer1","$type":"System.String"},"object":null},"position":{"x":1543.0,"y":1181.0},"guid":"48bec6d7-cc87-4b0e-9287-2df8373962ba","$version":"A","$type":"Bolt.GetVariable","$id":"198"},{"specifyFallback":false,"kind":"Application","defaultValues":{"name":{"$content":"EventColliderExplosion","$type":"System.String"}},"position":{"x":1017.0,"y":2079.0},"guid":"48a47c5c-9600-4aeb-810b-45541eac0cfd","$version":"A","$type":"Bolt.GetVariable","$id":"200"},{"chainable":false,"member":{"name":"Destroy","parameterTypes":["UnityEngine.Object"],"targetType":"UnityEngine.GameObject","targetTypeName":"UnityEngine.GameObject","$version":"A"},"defaultValues":{"%obj":null},"position":{"x":1650.0,"y":2051.0},"guid":"d10155b9-545c-406c-b428-4abb3d5b5343","$version":"A","$type":"Bolt.InvokeMember","$id":"202"},{"defaultValues":{},"position":{"x":-1138.0,"y":1299.0},"guid":"ff078a81-a97d-4f42-8292-e3fea039137f","$version":"A","$type":"Bolt.Branch","$id":"205"},{"sourceUnit":{"$ref":"106"},"sourceKey":"exit","destinationUnit":{"$ref":"174"},"destinationKey":"assign","guid":"30817e02-3b42-4478-a19f-88e58a67a2a8","$type":"Bolt.ControlConnection"},{"sourceUnit":{"$ref":"154"},"sourceKey":"exit","destinationUnit":{"$ref":"81"},"destinationKey":"assign","guid":"27b8ab76-e841-4fad-869d-255015c2dae8","$type":"Bolt.ControlConnection"},{"sourceUnit":{"$ref":"109"},"sourceKey":"ifTrue","destinationUnit":{"$ref":"179"},"destinationKey":"assign","guid":"0068267d-3e83-49e3-8265-95eafb0971a6","$type":"Bolt.ControlConnection"},{"sourceUnit":{"$ref":"15"},"sourceKey":"2","destinationUnit":{"$ref":"109"},"destinationKey":"enter","guid":"b1ec572a-e227-44cc-b635-c41cfe819058","$type":"Bolt.ControlConnection"},{"sourceUnit":{"$ref":"144"},"sourceKey":"assigned","destinationUnit":{"$ref":"58"},"destinationKey":"assign","guid":"69e7f690-7159-4e9a-8fac-7011e7131865","$type":"Bolt.ControlConnection"},{"sourceUnit":{"$ref":"192"},"sourceKey":"0","destinationUnit":{"$ref":"86"},"destinationKey":"enter","guid":"6985c229-2fda-4464-9349-b43ccf9bd477","$type":"Bolt.ControlConnection"},{"sourceUnit":{"$ref":"42"},"sourceKey":"exit","destinationUnit":{"$ref":"157"},"destinationKey":"assign","guid":"3b907f25-08c1-44b6-a983-6ae4af1ed56d","$type":"Bolt.ControlConnection"},{"sourceUnit":{"$ref":"174"},"sourceKey":"assigned","destinationUnit":{"$ref":"47"},"destinationKey":"assign","guid":"721805cf-a34c-4ebc-abb0-70606de2f0a7","$type":"Bolt.ControlConnection"},{"sourceUnit":{"$ref":"15"},"sourceKey":"0","destinationUnit":{"$ref":"192"},"destinationKey":"enter","guid":"dfe7b71c-2b24-4290-ae92-e5a739e4b532","$type":"Bolt.ControlConnection"},{"sourceUnit":{"$ref":"15"},"sourceKey":"1","destinationUnit":{"$ref":"167"},"destinationKey":"enter","guid":"7a3ad983-9be5-46ba-9631-0b48904067c4","$type":"Bolt.ControlConnection"},{"sourceUnit":{"$ref":"137"},"sourceKey":"ifFalse","destinationUnit":{"$ref":"63"},"destinationKey":"assign","guid":"62e26488-c97c-458c-848c-eecf455dd1d2","$type":"Bolt.ControlConnection"},{"sourceUnit":{"$ref":"86"},"sourceKey":"ifTrue","destinationUnit":{"$ref":"103"},"destinationKey":"enter","guid":"8ba2d4e1-c64b-4fd3-a5fe-e11eb6b025de","$type":"Bolt.ControlConnection"},{"sourceUnit":{"$ref":"205"},"sourceKey":"ifTrue","destinationUnit":{"$ref":"116"},"destinationKey":"assign","guid":"09ccc800-9586-4554-9fcd-33a06f8b46cf","$type":"Bolt.ControlConnection"},{"sourceUnit":{"$ref":"141"},"sourceKey":"assigned","destinationUnit":{"$ref":"205"},"destinationKey":"enter","guid":"1baa9a42-b32b-45c0-af14-2124be273063","$type":"Bolt.ControlConnection"},{"sourceUnit":{"$ref":"13"},"sourceKey":"trigger","destinationUnit":{"$ref":"90"},"destinationKey":"assign","guid":"e93117bb-e7ea-4241-b762-4d71571c7582","$type":"Bolt.ControlConnection"},{"sourceUnit":{"$ref":"167"},"sourceKey":"ifTrue","destinationUnit":{"$ref":"42"},"destinationKey":"enter","guid":"d0ca0cb0-9571-434e-90ea-a3a064fea0a1","$type":"Bolt.ControlConnection"},{"sourceUnit":{"$ref":"28"},"sourceKey":"ifTrue","destinationUnit":{"$ref":"129"},"destinationKey":"enter","guid":"fc4aaea9-2689-4e6a-9fef-33071f354c33","$type":"Bolt.ControlConnection"},{"sourceUnit":{"$ref":"194"},"sourceKey":"trigger","destinationUnit":{"$ref":"32"},"destinationKey":"enter","guid":"ed6ddc2c-a4df-41ea-9140-bf2336755bdd","$type":"Bolt.ControlConnection"},{"sourceUnit":{"$ref":"183"},"sourceKey":"trigger","destinationUnit":{"$ref":"202"},"destinationKey":"enter","guid":"ac263105-c416-46b2-acba-67075d3197a2","$type":"Bolt.ControlConnection"},{"sourceUnit":{"$ref":"181"},"sourceKey":"assigned","destinationUnit":{"$ref":"106"},"destinationKey":"enter","guid":"318e5271-624f-4aed-837f-b01e3218a555","$type":"Bolt.ControlConnection"},{"sourceUnit":{"$ref":"61"},"sourceKey":"trigger","destinationUnit":{"$ref":"181"},"destinationKey":"assign","guid":"52d5f200-c4ef-41b1-8b6d-f54e2638e9b1","$type":"Bolt.ControlConnection"},{"sourceUnit":{"$ref":"47"},"sourceKey":"assigned","destinationUnit":{"$ref":"205"},"destinationKey":"enter","guid":"5bcb8d28-13ef-44f6-9726-c712de006251","$type":"Bolt.ControlConnection"},{"sourceUnit":{"$ref":"81"},"sourceKey":"assigned","destinationUnit":{"$ref":"141"},"destinationKey":"assign","guid":"552e6b3d-f8a1-4989-b7c5-8708531fc732","$type":"Bolt.ControlConnection"},{"sourceUnit":{"$ref":"205"},"sourceKey":"ifFalse","destinationUnit":{"$ref":"144"},"destinationKey":"assign","guid":"4bbb12b6-8eea-41e1-b796-16bfa898fca1","$type":"Bolt.ControlConnection"},{"sourceUnit":{"$ref":"114"},"sourceKey":"trigger","destinationUnit":{"$ref":"15"},"destinationKey":"enter","guid":"9ec73f12-e173-4a78-b4c2-b0affcb2d0c5","$type":"Bolt.ControlConnection"},{"sourceUnit":{"$ref":"116"},"sourceKey":"assigned","destinationUnit":{"$ref":"126"},"destinationKey":"assign","guid":"a0c29838-aa7a-4601-80f9-849d0fc14e05","$type":"Bolt.ControlConnection"},{"sourceUnit":{"$ref":"137"},"sourceKey":"ifTrue","destinationUnit":{"$ref":"189"},"destinationKey":"assign","guid":"32d23b21-fd85-46d4-b6c3-95124e90e8ac","$type":"Bolt.ControlConnection"},{"sourceUnit":{"$ref":"90"},"sourceKey":"assigned","destinationUnit":{"$ref":"154"},"destinationKey":"enter","guid":"bc2a362a-140c-42c9-9312-5b71bf10e215","$type":"Bolt.ControlConnection"},{"sourceUnit":{"$ref":"192"},"sourceKey":"1","destinationUnit":{"$ref":"28"},"destinationKey":"enter","guid":"0507ad10-2cbb-4876-afeb-ace7b7dbb527","$type":"Bolt.ControlConnection"},{"sourceUnit":{"$ref":"9"},"sourceKey":"trigger","destinationUnit":{"$ref":"137"},"destinationKey":"enter","guid":"3a4db6f8-47e3-4fe1-92b4-9c9bae0a54a4","$type":"Bolt.ControlConnection"},{"sourceUnit":{"$ref":"177"},"sourceKey":"self","destinationUnit":{"$ref":"32"},"destinationKey":"%obj","guid":"1f3f2e50-e65b-4a27-a002-d736a8569415","$type":"Bolt.ValueConnection"},{"sourceUnit":{"$ref":"116"},"sourceKey":"output","destinationUnit":{"$ref":"146"},"destinationKey":"a","guid":"250ee47c-3fc9-419a-9840-7347d1f9712d","$type":"Bolt.ValueConnection"},{"sourceUnit":{"$ref":"200"},"sourceKey":"value","destinationUnit":{"$ref":"183"},"destinationKey":"name","guid":"83437176-d885-49d9-ab08-a03e7966d11b","$type":"Bolt.ValueConnection"},{"sourceUnit":{"$ref":"162"},"sourceKey":"value","destinationUnit":{"$ref":"146"},"destinationKey":"b","guid":"0a2b2458-14f8-4f83-825b-ddc7cfc871f6","$type":"Bolt.ValueConnection"},{"sourceUnit":{"$ref":"154"},"sourceKey":"result","destinationUnit":{"$ref":"81"},"destinationKey":"input","guid":"b56e7e37-989f-4524-8f31-d88c256ea03b","$type":"Bolt.ValueConnection"},{"sourceUnit":{"$ref":"23"},"sourceKey":"value","destinationUnit":{"$ref":"66"},"destinationKey":"a","guid":"8a526268-12d6-4db0-87f2-fa9049e3715e","$type":"Bolt.ValueConnection"},{"sourceUnit":{"$ref":"172"},"sourceKey":"output","destinationUnit":{"$ref":"50"},"destinationKey":"subtrahend","guid":"af7c2528-ba1c-429c-bfe5-f33b07139b30","$type":"Bolt.ValueConnection"},{"sourceUnit":{"$ref":"88"},"sourceKey":"value","destinationUnit":{"$ref":"50"},"destinationKey":"minuend","guid":"37a694a7-e2b8-4917-9af7-2b95c2e033bb","$type":"Bolt.ValueConnection"},{"sourceUnit":{"$ref":"26"},"sourceKey":"comparison","destinationUnit":{"$ref":"205"},"destinationKey":"condition","guid":"fa717ad7-e810-412b-a768-00e63a9fd44d","$type":"Bolt.ValueConnection"},{"sourceUnit":{"$ref":"50"},"sourceKey":"difference","destinationUnit":{"$ref":"144"},"destinationKey":"input","guid":"37508574-5598-4ac9-bee2-85d1ce72ab41","$type":"Bolt.ValueConnection"},{"sourceUnit":{"$ref":"95"},"sourceKey":"value","destinationUnit":{"$ref":"194"},"destinationKey":"name","guid":"46e92d12-84c8-415a-84ab-d0fae386af50","$type":"Bolt.ValueConnection"},{"sourceUnit":{"$ref":"148"},"sourceKey":"value","destinationUnit":{"$ref":"194"},"destinationKey":"target","guid":"3118ee4c-3ca0-4787-a385-446e611eabf6","$type":"Bolt.ValueConnection"},{"sourceUnit":{"$ref":"76"},"sourceKey":"Right","destinationUnit":{"$ref":"84"},"destinationKey":"b","guid":"d650f0ff-e6df-4085-a799-25698dc6320f","$type":"Bolt.ValueConnection"},{"sourceUnit":{"$ref":"144"},"sourceKey":"output","destinationUnit":{"$ref":"19"},"destinationKey":"a","guid":"8c9b0b79-dd24-49a9-b4e3-471f240d9baa","$type":"Bolt.ValueConnection"},{"sourceUnit":{"$ref":"99"},"sourceKey":"product","destinationUnit":{"$ref":"19"},"destinationKey":"b","guid":"927c684b-c5b7-4eae-813b-0044a1f6e314","$type":"Bolt.ValueConnection"},{"sourceUnit":{"$ref":"11"},"sourceKey":"value","destinationUnit":{"$ref":"81"},"destinationKey":"target","guid":"b2581a91-4377-4c6a-a24d-211174547930","$type":"Bolt.ValueConnection"},{"sourceUnit":{"$ref":"76"},"sourceKey":"Left","destinationUnit":{"$ref":"101"},"destinationKey":"b","guid":"1889bead-bad7-4ecf-afd6-0f85bf74c0c1","$type":"Bolt.ValueConnection"},{"sourceUnit":{"$ref":"40"},"sourceKey":"value","destinationUnit":{"$ref":"165"},"destinationKey":"minuend","guid":"5e0a02b5-ff78-4b67-851f-221742520459","$type":"Bolt.ValueConnection"},{"sourceUnit":{"$ref":"17"},"sourceKey":"product","destinationUnit":{"$ref":"150"},"destinationKey":"b","guid":"73bf4d8a-e348-4d37-b7b3-d4d38e965b62","$type":"Bolt.ValueConnection"},{"sourceUnit":{"$ref":"165"},"sourceKey":"difference","destinationUnit":{"$ref":"116"},"destinationKey":"input","guid":"2ef19279-7a91-46eb-a019-dd97d6a47de7","$type":"Bolt.ValueConnection"},{"sourceUnit":{"$ref":"92"},"sourceKey":"value","destinationUnit":{"$ref":"101"},"destinationKey":"a","guid":"5088f7dc-ed9e-47bc-925f-ea36ea1b5754","$type":"Bolt.ValueConnection"},{"sourceUnit":{"$ref":"169"},"sourceKey":"value","destinationUnit":{"$ref":"134"},"destinationKey":"target","guid":"15967089-1f11-4c23-82df-2c62c6e3c88b","$type":"Bolt.ValueConnection"},{"sourceUnit":{"$ref":"132"},"sourceKey":"value","destinationUnit":{"$ref":"13"},"destinationKey":"name","guid":"3eb8e8f7-a160-49b6-b7d1-f2b735f2408a","$type":"Bolt.ValueConnection"},{"sourceUnit":{"$ref":"106"},"sourceKey":"result","destinationUnit":{"$ref":"174"},"destinationKey":"input","guid":"eabc3407-5e9a-43e8-b263-1a80925dc35a","$type":"Bolt.ValueConnection"},{"sourceUnit":{"$ref":"124"},"sourceKey":"comparison","destinationUnit":{"$ref":"109"},"destinationKey":"condition","guid":"e02010d9-4650-4d58-ba70-5643f1fbec2e","$type":"Bolt.ValueConnection"},{"sourceUnit":{"$ref":"111"},"sourceKey":"value","destinationUnit":{"$ref":"92"},"destinationKey":"target","guid":"2850dbd9-6bbd-450f-af2a-fe43f585d111","$type":"Bolt.ValueConnection"},{"sourceUnit":{"$ref":"11"},"sourceKey":"value","destinationUnit":{"$ref":"174"},"destinationKey":"target","guid":"143071a8-4f1c-4139-bff7-9fd504c397a5","$type":"Bolt.ValueConnection"},{"sourceUnit":{"$ref":"118"},"sourceKey":"output","destinationUnit":{"$ref":"165"},"destinationKey":"subtrahend","guid":"b326a590-d88e-45a4-9238-b2b948d058f5","$type":"Bolt.ValueConnection"},{"sourceUnit":{"$ref":"185"},"sourceKey":"self","destinationUnit":{"$ref":"202"},"destinationKey":"%obj","guid":"e235d250-c887-42fd-af89-91b8283dfa94","$type":"Bolt.ValueConnection"},{"sourceUnit":{"$ref":"52"},"sourceKey":"sum","destinationUnit":{"$ref":"157"},"destinationKey":"input","guid":"6748ab04-44de-4a74-806b-03d08f6d641e","$type":"Bolt.ValueConnection"},{"sourceUnit":{"$ref":"35"},"sourceKey":"value","destinationUnit":{"$ref":"23"},"destinationKey":"target","guid":"7b4d1e5f-532f-452d-9016-13b17454c6b0","$type":"Bolt.ValueConnection"},{"sourceUnit":{"$ref":"21"},"sourceKey":"value","destinationUnit":{"$ref":"141"},"destinationKey":"target","guid":"cf510e8d-51ff-4cee-bdba-d98b2b68f2fd","$type":"Bolt.ValueConnection"},{"sourceUnit":{"$ref":"79"},"sourceKey":"product","destinationUnit":{"$ref":"189"},"destinationKey":"input","guid":"7b071adf-171d-45a6-b859-2bc77c220e79","$type":"Bolt.ValueConnection"},{"sourceUnit":{"$ref":"159"},"sourceKey":"value","destinationUnit":{"$ref":"79"},"destinationKey":"a","guid":"afb08e77-d526-48ba-8b31-8eaed784b0ce","$type":"Bolt.ValueConnection"},{"sourceUnit":{"$ref":"56"},"sourceKey":"output","destinationUnit":{"$ref":"179"},"destinationKey":"input","guid":"0585d50a-3165-4205-957d-d404660ded8d","$type":"Bolt.ValueConnection"},{"sourceUnit":{"$ref":"21"},"sourceKey":"value","destinationUnit":{"$ref":"47"},"destinationKey":"target","guid":"6da36af2-5ff3-4598-8047-a9b512f13202","$type":"Bolt.ValueConnection"},{"sourceUnit":{"$ref":"146"},"sourceKey":"product","destinationUnit":{"$ref":"126"},"destinationKey":"input","guid":"27d81cd4-3d53-49ce-904e-04e53fb1f8c6","$type":"Bolt.ValueConnection"},{"sourceUnit":{"$ref":"45"},"sourceKey":"output","destinationUnit":{"$ref":"52"},"destinationKey":"a","guid":"f4a6bf85-ee45-425d-b752-0486a8e47f41","$type":"Bolt.ValueConnection"},{"sourceUnit":{"$ref":"97"},"sourceKey":"value","destinationUnit":{"$ref":"79"},"destinationKey":"b","guid":"9b58f8cc-2c04-4371-b44b-aeb555f1c86a","$type":"Bolt.ValueConnection"},{"sourceUnit":{"$ref":"30"},"sourceKey":"value","destinationUnit":{"$ref":"52"},"destinationKey":"b","guid":"e8c80bf4-d092-456d-900c-f9c78b015345","$type":"Bolt.ValueConnection"},{"sourceUnit":{"$ref":"134"},"sourceKey":"value","destinationUnit":{"$ref":"26"},"destinationKey":"a","guid":"a699eced-131b-4a8b-97b2-a81fb825215f","$type":"Bolt.ValueConnection"},{"sourceUnit":{"$ref":"152"},"sourceKey":"value","destinationUnit":{"$ref":"61"},"destinationKey":"name","guid":"6bdb5fa9-7992-45ab-a627-853bb25ac074","$type":"Bolt.ValueConnection"},{"sourceUnit":{"$ref":"71"},"sourceKey":"value","destinationUnit":{"$ref":"150"},"destinationKey":"a","guid":"b6a00879-a170-4c3a-abed-0ed7a24dc985","$type":"Bolt.ValueConnection"},{"sourceUnit":{"$ref":"122"},"sourceKey":"self","destinationUnit":{"$ref":"42"},"destinationKey":"%obj","guid":"ccf723dc-cc5c-4eae-8fd0-fa4e0c8e9d23","$type":"Bolt.ValueConnection"},{"sourceUnit":{"$ref":"196"},"sourceKey":"output","destinationUnit":{"$ref":"99"},"destinationKey":"b","guid":"64dec57a-fc23-4be5-acef-4320748882db","$type":"Bolt.ValueConnection"},{"sourceUnit":{"$ref":"68"},"sourceKey":"value","destinationUnit":{"$ref":"99"},"destinationKey":"a","guid":"81d78c2b-f803-4de7-87c8-b4547793baf5","$type":"Bolt.ValueConnection"},{"sourceUnit":{"$ref":"84"},"sourceKey":"comparison","destinationUnit":{"$ref":"86"},"destinationKey":"condition","guid":"a212fd34-9fc0-4761-a5ae-6a13bc1606e5","$type":"Bolt.ValueConnection"},{"sourceUnit":{"$ref":"54"},"sourceKey":"value","destinationUnit":{"$ref":"17"},"destinationKey":"a","guid":"9569888e-53bc-4f11-9460-1b80470392c5","$type":"Bolt.ValueConnection"},{"sourceUnit":{"$ref":"187"},"sourceKey":"value","destinationUnit":{"$ref":"124"},"destinationKey":"a","guid":"d7157365-3eb4-4221-8461-18b904642ef7","$type":"Bolt.ValueConnection"},{"sourceUnit":{"$ref":"101"},"sourceKey":"comparison","destinationUnit":{"$ref":"28"},"destinationKey":"condition","guid":"724f579e-1acc-4297-ae97-5c3c11c8669b","$type":"Bolt.ValueConnection"},{"sourceUnit":{"$ref":"120"},"sourceKey":"output","destinationUnit":{"$ref":"181"},"destinationKey":"input","guid":"97c684f1-d057-4ba5-8440-75a35d1a4596","$type":"Bolt.ValueConnection"},{"sourceUnit":{"$ref":"198"},"sourceKey":"value","destinationUnit":{"$ref":"139"},"destinationKey":"a","guid":"fba84329-c80c-4152-816c-ec4cb7b653f2","$type":"Bolt.ValueConnection"},{"sourceUnit":{"$ref":"74"},"sourceKey":"value","destinationUnit":{"$ref":"139"},"destinationKey":"b","guid":"b68dcfed-60e8-49f5-a04a-c617de195105","$type":"Bolt.ValueConnection"},{"sourceUnit":{"$ref":"66"},"sourceKey":"comparison","destinationUnit":{"$ref":"137"},"destinationKey":"condition","guid":"b900683c-67c8-4d13-89e0-3c9b409b6e2d","$type":"Bolt.ValueConnection"},{"sourceUnit":{"$ref":"139"},"sourceKey":"result","destinationUnit":{"$ref":"167"},"destinationKey":"condition","guid":"9c411aa3-2eff-4400-abbf-2211b726a7b3","$type":"Bolt.ValueConnection"},{"sourceUnit":{"$ref":"154"},"sourceKey":"result","destinationUnit":{"$ref":"141"},"destinationKey":"input","guid":"fbd2ed2d-c057-4837-9321-27e6f71f262e","$type":"Bolt.ValueConnection"},{"sourceUnit":{"$ref":"106"},"sourceKey":"result","destinationUnit":{"$ref":"47"},"destinationKey":"input","guid":"337ee174-341f-46dc-bcb9-7f28a56888ec","$type":"Bolt.ValueConnection"},{"sourceUnit":{"$ref":"92"},"sourceKey":"value","destinationUnit":{"$ref":"84"},"destinationKey":"a","guid":"cdee2572-6dd0-47b3-9b03-5502c864cfac","$type":"Bolt.ValueConnection"},{"sourceUnit":{"$ref":"150"},"sourceKey":"product","destinationUnit":{"$ref":"63"},"destinationKey":"input","guid":"0fd86ea5-552b-4764-bf9b-10bde9d86fa6","$type":"Bolt.ValueConnection"},{"sourceUnit":{"$ref":"19"},"sourceKey":"product","destinationUnit":{"$ref":"58"},"destinationKey":"input","guid":"24e8531c-57e1-46a8-bfc2-66edf660a850","$type":"Bolt.ValueConnection"},{"sourceUnit":{"$ref":"38"},"sourceKey":"output","destinationUnit":{"$ref":"90"},"destinationKey":"input","guid":"b272a0c1-ed29-4b1c-9b4a-8fb1f0b78638","$type":"Bolt.ValueConnection"},{"position":{"xMin":-2111.0,"yMin":-203.0,"xMax":-345.6665,"yMax":908.667},"label":"Setting
      Velocity depend of spawing","comment":null,"color":{"r":0.0,"g":0.0,"b":0.0,"a":1.0},"guid":"2d59f891-78d6-4bc4-aec5-8664a7fa37f1","$version":"A","$type":"Ludiq.GraphGroup"},{"position":{"xMin":-2060.0,"yMin":108.0,"xMax":-1306.0,"yMax":549.0},"label":"Checking
      For Pos","comment":null,"color":{"r":0.01935625,"g":0.0,"b":1.0,"a":1.0},"guid":"a1b7a68b-308e-410e-9124-a6a80bac23cf","$version":"A","$type":"Ludiq.GraphGroup"},{"position":{"xMin":-1147.0,"yMin":387.0,"xMax":-443.0,"yMax":877.0},"label":"Go
      to left","comment":null,"color":{"r":1.0,"g":0.0,"b":0.0,"a":1.0},"guid":"686b5548-ab1f-45e2-8509-b9c927603af9","$version":"A","$type":"Ludiq.GraphGroup"},{"position":{"xMin":-1098.0,"yMin":-117.0,"xMax":-465.0,"yMax":344.0},"label":"Go
      to right","comment":null,"color":{"r":1.0,"g":0.0,"b":0.0,"a":1.0},"guid":"b0521b30-ef93-49ed-868c-cf1f7d94920e","$version":"A","$type":"Ludiq.GraphGroup"},{"position":{"xMin":1465.0,"yMin":1592.0,"xMax":2405.0,"yMax":1866.0},"label":"Limite
      for the speed (can''t be less than 0.5 ) ","comment":null,"color":{"r":0.0,"g":0.1681983,"b":1.0,"a":1.0},"guid":"c41e820e-410e-45c3-9b69-9e8926073f2c","$version":"A","$type":"Ludiq.GraphGroup"},{"position":{"xMin":-3674.0,"yMin":1062.0,"xMax":-2848.0,"yMax":1692.0},"label":"Collision
      Checker","comment":null,"color":{"r":0.0,"g":0.1166468,"b":1.0,"a":1.0},"guid":"7d32d25e-d72b-4e67-a8f5-f0998beb5876","$version":"A","$type":"Ludiq.GraphGroup"},{"position":{"xMin":1453.0,"yMin":1019.0,"xMax":2581.0,"yMax":1447.333},"label":"Destroy
      Debris si les projectiles touches l''\u00e9cran","comment":null,"color":{"r":0.0,"g":0.2208755,"b":1.0,"a":1.0},"guid":"2fcab74b-7e58-47d8-abe7-be7aa2aeff3c","$version":"A","$type":"Ludiq.GraphGroup"},{"position":{"xMin":1368.5,"yMin":360.0002,"xMax":2673.5,"yMax":975.0002},"label":"Game
      Over if it touch a limit screen","comment":null,"color":{"r":0.0,"g":0.1960049,"b":1.0,"a":1.0},"guid":"3c449512-e982-4436-be2d-4d1dd981e86e","$version":"A","$type":"Ludiq.GraphGroup"},{"position":{"xMin":-1867.0,"yMin":999.0,"xMax":148.0,"yMax":1984.0},"label":"Setting
      Velocity // Vel = Vel - 0.1","comment":null,"color":{"r":0.1318104,"g":1.0,"b":0.0,"a":1.0},"guid":"e63b91d0-ee30-4e36-9412-31e59b0f7aed","$version":"A","$type":"Ludiq.GraphGroup"},{"position":{"xMin":-2689.714,"yMin":1043.857,"xMax":-1926.857,"yMax":1748.857},"label":"Setting
      Color from bullet","comment":null,"color":{"r":0.0,"g":1.0,"b":0.8481808,"a":1.0},"guid":"857ba7fe-b0f4-4edd-8b4e-a9c3cfe23b46","$version":"A","$type":"Ludiq.GraphGroup"}],"$version":"A"}}'
    _objectReferences:
    - {fileID: 11400000, guid: 98050da19ee84ea449809de89b3c2cff, type: 2}
