%YAML 1.1
%TAG !u! tag:unity3d.com,2011:
--- !u!114 &11400000
MonoBehaviour:
  m_ObjectHideFlags: 0
  m_CorrespondingSourceObject: {fileID: 0}
  m_PrefabInstance: {fileID: 0}
  m_PrefabAsset: {fileID: 0}
  m_GameObject: {fileID: 0}
  m_Enabled: 1
  m_EditorHideFlags: 0
  m_Script: {fileID: -1893448595, guid: a040fb66244a7f54289914d98ea4ef7d, type: 3}
  m_Name: PongFighter_DebrisManager
  m_EditorClassIdentifier: 
  _data:
    _json: '{"graph":{"variables":{"collection":{"$content":[{"name":"nextDebrisSpawnTime","value":{"$content":0.0,"$type":"System.Single"},"$version":"A"},{"name":"TimerNextDebrisSpawn","value":{"$content":0.0,"$type":"System.Single"},"$version":"A"}],"$version":"A"},"$version":"A"},"controlInputDefinitions":[],"controlOutputDefinitions":[],"valueInputDefinitions":[],"valueOutputDefinitions":[],"title":null,"summary":null,"pan":{"x":701.5502,"y":174.0431},"zoom":0.75,"elements":[{"coroutine":false,"defaultValues":{},"position":{"x":-776.0,"y":87.0},"guid":"7a881f68-fc71-4283-83f0-bf28fafc63e5","$version":"A","$type":"Bolt.Update","$id":"11"},{"specifyFallback":false,"kind":"Object","defaultValues":{"name":{"$content":"CoolDownTimer","$type":"System.String"},"object":null},"position":{"x":-959.0,"y":-268.0},"guid":"3ba3aad3-22ce-455f-8611-a2e818a18e37","$version":"A","$type":"Bolt.GetVariable","$id":"13"},{"member":{"name":"identity","parameterTypes":null,"targetType":"UnityEngine.Quaternion","targetTypeName":"UnityEngine.Quaternion","$version":"A"},"defaultValues":{},"position":{"x":727.0,"y":235.0},"guid":"a2f84b31-4bdb-43ef-8c53-83e132ac492e","$version":"A","$type":"Bolt.GetMember","$id":"15"},{"specifyFallback":false,"kind":"Object","defaultValues":{"name":{"$content":"maxTime","$type":"System.String"},"object":null},"position":{"x":1545.0,"y":347.0},"guid":"109d014f-1fce-4f7b-9e73-e75e9cccddd9","$version":"A","$type":"Bolt.GetVariable","$id":"18"},{"specifyFallback":false,"kind":"Object","defaultValues":{"name":{"$content":"minTime","$type":"System.String"},"object":null},"position":{"x":1549.0,"y":227.0},"guid":"2b607bbc-acbd-4413-98d3-bf96d584027c","$version":"A","$type":"Bolt.GetVariable","$id":"20"},{"kind":"Graph","defaultValues":{"name":{"$content":"TimerNextDebrisSpawn","$type":"System.String"}},"position":{"x":1310.0,"y":60.0},"guid":"c5c100ea-0dfb-4d45-ac6f-0f38773cfa1f","$version":"A","$type":"Bolt.SetVariable","$id":"22"},{"kind":"Graph","defaultValues":{"name":{"$content":"nextDebrisSpawnTime","$type":"System.String"}},"position":{"x":-674.0,"y":-430.0},"guid":"5752e3fe-f365-4faf-8765-3b0ded4284f9","$version":"A","$type":"Bolt.SetVariable","$id":"24"},{"specifyFallback":false,"kind":"Object","defaultValues":{"name":{"$content":"Debris","$type":"System.String"},"object":null},"position":{"x":702.0,"y":-82.0},"guid":"71a6a02c-e896-44fb-a40d-e3abe91f8c44","$version":"A","$type":"Bolt.GetVariable","$id":"26"},{"member":{"name":"height","parameterTypes":null,"targetType":"UnityEngine.Rect","targetTypeName":"UnityEngine.Rect","$version":"A"},"defaultValues":{"target":{"xMin":0.0,"yMin":0.0,"xMax":0.0,"yMax":0.0,"$type":"UnityEngine.Rect"}},"position":{"x":122.0,"y":-147.0},"guid":"b64e5d19-8bbd-496f-b442-47e9115ea4e0","$version":"A","$type":"Bolt.GetMember","$id":"28"},{"member":{"name":"y","parameterTypes":null,"targetType":"UnityEngine.Rect","targetTypeName":"UnityEngine.Rect","$version":"A"},"defaultValues":{"target":{"xMin":0.0,"yMin":0.0,"xMax":0.0,"yMax":0.0,"$type":"UnityEngine.Rect"}},"position":{"x":119.0,"y":-255.0},"guid":"8d776205-8422-4ce2-a5e1-36dcebe642be","$version":"A","$type":"Bolt.GetMember","$id":"31"},{"chainable":false,"member":{"name":"Range","parameterTypes":["System.Single","System.Single"],"targetType":"UnityEngine.Random","targetTypeName":"UnityEngine.Random","$version":"A"},"defaultValues":{"%min":{"$content":0.0,"$type":"System.Single"},"%max":{"$content":0.0,"$type":"System.Single"}},"position":{"x":391.0,"y":-195.0},"guid":"ecbc1844-2799-4a7d-b74c-221d932ba981","$version":"A","$type":"Bolt.InvokeMember","$id":"34"},{"chainable":false,"member":{"name":"Range","parameterTypes":["System.Single","System.Single"],"targetType":"UnityEngine.Random","targetTypeName":"UnityEngine.Random","$version":"A"},"defaultValues":{"%min":{"$content":0.0,"$type":"System.Single"},"%max":{"$content":0.0,"$type":"System.Single"}},"position":{"x":1775.0,"y":120.0},"guid":"ce286d3a-cf7f-4e13-830a-4f35535d2df9","$version":"A","$type":"Bolt.InvokeMember","$id":"37"},{"coroutine":false,"defaultValues":{},"position":{"x":-962.0,"y":-426.0},"guid":"42e7c6e0-6c9e-4191-bf67-b757870512ae","$version":"A","$type":"Bolt.Start","$id":"40"},{"type":"System.Single","value":{"$content":0.0,"$type":"System.Single"},"defaultValues":{},"position":{"x":1154.0,"y":208.0},"guid":"1e5e7047-c1d1-4135-8fd4-2d2866819652","$version":"A","$type":"Bolt.Literal","$id":"42"},{"kind":"Graph","defaultValues":{"name":{"$content":"nextDebrisSpawnTime","$type":"System.String"}},"position":{"x":2032.0,"y":52.0},"guid":"38e1799a-9d89-4340-977f-37937fccf2d0","$version":"A","$type":"Bolt.SetVariable","$id":"44"},{"kind":"Graph","defaultValues":{"name":{"$content":"TimerNextDebrisSpawn","$type":"System.String"}},"position":{"x":-167.0,"y":93.0},"guid":"3c58041a-be9b-452f-8f8e-4f91d649c0a6","$version":"A","$type":"Bolt.SetVariable","$id":"46"},{"chainable":false,"member":{"name":"Instantiate","parameterTypes":["UnityEngine.Object","UnityEngine.Vector3","UnityEngine.Quaternion"],"targetType":"UnityEngine.GameObject","targetTypeName":"UnityEngine.GameObject","$version":"A"},"defaultValues":{"%original":null,"%position":{"x":0.0,"y":0.0,"z":0.0,"$type":"UnityEngine.Vector3"}},"position":{"x":958.0,"y":66.0},"guid":"7a3d1cbe-c845-487c-bd71-5410d22399bd","$version":"A","$type":"Bolt.InvokeMember","$id":"48"},{"defaultValues":{},"position":{"x":453.0,"y":111.0},"guid":"81d67a5d-497f-4dbf-94c1-fa261752c16d","$version":"A","$type":"Bolt.Branch","$id":"51"},{"member":{"name":"width","parameterTypes":null,"targetType":"UnityEngine.Rect","targetTypeName":"UnityEngine.Rect","$version":"A"},"defaultValues":{"target":{"xMin":0.0,"yMin":0.0,"xMax":0.0,"yMax":0.0,"$type":"UnityEngine.Rect"}},"position":{"x":112.0,"y":-359.0},"guid":"066238cb-c4e1-4036-b3c0-7728c8b478a5","$version":"A","$type":"Bolt.GetMember","$id":"53"},{"member":{"name":"x","parameterTypes":null,"targetType":"UnityEngine.Rect","targetTypeName":"UnityEngine.Rect","$version":"A"},"defaultValues":{"target":{"xMin":0.0,"yMin":0.0,"xMax":0.0,"yMax":0.0,"$type":"UnityEngine.Rect"}},"position":{"x":119.0,"y":-464.0},"guid":"e453b4d5-0ed9-4d16-a660-709943286a96","$version":"A","$type":"Bolt.GetMember","$id":"56"},{"specifyFallback":false,"kind":"Graph","defaultValues":{"name":{"$content":"TimerNextDebrisSpawn","$type":"System.String"}},"position":{"x":-659.0,"y":257.0},"guid":"a40b2a19-7b1e-4710-8ed6-a2e4b05f25a2","$version":"A","$type":"Bolt.GetVariable","$id":"59"},{"member":{"name":"deltaTime","parameterTypes":null,"targetType":"UnityEngine.Time","targetTypeName":"UnityEngine.Time","$version":"A"},"defaultValues":{},"position":{"x":-617.0,"y":355.0},"guid":"cbad015f-9d98-4468-a0ba-30143cdda6cf","$version":"A","$type":"Bolt.GetMember","$id":"61"},{"defaultValues":{},"position":{"x":-363.0,"y":261.0},"guid":"4bbf1067-ec5a-45f3-8ec2-0bb48501a311","$version":"A","$type":"Bolt.GenericAdd","$id":"64"},{"chainable":false,"member":{"name":"Range","parameterTypes":["System.Single","System.Single"],"targetType":"UnityEngine.Random","targetTypeName":"UnityEngine.Random","$version":"A"},"defaultValues":{"%min":{"$content":0.0,"$type":"System.Single"},"%max":{"$content":0.0,"$type":"System.Single"}},"position":{"x":363.0,"y":-382.0},"guid":"ebaf1461-92de-4e3d-b124-c790750243ed","$version":"A","$type":"Bolt.InvokeMember","$id":"66"},{"numeric":true,"defaultValues":{"b":{"$content":0.0,"$type":"System.Single"}},"position":{"x":237.0,"y":229.0},"guid":"90b19fff-8a09-4a49-b34d-fe89b8d771ef","$version":"A","$type":"Bolt.GreaterOrEqual","$id":"69"},{"specifyFallback":false,"kind":"Object","defaultValues":{"name":{"$content":"SpawnRect","$type":"System.String"},"object":null},"position":{"x":-94.0,"y":-397.0},"guid":"d7438c8c-2630-415d-80ce-5ba8d8cce531","$version":"A","$type":"Bolt.GetVariable","$id":"71"},{"specifyFallback":false,"kind":"Graph","defaultValues":{"name":{"$content":"nextDebrisSpawnTime","$type":"System.String"}},"position":{"x":-13.0,"y":378.0},"guid":"7205f42e-479b-4d49-9b17-1595ef67e37b","$version":"A","$type":"Bolt.GetVariable","$id":"73"},{"specifyFallback":false,"kind":"Graph","defaultValues":{"name":{"$content":"TimerNextDebrisSpawn","$type":"System.String"}},"position":{"x":-33.0,"y":256.0},"guid":"c65d72d0-6095-4790-994a-05f27883e325","$version":"A","$type":"Bolt.GetVariable","$id":"75"},{"chainable":false,"member":{"name":".ctor","parameterTypes":["System.Single","System.Single"],"targetType":"UnityEngine.Vector3","targetTypeName":"UnityEngine.Vector3","$version":"A"},"defaultValues":{"%x":{"$content":0.0,"$type":"System.Single"},"%y":{"$content":0.0,"$type":"System.Single"}},"position":{"x":677.0,"y":71.0},"guid":"2c539942-1dd8-472d-8204-434db8632e71","$version":"A","$type":"Bolt.InvokeMember","$id":"77"},{"sourceUnit":{"$ref":"11"},"sourceKey":"trigger","destinationUnit":{"$ref":"46"},"destinationKey":"assign","guid":"4c16feb5-421b-48b4-bad4-6c2e04c62050","$type":"Bolt.ControlConnection"},{"sourceUnit":{"$ref":"46"},"sourceKey":"assigned","destinationUnit":{"$ref":"51"},"destinationKey":"enter","guid":"dc6c0529-3a8c-48ce-889f-6a05403a82bd","$type":"Bolt.ControlConnection"},{"sourceUnit":{"$ref":"37"},"sourceKey":"exit","destinationUnit":{"$ref":"44"},"destinationKey":"assign","guid":"ca23c0e9-12d8-4d2a-b6bb-566c999d1bd9","$type":"Bolt.ControlConnection"},{"sourceUnit":{"$ref":"22"},"sourceKey":"assigned","destinationUnit":{"$ref":"37"},"destinationKey":"enter","guid":"39ca5654-8b51-48d8-b7bd-e486e0a1be8c","$type":"Bolt.ControlConnection"},{"sourceUnit":{"$ref":"48"},"sourceKey":"exit","destinationUnit":{"$ref":"22"},"destinationKey":"assign","guid":"b6e61c6b-0b90-4ed8-89e5-8daabd140dec","$type":"Bolt.ControlConnection"},{"sourceUnit":{"$ref":"51"},"sourceKey":"ifTrue","destinationUnit":{"$ref":"77"},"destinationKey":"enter","guid":"6c33216a-c160-4456-a696-53b0d2ba1835","$type":"Bolt.ControlConnection"},{"sourceUnit":{"$ref":"77"},"sourceKey":"exit","destinationUnit":{"$ref":"48"},"destinationKey":"enter","guid":"28e32214-f700-4575-ac8e-f5b93537662c","$type":"Bolt.ControlConnection"},{"sourceUnit":{"$ref":"40"},"sourceKey":"trigger","destinationUnit":{"$ref":"24"},"destinationKey":"assign","guid":"04ab4a67-85c9-4ce9-a77d-2671ba954570","$type":"Bolt.ControlConnection"},{"sourceUnit":{"$ref":"71"},"sourceKey":"value","destinationUnit":{"$ref":"56"},"destinationKey":"target","guid":"b1873073-a102-4e49-8eb2-1264f24c8b3f","$type":"Bolt.ValueConnection"},{"sourceUnit":{"$ref":"71"},"sourceKey":"value","destinationUnit":{"$ref":"53"},"destinationKey":"target","guid":"5ae0d465-0f9d-4ec8-8558-22ab25f77c39","$type":"Bolt.ValueConnection"},{"sourceUnit":{"$ref":"66"},"sourceKey":"result","destinationUnit":{"$ref":"77"},"destinationKey":"%x","guid":"c0958da3-b08b-40ae-bba2-2e9cdab878b1","$type":"Bolt.ValueConnection"},{"sourceUnit":{"$ref":"73"},"sourceKey":"value","destinationUnit":{"$ref":"69"},"destinationKey":"b","guid":"7211a1c5-8efd-4416-9ddd-34946b914c75","$type":"Bolt.ValueConnection"},{"sourceUnit":{"$ref":"31"},"sourceKey":"value","destinationUnit":{"$ref":"34"},"destinationKey":"%min","guid":"4215bf68-8cf0-4c52-b311-7e5b7a7a025b","$type":"Bolt.ValueConnection"},{"sourceUnit":{"$ref":"77"},"sourceKey":"result","destinationUnit":{"$ref":"48"},"destinationKey":"%position","guid":"3ca97863-9a95-44d5-8f5a-7f061226384b","$type":"Bolt.ValueConnection"},{"sourceUnit":{"$ref":"20"},"sourceKey":"value","destinationUnit":{"$ref":"37"},"destinationKey":"%min","guid":"de758fea-d916-4679-a9ce-95814cc34df6","$type":"Bolt.ValueConnection"},{"sourceUnit":{"$ref":"61"},"sourceKey":"value","destinationUnit":{"$ref":"64"},"destinationKey":"b","guid":"29567203-634c-4f0e-8c5b-675f54fb609b","$type":"Bolt.ValueConnection"},{"sourceUnit":{"$ref":"56"},"sourceKey":"value","destinationUnit":{"$ref":"66"},"destinationKey":"%min","guid":"2455cc56-a163-4030-b9b9-9b981f4b1f27","$type":"Bolt.ValueConnection"},{"sourceUnit":{"$ref":"53"},"sourceKey":"value","destinationUnit":{"$ref":"66"},"destinationKey":"%max","guid":"5014b3cd-6674-4dd3-881d-64db31ed1dd4","$type":"Bolt.ValueConnection"},{"sourceUnit":{"$ref":"37"},"sourceKey":"result","destinationUnit":{"$ref":"44"},"destinationKey":"input","guid":"6e658c7e-2c17-4eff-b0e7-c71a8e0bfe10","$type":"Bolt.ValueConnection"},{"sourceUnit":{"$ref":"71"},"sourceKey":"value","destinationUnit":{"$ref":"28"},"destinationKey":"target","guid":"6404a060-1411-496e-9f06-bc1672e93480","$type":"Bolt.ValueConnection"},{"sourceUnit":{"$ref":"42"},"sourceKey":"output","destinationUnit":{"$ref":"22"},"destinationKey":"input","guid":"90a23710-2ab0-4c12-9c0e-66fde56079ff","$type":"Bolt.ValueConnection"},{"sourceUnit":{"$ref":"59"},"sourceKey":"value","destinationUnit":{"$ref":"64"},"destinationKey":"a","guid":"364911b5-380b-4298-93a8-754fac77c7fd","$type":"Bolt.ValueConnection"},{"sourceUnit":{"$ref":"26"},"sourceKey":"value","destinationUnit":{"$ref":"48"},"destinationKey":"%original","guid":"dd02e4c8-fb70-4694-940d-9ca698dd40b9","$type":"Bolt.ValueConnection"},{"sourceUnit":{"$ref":"71"},"sourceKey":"value","destinationUnit":{"$ref":"31"},"destinationKey":"target","guid":"8be762dc-0e9b-4969-9e3c-528b33153fe9","$type":"Bolt.ValueConnection"},{"sourceUnit":{"$ref":"69"},"sourceKey":"comparison","destinationUnit":{"$ref":"51"},"destinationKey":"condition","guid":"90690c48-91d5-4c0b-b85a-78e2a9ed0308","$type":"Bolt.ValueConnection"},{"sourceUnit":{"$ref":"15"},"sourceKey":"value","destinationUnit":{"$ref":"48"},"destinationKey":"%rotation","guid":"f48bb71a-4a34-422f-9aac-9c98c443471c","$type":"Bolt.ValueConnection"},{"sourceUnit":{"$ref":"75"},"sourceKey":"value","destinationUnit":{"$ref":"69"},"destinationKey":"a","guid":"2565feaf-f313-4396-a69d-53b32c578772","$type":"Bolt.ValueConnection"},{"sourceUnit":{"$ref":"64"},"sourceKey":"sum","destinationUnit":{"$ref":"46"},"destinationKey":"input","guid":"a0872a34-a1bf-4e50-91fd-9d3801aef688","$type":"Bolt.ValueConnection"},{"sourceUnit":{"$ref":"34"},"sourceKey":"result","destinationUnit":{"$ref":"77"},"destinationKey":"%y","guid":"e7ed545d-54fd-40cd-b171-2398ba00be36","$type":"Bolt.ValueConnection"},{"sourceUnit":{"$ref":"28"},"sourceKey":"value","destinationUnit":{"$ref":"34"},"destinationKey":"%max","guid":"f4484ea7-4ea8-4cd1-8e51-ed58f86f089c","$type":"Bolt.ValueConnection"},{"sourceUnit":{"$ref":"13"},"sourceKey":"value","destinationUnit":{"$ref":"24"},"destinationKey":"input","guid":"7c37c495-c0d7-4608-82f2-24d74d072765","$type":"Bolt.ValueConnection"},{"sourceUnit":{"$ref":"18"},"sourceKey":"value","destinationUnit":{"$ref":"37"},"destinationKey":"%max","guid":"a192c6e9-0324-434b-83b6-c681645a1800","$type":"Bolt.ValueConnection"}],"$version":"A"}}'
    _objectReferences: []
