%YAML 1.1
%TAG !u! tag:unity3d.com,2011:
--- !u!114 &11400000
MonoBehaviour:
  m_ObjectHideFlags: 0
  m_CorrespondingSourceObject: {fileID: 0}
  m_PrefabInstance: {fileID: 0}
  m_PrefabAsset: {fileID: 0}
  m_GameObject: {fileID: 0}
  m_Enabled: 1
  m_EditorHideFlags: 0
  m_Script: {fileID: -1893448595, guid: a040fb66244a7f54289914d98ea4ef7d, type: 3}
  m_Name: GJ3_SprintCheck
  m_EditorClassIdentifier: 
  _data:
    _json: '{"graph":{"variables":{"collection":{"$content":[],"$version":"A"},"$version":"A"},"controlInputDefinitions":[],"controlOutputDefinitions":[{"key":"True","label":null,"summary":null,"hideLabel":false},{"key":"False","label":null,"summary":null,"hideLabel":false}],"valueInputDefinitions":[{"hasDefaultValue":false,"defaultValue":{"$content":"None","$type":"UnityEngine.KeyCode"},"_type":"UnityEngine.KeyCode","key":"KeyCode","label":null,"summary":null,"hideLabel":false}],"valueOutputDefinitions":[],"title":null,"summary":null,"pan":{"x":-84.23705,"y":291.6266},"zoom":1.0,"elements":[{"defaultValues":{},"position":{"x":-587.0,"y":172.0},"guid":"405725ac-29fb-4a53-b65d-c50d1a1faeb9","$version":"A","$type":"Bolt.GraphInput","$id":"12"},{"defaultValues":{},"position":{"x":341.0,"y":100.0},"guid":"75ceb397-50f6-4748-82d0-676a7644c0e4","$version":"A","$type":"Bolt.GraphOutput","$id":"14"},{"coroutine":false,"defaultValues":{"key":{"$content":"LeftShift","$type":"UnityEngine.KeyCode"},"action":{"$content":"Down","$type":"Ludiq.PressState"}},"position":{"x":-315.0,"y":101.0},"guid":"22a6128c-d011-4209-8f63-cf5fc162f1b4","$version":"A","$type":"Bolt.OnKeyboardInput","$id":"16"},{"kind":"Object","defaultValues":{"name":{"$content":"bSpriting","$type":"System.String"},"object":null},"position":{"x":80.0,"y":97.0},"guid":"f5641a99-cd7d-4ca4-a65f-e04a397b0f76","$version":"A","$type":"Bolt.SetVariable","$id":"18"},{"type":"System.Boolean","value":{"$content":true,"$type":"System.Boolean"},"defaultValues":{},"position":{"x":-126.0,"y":188.0},"guid":"4e4e8d56-ad37-4d61-8fd3-6e9a738eeda2","$version":"A","$type":"Bolt.Literal","$id":"20"},{"coroutine":false,"defaultValues":{"key":{"$content":"LeftShift","$type":"UnityEngine.KeyCode"},"action":{"$content":"Up","$type":"Ludiq.PressState"}},"position":{"x":-330.0,"y":335.0},"guid":"2a149c32-592c-47e4-afe3-0146f93411a5","$version":"A","$type":"Bolt.OnKeyboardInput","$id":"22"},{"kind":"Object","defaultValues":{"name":{"$content":"bSpriting","$type":"System.String"},"object":null},"position":{"x":75.0,"y":327.0},"guid":"8ea6aa13-5675-477c-b664-f948d6a964e6","$version":"A","$type":"Bolt.SetVariable","$id":"24"},{"type":"System.Boolean","value":{"$content":false,"$type":"System.Boolean"},"defaultValues":{},"position":{"x":-131.0,"y":418.0},"guid":"db798629-6293-4062-be21-57a754d9eed2","$version":"A","$type":"Bolt.Literal","$id":"26"},{"sourceUnit":{"$ref":"16"},"sourceKey":"trigger","destinationUnit":{"$ref":"18"},"destinationKey":"assign","guid":"0953be56-7cd5-4e51-a891-4f140504900d","$type":"Bolt.ControlConnection"},{"sourceUnit":{"$ref":"22"},"sourceKey":"trigger","destinationUnit":{"$ref":"24"},"destinationKey":"assign","guid":"b89c3acc-814e-46a1-be8f-8737163fe241","$type":"Bolt.ControlConnection"},{"sourceUnit":{"$ref":"18"},"sourceKey":"assigned","destinationUnit":{"$ref":"14"},"destinationKey":"True","guid":"ba58c6a2-3262-40cc-8e35-1e3f224e56cd","$type":"Bolt.ControlConnection"},{"sourceUnit":{"$ref":"24"},"sourceKey":"assigned","destinationUnit":{"$ref":"14"},"destinationKey":"False","guid":"9f21e361-62ae-41b7-a5d9-36ae81bce917","$type":"Bolt.ControlConnection"},{"sourceUnit":{"$ref":"20"},"sourceKey":"output","destinationUnit":{"$ref":"18"},"destinationKey":"input","guid":"09aa0b31-d181-48d5-8c35-4fc874488559","$type":"Bolt.ValueConnection"},{"sourceUnit":{"$ref":"26"},"sourceKey":"output","destinationUnit":{"$ref":"24"},"destinationKey":"input","guid":"059bf656-4ce8-4085-afe7-652a11a634e4","$type":"Bolt.ValueConnection"},{"sourceUnit":{"$ref":"12"},"sourceKey":"KeyCode","destinationUnit":{"$ref":"16"},"destinationKey":"key","guid":"a7b8ec00-f123-4e2a-9676-e7a292d07414","$type":"Bolt.ValueConnection"},{"sourceUnit":{"$ref":"12"},"sourceKey":"KeyCode","destinationUnit":{"$ref":"22"},"destinationKey":"key","guid":"694fdda7-b745-4f18-aa6d-5fa18845a713","$type":"Bolt.ValueConnection"}],"$version":"A"}}'
    _objectReferences: []
