%YAML 1.1
%TAG !u! tag:unity3d.com,2011:
--- !u!114 &11400000
MonoBehaviour:
  m_ObjectHideFlags: 0
  m_CorrespondingSourceObject: {fileID: 0}
  m_PrefabInstance: {fileID: 0}
  m_PrefabAsset: {fileID: 0}
  m_GameObject: {fileID: 0}
  m_Enabled: 1
  m_EditorHideFlags: 0
  m_Script: {fileID: -1893448595, guid: a040fb66244a7f54289914d98ea4ef7d, type: 3}
  m_Name: GJ3_FunctionEvent
  m_EditorClassIdentifier: 
  _data:
    _json: '{"graph":{"variables":{"collection":{"$content":[],"$version":"A"},"$version":"A"},"controlInputDefinitions":[],"controlOutputDefinitions":[{"key":"Output","label":null,"summary":null,"hideLabel":false}],"valueInputDefinitions":[{"hasDefaultValue":false,"defaultValue":null,"_type":"System.String","key":"Event","label":null,"summary":null,"hideLabel":false}],"valueOutputDefinitions":[],"title":null,"summary":null,"pan":{"x":253.0,"y":-24.0},"zoom":1.0,"elements":[{"defaultValues":{},"position":{"x":-463.0,"y":-26.0},"guid":"fe2fddbc-59e2-4e6a-b32c-e7b3a96c5097","$version":"A","$type":"Bolt.GraphInput","$id":"11"},{"argumentCount":2,"coroutine":false,"defaultValues":{"target":null,"name":{"$content":"","$type":"System.String"}},"position":{"x":-221.0,"y":-55.0},"guid":"733e5076-05f8-4457-99f6-6b297e66f1e6","$version":"A","$type":"Bolt.CustomEvent","$id":"13"},{"kind":"Flow","defaultValues":{"name":{"$content":"eventName","$type":"System.String"}},"position":{"x":100.0,"y":-77.0},"guid":"5d32e4e8-85a0-43a1-a3bd-b68c3eedc32c","$version":"A","$type":"Bolt.SetVariable","$id":"15"},{"kind":"Flow","defaultValues":{"name":{"$content":"objectName","$type":"System.String"}},"position":{"x":424.0,"y":-43.0},"guid":"f9f2e7f6-2237-4c09-a794-435660ff0ea8","$version":"A","$type":"Bolt.SetVariable","$id":"17"},{"defaultValues":{},"position":{"x":642.0,"y":-10.0},"guid":"bde270db-97d5-409d-8524-733d40a9c8e4","$version":"A","$type":"Bolt.GraphOutput","$id":"19"},{"sourceUnit":{"$ref":"13"},"sourceKey":"trigger","destinationUnit":{"$ref":"15"},"destinationKey":"assign","guid":"b332bf18-ba84-415d-bfa6-83f50f056893","$type":"Bolt.ControlConnection"},{"sourceUnit":{"$ref":"15"},"sourceKey":"assigned","destinationUnit":{"$ref":"17"},"destinationKey":"assign","guid":"533086b8-f20f-45f8-bbc1-2843acf73ef1","$type":"Bolt.ControlConnection"},{"sourceUnit":{"$ref":"17"},"sourceKey":"assigned","destinationUnit":{"$ref":"19"},"destinationKey":"Output","guid":"d6a51e52-dde7-48cc-ad1a-8132311ce428","$type":"Bolt.ControlConnection"},{"sourceUnit":{"$ref":"13"},"sourceKey":"argument_0","destinationUnit":{"$ref":"15"},"destinationKey":"input","guid":"b662fed7-103f-4868-a0ac-b7d774ae31ae","$type":"Bolt.ValueConnection"},{"sourceUnit":{"$ref":"13"},"sourceKey":"argument_1","destinationUnit":{"$ref":"17"},"destinationKey":"input","guid":"3d6c1b94-a6c8-40c1-88b6-046f704fbeee","$type":"Bolt.ValueConnection"},{"sourceUnit":{"$ref":"11"},"sourceKey":"Event","destinationUnit":{"$ref":"13"},"destinationKey":"name","guid":"17222430-d7a3-4935-b15e-429b57de9172","$type":"Bolt.ValueConnection"}],"$version":"A"}}'
    _objectReferences: []
