%YAML 1.1
%TAG !u! tag:unity3d.com,2011:
--- !u!114 &11400000
MonoBehaviour:
  m_ObjectHideFlags: 0
  m_CorrespondingSourceObject: {fileID: 0}
  m_PrefabInstance: {fileID: 0}
  m_PrefabAsset: {fileID: 0}
  m_GameObject: {fileID: 0}
  m_Enabled: 1
  m_EditorHideFlags: 0
  m_Script: {fileID: -1893448595, guid: a040fb66244a7f54289914d98ea4ef7d, type: 3}
  m_Name: GJ3_ColorLerp
  m_EditorClassIdentifier: 
  _data:
    _json: '{"graph":{"variables":{"collection":{"$content":[],"$version":"A"},"$version":"A"},"controlInputDefinitions":[{"key":"Update
      Input","label":null,"summary":null,"hideLabel":false}],"controlOutputDefinitions":[{"key":"Output","label":null,"summary":null,"hideLabel":false}],"valueInputDefinitions":[{"hasDefaultValue":false,"defaultValue":{"$content":0.0,"$type":"System.Single"},"_type":"System.Single","key":"Duration","label":null,"summary":null,"hideLabel":false},{"hasDefaultValue":true,"defaultValue":{"r":1.0,"g":1.0,"b":1.0,"a":1.0,"$type":"UnityEngine.Color"},"_type":"UnityEngine.Color","key":"Color
      1","label":null,"summary":null,"hideLabel":false},{"hasDefaultValue":true,"defaultValue":{"r":1.0,"g":1.0,"b":1.0,"a":1.0,"$type":"UnityEngine.Color"},"_type":"UnityEngine.Color","key":"Color
      2","label":null,"summary":null,"hideLabel":false}],"valueOutputDefinitions":[],"title":null,"summary":null,"pan":{"x":106.3454,"y":267.0111},"zoom":1.0,"elements":[{"defaultValues":{},"position":{"x":-645.0,"y":-110.0},"guid":"dc78ad9d-bbcb-4eca-a1c6-50dc2f237eab","$version":"A","$type":"Bolt.GraphInput","$id":"14"},{"defaultValues":{"duration":{"$content":1.0,"$type":"System.Single"},"unscaledTime":{"$content":false,"$type":"System.Boolean"}},"position":{"x":-396.0,"y":42.0},"guid":"2d12dfce-85a1-4320-abc5-279e9966b811","$version":"A","$type":"Bolt.Timer","$id":"16"},{"chainable":false,"member":{"name":"Lerp","parameterTypes":["UnityEngine.Color","UnityEngine.Color","System.Single"],"targetType":"UnityEngine.Color","targetTypeName":"UnityEngine.Color","$version":"A"},"defaultValues":{"%a":{"r":1.0,"g":1.0,"b":1.0,"a":1.0,"$type":"UnityEngine.Color"},"%b":{"r":1.0,"g":1.0,"b":1.0,"a":1.0,"$type":"UnityEngine.Color"},"%t":{"$content":0.0,"$type":"System.Single"}},"position":{"x":22.0,"y":-90.0},"guid":"a75dd309-9eba-48fd-839e-b79b8e3cdc03","$version":"A","$type":"Bolt.InvokeMember","$id":"18"},{"chainable":false,"member":{"name":"color","parameterTypes":null,"targetType":"UnityEngine.SpriteRenderer","targetTypeName":"UnityEngine.SpriteRenderer","$version":"A"},"defaultValues":{"target":null,"input":{"r":1.0,"g":1.0,"b":1.0,"a":1.0,"$type":"UnityEngine.Color"}},"position":{"x":318.0,"y":-113.0},"guid":"e8b2a13e-29be-454d-a0f4-4ce5266b0a0f","$version":"A","$type":"Bolt.SetMember","$id":"21"},{"defaultValues":{},"position":{"x":616.0,"y":-86.0},"guid":"706e0044-4f6f-4bd3-9d1c-41b4b51c4676","$version":"A","$type":"Bolt.GraphOutput","$id":"24"},{"sourceUnit":{"$ref":"16"},"sourceKey":"tick","destinationUnit":{"$ref":"18"},"destinationKey":"enter","guid":"15d2d291-1195-4029-a996-f28666b55aec","$type":"Bolt.ControlConnection"},{"sourceUnit":{"$ref":"18"},"sourceKey":"exit","destinationUnit":{"$ref":"21"},"destinationKey":"assign","guid":"48f5f74b-9b82-4e91-baf3-0e1638175eba","$type":"Bolt.ControlConnection"},{"sourceUnit":{"$ref":"14"},"sourceKey":"Update
      Input","destinationUnit":{"$ref":"16"},"destinationKey":"toggle","guid":"dbf19e43-bf96-4730-a3eb-b5be649e6552","$type":"Bolt.ControlConnection"},{"sourceUnit":{"$ref":"21"},"sourceKey":"assigned","destinationUnit":{"$ref":"24"},"destinationKey":"Output","guid":"52c9e9e9-4227-4b2d-b086-72cc285aafcc","$type":"Bolt.ControlConnection"},{"sourceUnit":{"$ref":"16"},"sourceKey":"elapsedSeconds","destinationUnit":{"$ref":"18"},"destinationKey":"%t","guid":"e642466f-6cfc-4510-87fb-d3209ffb189e","$type":"Bolt.ValueConnection"},{"sourceUnit":{"$ref":"18"},"sourceKey":"result","destinationUnit":{"$ref":"21"},"destinationKey":"input","guid":"74f695e5-4a58-4af5-86c5-757b18f80177","$type":"Bolt.ValueConnection"},{"sourceUnit":{"$ref":"14"},"sourceKey":"Duration","destinationUnit":{"$ref":"16"},"destinationKey":"duration","guid":"fb3744e2-6c7c-4dcf-b5ed-8802a9e3387d","$type":"Bolt.ValueConnection"},{"sourceUnit":{"$ref":"14"},"sourceKey":"Color
      1","destinationUnit":{"$ref":"18"},"destinationKey":"%a","guid":"7d7e30a7-295f-494c-ae59-d657ffc7e7e7","$type":"Bolt.ValueConnection"},{"sourceUnit":{"$ref":"14"},"sourceKey":"Color
      2","destinationUnit":{"$ref":"18"},"destinationKey":"%b","guid":"553b2eb4-2172-44d8-9d71-14bb67106f5d","$type":"Bolt.ValueConnection"}],"$version":"A"}}'
    _objectReferences: []
