%YAML 1.1
%TAG !u! tag:unity3d.com,2011:
--- !u!114 &11400000
MonoBehaviour:
  m_ObjectHideFlags: 0
  m_CorrespondingSourceObject: {fileID: 0}
  m_PrefabInstance: {fileID: 0}
  m_PrefabAsset: {fileID: 0}
  m_GameObject: {fileID: 0}
  m_Enabled: 1
  m_EditorHideFlags: 0
  m_Script: {fileID: -1893448595, guid: a040fb66244a7f54289914d98ea4ef7d, type: 3}
  m_Name: GJ3_isColideWall
  m_EditorClassIdentifier: 
  _data:
    _json: '{"graph":{"variables":{"collection":{"$content":[],"$version":"A"},"$version":"A"},"controlInputDefinitions":[],"controlOutputDefinitions":[],"valueInputDefinitions":[],"valueOutputDefinitions":[],"title":null,"summary":null,"pan":{"x":-245.0203,"y":49.64662},"zoom":0.6999999,"elements":[{"specifyFallback":false,"kind":"Application","defaultValues":{"name":{"$content":"Player","$type":"System.String"}},"position":{"x":-122.0,"y":126.0},"guid":"cb9a62d5-dc6a-4299-9bd4-b12a6714a80d","$version":"A","$type":"Bolt.GetVariable","$id":"9"},{"specifyFallback":false,"kind":"Application","defaultValues":{"name":{"$content":"Player","$type":"System.String"}},"position":{"x":-146.0,"y":-214.0},"guid":"c6e2cc80-e769-4bb3-9209-1f288d9ef737","$version":"A","$type":"Bolt.GetVariable","$id":"11"},{"specifyFallback":false,"kind":"Object","defaultValues":{"name":{"$content":"Tag","$type":"System.String"},"object":null},"position":{"x":-379.0,"y":-48.0},"guid":"1136a8bb-91a8-4ba6-95f2-d10e6e9e3c92","$version":"A","$type":"Bolt.GetVariable","$id":"13"},{"argumentCount":0,"defaultValues":{"name":{"$content":"EventCollideWall","$type":"System.String"},"target":null},"position":{"x":213.0,"y":-218.0},"guid":"4f2520ac-337c-4a22-b707-1fce7305c286","$version":"A","$type":"Bolt.TriggerCustomEvent","$id":"15"},{"argumentCount":0,"defaultValues":{"name":{"$content":"EventCollideWallExit","$type":"System.String"},"target":null},"position":{"x":202.0,"y":68.0},"guid":"81be2822-387c-4ce3-9af4-d19dd7639fbb","$version":"A","$type":"Bolt.TriggerCustomEvent","$id":"17"},{"nest":{"source":"Macro","macro":0,"embed":null},"defaultValues":{"Tag":{"$content":"Platforms","$type":"System.String"}},"position":{"x":-159.0,"y":-50.0},"guid":"bf3a788f-aec3-4e7f-b622-ea4657281d53","$version":"A","$type":"Bolt.SuperUnit","$id":"19"},{"sourceUnit":{"$ref":"19"},"sourceKey":"Enter","destinationUnit":{"$ref":"15"},"destinationKey":"enter","guid":"febd4352-07ab-4e8c-ba7d-35f6d06197a6","$type":"Bolt.ControlConnection"},{"sourceUnit":{"$ref":"19"},"sourceKey":"Exit","destinationUnit":{"$ref":"17"},"destinationKey":"enter","guid":"8569fb43-0696-4cf9-926e-d482934d9baf","$type":"Bolt.ControlConnection"},{"sourceUnit":{"$ref":"13"},"sourceKey":"value","destinationUnit":{"$ref":"19"},"destinationKey":"Tag","guid":"6f19ec37-6ccd-4f36-8b94-96da4ea503ff","$type":"Bolt.ValueConnection"},{"sourceUnit":{"$ref":"11"},"sourceKey":"value","destinationUnit":{"$ref":"15"},"destinationKey":"target","guid":"588730b6-330b-427c-aa92-9315872150f8","$type":"Bolt.ValueConnection"},{"sourceUnit":{"$ref":"9"},"sourceKey":"value","destinationUnit":{"$ref":"17"},"destinationKey":"target","guid":"33ddd45e-e334-4ac0-b8bd-9eef747d9d68","$type":"Bolt.ValueConnection"}],"$version":"A"}}'
    _objectReferences:
    - {fileID: 11400000, guid: f7e173495aafd8740af293a313c38dc7, type: 2}
