%YAML 1.1
%TAG !u! tag:unity3d.com,2011:
--- !u!114 &11400000
MonoBehaviour:
  m_ObjectHideFlags: 0
  m_CorrespondingSourceObject: {fileID: 0}
  m_PrefabInstance: {fileID: 0}
  m_PrefabAsset: {fileID: 0}
  m_GameObject: {fileID: 0}
  m_Enabled: 1
  m_EditorHideFlags: 0
  m_Script: {fileID: -1893448595, guid: a040fb66244a7f54289914d98ea4ef7d, type: 3}
  m_Name: GJ3_WallCollideCheck
  m_EditorClassIdentifier: 
  _data:
    _json: '{"graph":{"variables":{"collection":{"$content":[],"$version":"A"},"$version":"A"},"controlInputDefinitions":[{"key":"Input","label":null,"summary":null,"hideLabel":false}],"controlOutputDefinitions":[{"key":"TRUE","label":null,"summary":null,"hideLabel":false},{"key":"FALSE","label":null,"summary":null,"hideLabel":false}],"valueInputDefinitions":[],"valueOutputDefinitions":[],"title":null,"summary":null,"pan":{"x":0.0,"y":100.0},"zoom":1.0,"elements":[{"defaultValues":{},"position":{"x":-267.0,"y":-54.0},"guid":"ec642849-676b-413d-8b0f-1b2f3b16782f","$version":"A","$type":"Bolt.GraphInput","$id":"12"},{"defaultValues":{},"position":{"x":2.0,"y":-62.0},"guid":"f9ad9796-cfd2-4fb3-8765-bb25d02d53ac","$version":"A","$type":"Bolt.Branch","$id":"14"},{"defaultValues":{},"position":{"x":-164.0,"y":52.0},"guid":"1b2dd7e9-aded-4801-8208-ab0d14a96952","$version":"A","$type":"Bolt.Or","$id":"16"},{"specifyFallback":false,"kind":"Object","defaultValues":{"name":{"$content":"bBlockedRight","$type":"System.String"},"object":null},"position":{"x":-405.0,"y":198.0},"guid":"78f1cc1e-c86a-4689-9f8d-c61d016d0b67","$version":"A","$type":"Bolt.GetVariable","$id":"18"},{"specifyFallback":false,"kind":"Object","defaultValues":{"name":{"$content":"bBlockedLeft","$type":"System.String"},"object":null},"position":{"x":-401.0,"y":56.0},"guid":"e460ae3d-041b-4ccf-97bf-6315d7872263","$version":"A","$type":"Bolt.GetVariable","$id":"20"},{"defaultValues":{},"position":{"x":173.0,"y":-62.0},"guid":"c3fd0d8e-abec-4675-b982-862bd8913cdf","$version":"A","$type":"Bolt.GraphOutput","$id":"22"},{"sourceUnit":{"$ref":"12"},"sourceKey":"Input","destinationUnit":{"$ref":"14"},"destinationKey":"enter","guid":"687aeb1f-84ea-47cf-b266-3ee9b88321f8","$type":"Bolt.ControlConnection"},{"sourceUnit":{"$ref":"14"},"sourceKey":"ifTrue","destinationUnit":{"$ref":"22"},"destinationKey":"TRUE","guid":"1f2a7f0a-e7c3-4df6-b9e8-28b23f5d26ea","$type":"Bolt.ControlConnection"},{"sourceUnit":{"$ref":"14"},"sourceKey":"ifFalse","destinationUnit":{"$ref":"22"},"destinationKey":"FALSE","guid":"c72c616d-8caa-4f71-bfc2-21169939ae7a","$type":"Bolt.ControlConnection"},{"sourceUnit":{"$ref":"16"},"sourceKey":"result","destinationUnit":{"$ref":"14"},"destinationKey":"condition","guid":"ab968d07-56de-40bb-a08a-31ea3ab82195","$type":"Bolt.ValueConnection"},{"sourceUnit":{"$ref":"18"},"sourceKey":"value","destinationUnit":{"$ref":"16"},"destinationKey":"b","guid":"10c1f2be-a895-428c-8eb6-0b0e515aba65","$type":"Bolt.ValueConnection"},{"sourceUnit":{"$ref":"20"},"sourceKey":"value","destinationUnit":{"$ref":"16"},"destinationKey":"a","guid":"48774f31-e09f-4bb3-af72-770070a1fc41","$type":"Bolt.ValueConnection"}],"$version":"A"}}'
    _objectReferences: []
