%YAML 1.1
%TAG !u! tag:unity3d.com,2011:
--- !u!74 &7400000
AnimationClip:
  m_ObjectHideFlags: 0
  m_CorrespondingSourceObject: {fileID: 0}
  m_PrefabInstance: {fileID: 0}
  m_PrefabAsset: {fileID: 0}
  m_Name: GJ3_Player_Win
  serializedVersion: 6
  m_Legacy: 0
  m_Compressed: 0
  m_UseHighQualityCurve: 1
  m_RotationCurves: []
  m_CompressedRotationCurves: []
  m_EulerCurves: []
  m_PositionCurves: []
  m_ScaleCurves: []
  m_FloatCurves: []
  m_PPtrCurves:
  - curve:
    - time: 0
      value: {fileID: 21300000, guid: 501bcd8aaeac46c4392a2af880904901, type: 3}
    - time: 0.06666667
      value: {fileID: 21300000, guid: 5be7292c1eb7ec24dae5a5a5ed9f0658, type: 3}
    - time: 0.1
      value: {fileID: 21300000, guid: 93795ce3cdbc9074c98c174e4c31478c, type: 3}
    - time: 0.18333334
      value: {fileID: 21300000, guid: 0607abdf4d017b34391b2e978d4a4e03, type: 3}
    - time: 0.23333333
      value: {fileID: 21300000, guid: 30c0a31af0acdae43903c2f00e2b8f96, type: 3}
    - time: 0.28333333
      value: {fileID: 21300000, guid: 63306fcbec21d0c4fbc447aea9b9fe31, type: 3}
    - time: 0.33333334
      value: {fileID: 21300000, guid: 4e39178608dd9db42b0ba3b7d2e4a212, type: 3}
    - time: 0.4
      value: {fileID: 21300000, guid: 2ebdbe2164557054a8b0035333b4dfb3, type: 3}
    - time: 0.46666667
      value: {fileID: 21300000, guid: 660a6a21bf1649144b170844bb880eb0, type: 3}
    - time: 0.53333336
      value: {fileID: 21300000, guid: 2abd843377ecf6b4aaec72337b76d4d7, type: 3}
    - time: 0.5833333
      value: {fileID: 21300000, guid: de8554ac77dfa6f4ca489f2b587a530f, type: 3}
    - time: 0.65
      value: {fileID: 21300000, guid: f00b665b75c3c114d9d628366f99b089, type: 3}
    - time: 0.7
      value: {fileID: 21300000, guid: 10e6f0677fa68024da57963d3261e06a, type: 3}
    - time: 0.75
      value: {fileID: 21300000, guid: 08068ba5ff08be844a815cc5421e26db, type: 3}
    - time: 0.8
      value: {fileID: 21300000, guid: a81b49ad0499fdd4ea340bb0f3109c5e, type: 3}
    - time: 0.85
      value: {fileID: 21300000, guid: a81b49ad0499fdd4ea340bb0f3109c5e, type: 3}
    - time: 0.9166667
      value: {fileID: 21300000, guid: 84892e8b856b9284188fda804fc7c381, type: 3}
    - time: 1
      value: {fileID: 21300000, guid: 8e5a7bdafd554bc43a24c84e28e5e72d, type: 3}
    attribute: m_Sprite
    path: 
    classID: 212
    script: {fileID: 0}
  m_SampleRate: 60
  m_WrapMode: 0
  m_Bounds:
    m_Center: {x: 0, y: 0, z: 0}
    m_Extent: {x: 0, y: 0, z: 0}
  m_ClipBindingConstant:
    genericBindings:
    - serializedVersion: 2
      path: 0
      attribute: 0
      script: {fileID: 0}
      typeID: 212
      customType: 23
      isPPtrCurve: 1
    pptrCurveMapping:
    - {fileID: 21300000, guid: 501bcd8aaeac46c4392a2af880904901, type: 3}
    - {fileID: 21300000, guid: 5be7292c1eb7ec24dae5a5a5ed9f0658, type: 3}
    - {fileID: 21300000, guid: 93795ce3cdbc9074c98c174e4c31478c, type: 3}
    - {fileID: 21300000, guid: 0607abdf4d017b34391b2e978d4a4e03, type: 3}
    - {fileID: 21300000, guid: 30c0a31af0acdae43903c2f00e2b8f96, type: 3}
    - {fileID: 21300000, guid: 63306fcbec21d0c4fbc447aea9b9fe31, type: 3}
    - {fileID: 21300000, guid: 4e39178608dd9db42b0ba3b7d2e4a212, type: 3}
    - {fileID: 21300000, guid: 2ebdbe2164557054a8b0035333b4dfb3, type: 3}
    - {fileID: 21300000, guid: 660a6a21bf1649144b170844bb880eb0, type: 3}
    - {fileID: 21300000, guid: 2abd843377ecf6b4aaec72337b76d4d7, type: 3}
    - {fileID: 21300000, guid: de8554ac77dfa6f4ca489f2b587a530f, type: 3}
    - {fileID: 21300000, guid: f00b665b75c3c114d9d628366f99b089, type: 3}
    - {fileID: 21300000, guid: 10e6f0677fa68024da57963d3261e06a, type: 3}
    - {fileID: 21300000, guid: 08068ba5ff08be844a815cc5421e26db, type: 3}
    - {fileID: 21300000, guid: a81b49ad0499fdd4ea340bb0f3109c5e, type: 3}
    - {fileID: 21300000, guid: a81b49ad0499fdd4ea340bb0f3109c5e, type: 3}
    - {fileID: 21300000, guid: 84892e8b856b9284188fda804fc7c381, type: 3}
    - {fileID: 21300000, guid: 8e5a7bdafd554bc43a24c84e28e5e72d, type: 3}
  m_AnimationClipSettings:
    serializedVersion: 2
    m_AdditiveReferencePoseClip: {fileID: 0}
    m_AdditiveReferencePoseTime: 0
    m_StartTime: 0
    m_StopTime: 1.0166667
    m_OrientationOffsetY: 0
    m_Level: 0
    m_CycleOffset: 0
    m_HasAdditiveReferencePose: 0
    m_LoopTime: 0
    m_LoopBlend: 0
    m_LoopBlendOrientation: 0
    m_LoopBlendPositionY: 0
    m_LoopBlendPositionXZ: 0
    m_KeepOriginalOrientation: 0
    m_KeepOriginalPositionY: 1
    m_KeepOriginalPositionXZ: 0
    m_HeightFromFeet: 0
    m_Mirror: 0
  m_EditorCurves: []
  m_EulerEditorCurves: []
  m_HasGenericRootTransform: 0
  m_HasMotionFloatCurves: 0
  m_Events: []
