%YAML 1.1
%TAG !u! tag:unity3d.com,2011:
--- !u!114 &11400000
MonoBehaviour:
  m_ObjectHideFlags: 0
  m_CorrespondingSourceObject: {fileID: 0}
  m_PrefabInstance: {fileID: 0}
  m_PrefabAsset: {fileID: 0}
  m_GameObject: {fileID: 0}
  m_Enabled: 1
  m_EditorHideFlags: 0
  m_Script: {fileID: -1893448595, guid: a040fb66244a7f54289914d98ea4ef7d, type: 3}
  m_Name: Houize_NpcUp
  m_EditorClassIdentifier: 
  _data:
    _json: '{"graph":{"variables":{"collection":{"$content":[],"$version":"A"},"$version":"A"},"controlInputDefinitions":[],"controlOutputDefinitions":[],"valueInputDefinitions":[],"valueOutputDefinitions":[],"title":null,"summary":null,"pan":{"x":5.794765,"y":-102.1203},"zoom":1.0,"elements":[{"coroutine":false,"defaultValues":{"target":null},"position":{"x":637.0,"y":-387.0},"guid":"830d6251-a74c-4fcf-acef-e54e089f1c21","$version":"A","$type":"Bolt.OnCollisionEnter2D","$id":"9"},{"member":{"name":"deltaTime","parameterTypes":null,"targetType":"UnityEngine.Time","targetTypeName":"UnityEngine.Time","$version":"A"},"defaultValues":{},"position":{"x":-459.0,"y":-51.0},"guid":"07e2e2f2-c556-4b72-bbaa-4c8cce5d5775","$version":"A","$type":"Bolt.GetMember","$id":"11"},{"defaultValues":{},"position":{"x":-214.0,"y":2.0},"guid":"db691cf4-b5a1-4ed6-a4e0-ce8f226a2bea","$version":"A","$type":"Bolt.GenericMultiply","$id":"14"},{"specifyFallback":false,"kind":"Object","defaultValues":{"name":{"$content":"speed","$type":"System.String"},"object":null},"position":{"x":630.0,"y":-139.0},"guid":"995e49b3-dc0a-4b9f-99a4-cc745ee63886","$version":"A","$type":"Bolt.GetVariable","$id":"16"},{"specifyFallback":false,"kind":"Object","defaultValues":{"name":{"$content":"speed","$type":"System.String"},"object":null},"position":{"x":-445.0,"y":65.0},"guid":"7f1fb98c-d0f7-41c4-a27e-b30ba5addd3d","$version":"A","$type":"Bolt.GetVariable","$id":"18"},{"coroutine":false,"defaultValues":{},"position":{"x":-325.0,"y":-372.0},"guid":"338c6604-8dcf-4925-be8b-284d28eb8e2d","$version":"A","$type":"Bolt.Update","$id":"20"},{"nest":{"source":"Embed","macro":null,"embed":{"variables":{"collection":{"$content":[],"$version":"A"},"$version":"A"},"controlInputDefinitions":[],"controlOutputDefinitions":[],"valueInputDefinitions":[],"valueOutputDefinitions":[],"title":null,"summary":null,"pan":{"x":0.0,"y":0.0},"zoom":1.0,"elements":[{"defaultValues":{},"position":{"x":-406.0,"y":-36.0},"guid":"97266219-f045-4f9b-a1b2-9b2cfb2140c6","$version":"A","$type":"Bolt.GraphInput"},{"defaultValues":{},"position":{"x":105.0,"y":-30.0},"guid":"749aa187-5349-499c-8faa-705c6e4ad74a","$version":"A","$type":"Bolt.GraphOutput"}],"$version":"A"}},"defaultValues":{},"position":{"x":660.0,"y":29.0},"guid":"93968da3-776b-41bd-8115-cd35f8c7d210","$version":"A","$type":"Bolt.SuperUnit"},{"chainable":false,"member":{"name":"Translate","parameterTypes":["System.Single","System.Single","System.Single"],"targetType":"UnityEngine.Transform","targetTypeName":"UnityEngine.Transform","$version":"A"},"defaultValues":{"target":null,"%x":{"$content":0.0,"$type":"System.Single"},"%y":{"$content":0.0,"$type":"System.Single"},"%z":{"$content":0.0,"$type":"System.Single"}},"position":{"x":331.0,"y":-231.0},"guid":"3fe8790e-fbc4-43be-9116-f2bf91755fee","$version":"A","$type":"Bolt.InvokeMember","$id":"37"},{"defaultValues":{},"position":{"x":-32.0,"y":-346.0},"guid":"46590783-6749-43d8-b4c7-9945351f45b1","$version":"A","$type":"Bolt.Branch","$id":"40"},{"numeric":true,"defaultValues":{"b":{"$content":0.0,"$type":"System.Single"}},"position":{"x":-276.0,"y":-132.0},"guid":"60ef1b96-8d4f-41c4-8756-5c2e6a68ed2c","$version":"A","$type":"Bolt.GreaterOrEqual","$id":"42"},{"defaultValues":{"b":{"$content":-1.0,"$type":"System.Single"}},"position":{"x":850.0,"y":-156.0},"guid":"87088000-14ea-4429-9a30-031db2383a73","$version":"A","$type":"Bolt.ScalarMultiply","$id":"44"},{"chainable":false,"member":{"name":"flipX","parameterTypes":null,"targetType":"UnityEngine.SpriteRenderer","targetTypeName":"UnityEngine.SpriteRenderer","$version":"A"},"defaultValues":{"target":null,"input":{"$content":true,"$type":"System.Boolean"}},"position":{"x":81.0,"y":-217.0},"guid":"74f1bd75-c31a-47a4-b6fa-a92c741a70c4","$version":"A","$type":"Bolt.SetMember","$id":"46"},{"chainable":false,"member":{"name":"flipX","parameterTypes":null,"targetType":"UnityEngine.SpriteRenderer","targetTypeName":"UnityEngine.SpriteRenderer","$version":"A"},"defaultValues":{"target":null,"input":{"$content":false,"$type":"System.Boolean"}},"position":{"x":134.0,"y":-403.0},"guid":"85d1552a-bf10-40ef-b629-988a95235c18","$version":"A","$type":"Bolt.SetMember","$id":"49"},{"kind":"Object","defaultValues":{"name":{"$content":"speed","$type":"System.String"},"object":null},"position":{"x":1026.0,"y":-294.0},"guid":"ace52d42-25e8-43eb-aa4d-dda5d9f177fd","$version":"A","$type":"Bolt.SetVariable","$id":"52"},{"sourceUnit":{"$ref":"9"},"sourceKey":"trigger","destinationUnit":{"$ref":"52"},"destinationKey":"assign","guid":"20dbddc2-84fd-4a2d-b174-7f80e7868e36","$type":"Bolt.ControlConnection"},{"sourceUnit":{"$ref":"20"},"sourceKey":"trigger","destinationUnit":{"$ref":"40"},"destinationKey":"enter","guid":"b1fd3ce4-dd35-40ab-bd36-d9862fa2437e","$type":"Bolt.ControlConnection"},{"sourceUnit":{"$ref":"40"},"sourceKey":"ifTrue","destinationUnit":{"$ref":"49"},"destinationKey":"assign","guid":"d4d9f766-4c8f-439d-b02f-2ba26dc35aab","$type":"Bolt.ControlConnection"},{"sourceUnit":{"$ref":"46"},"sourceKey":"assigned","destinationUnit":{"$ref":"37"},"destinationKey":"enter","guid":"9d1047e5-1266-42f4-b7c9-5736db69926b","$type":"Bolt.ControlConnection"},{"sourceUnit":{"$ref":"49"},"sourceKey":"assigned","destinationUnit":{"$ref":"37"},"destinationKey":"enter","guid":"2c18a5fb-47e8-4de0-a74c-c5a85678506e","$type":"Bolt.ControlConnection"},{"sourceUnit":{"$ref":"40"},"sourceKey":"ifFalse","destinationUnit":{"$ref":"46"},"destinationKey":"assign","guid":"75472df9-e616-4a9d-aff8-fc4fd1a8ff1f","$type":"Bolt.ControlConnection"},{"sourceUnit":{"$ref":"42"},"sourceKey":"comparison","destinationUnit":{"$ref":"40"},"destinationKey":"condition","guid":"8d84212b-e5a8-4d0d-bafd-24abb762fa5c","$type":"Bolt.ValueConnection"},{"sourceUnit":{"$ref":"11"},"sourceKey":"value","destinationUnit":{"$ref":"14"},"destinationKey":"a","guid":"12060ebc-84df-4348-a37a-ddee3b522c3c","$type":"Bolt.ValueConnection"},{"sourceUnit":{"$ref":"18"},"sourceKey":"value","destinationUnit":{"$ref":"42"},"destinationKey":"a","guid":"d7d10796-10bd-4999-b937-0e981f14d153","$type":"Bolt.ValueConnection"},{"sourceUnit":{"$ref":"14"},"sourceKey":"product","destinationUnit":{"$ref":"37"},"destinationKey":"%y","guid":"6429bfe3-14ee-4b2a-b5d0-e93614b9d921","$type":"Bolt.ValueConnection"},{"sourceUnit":{"$ref":"18"},"sourceKey":"value","destinationUnit":{"$ref":"14"},"destinationKey":"b","guid":"6c7ff5d3-8c24-496f-a5f1-d42f418d40fb","$type":"Bolt.ValueConnection"},{"sourceUnit":{"$ref":"16"},"sourceKey":"value","destinationUnit":{"$ref":"44"},"destinationKey":"a","guid":"eadfafd0-f534-49f4-aa52-c2f4dfb2ff17","$type":"Bolt.ValueConnection"},{"sourceUnit":{"$ref":"44"},"sourceKey":"product","destinationUnit":{"$ref":"52"},"destinationKey":"input","guid":"7e2d355d-77eb-4218-b9e0-5f9f5b6eca18","$type":"Bolt.ValueConnection"},{"position":{"xMin":586.8572,"yMin":-425.2856,"xMax":1248.286,"yMax":-3.142761},"label":"Group","comment":null,"color":{"r":0.0,"g":0.0,"b":0.0,"a":1.0},"guid":"2795e8d0-cbfc-4195-af3a-1368222a5312","$version":"A","$type":"Ludiq.GraphGroup"}],"$version":"A"}}'
    _objectReferences: []
