%YAML 1.1
%TAG !u! tag:unity3d.com,2011:
--- !u!114 &11400000
MonoBehaviour:
  m_ObjectHideFlags: 0
  m_CorrespondingSourceObject: {fileID: 0}
  m_PrefabInstance: {fileID: 0}
  m_PrefabAsset: {fileID: 0}
  m_GameObject: {fileID: 0}
  m_Enabled: 1
  m_EditorHideFlags: 0
  m_Script: {fileID: -1893448595, guid: a040fb66244a7f54289914d98ea4ef7d, type: 3}
  m_Name: HouizeBoutonManager
  m_EditorClassIdentifier: 
  _data:
    _json: '{"graph":{"variables":{"collection":{"$content":[],"$version":"A"},"$version":"A"},"controlInputDefinitions":[],"controlOutputDefinitions":[],"valueInputDefinitions":[],"valueOutputDefinitions":[],"title":null,"summary":null,"pan":{"x":0.0,"y":0.0},"zoom":1.0,"elements":[{"coroutine":false,"defaultValues":{"target":null},"position":{"x":-170.0,"y":-37.0},"guid":"d9f0c772-5c47-4a84-9cda-576b042bfa87","$version":"A","$type":"Bolt.OnButtonClick","$id":"9"},{"chainable":false,"member":{"name":"Quit","parameterTypes":[],"targetType":"UnityEngine.Application","targetTypeName":"UnityEngine.Application","$version":"A"},"defaultValues":{},"position":{"x":64.0,"y":-41.0},"guid":"0426d7d7-3ad5-472d-984a-dc1e83428277","$version":"A","$type":"Bolt.InvokeMember","$id":"11"},{"coroutine":false,"defaultValues":{"target":null},"position":{"x":-171.0,"y":75.0},"guid":"fede0519-d446-449f-98ca-53522c2e18b0","$version":"A","$type":"Bolt.OnButtonClick","$id":"14"},{"chainable":false,"member":{"name":"LoadScene","parameterTypes":["System.String"],"targetType":"UnityEngine.SceneManagement.SceneManager","targetTypeName":"UnityEngine.SceneManagement.SceneManager","$version":"A"},"defaultValues":{"%sceneName":{"$content":"Lettres","$type":"System.String"}},"position":{"x":66.0,"y":82.0},"guid":"8df78b43-51c4-474a-a9fb-58e67b78d5e7","$version":"A","$type":"Bolt.InvokeMember","$id":"16"},{"sourceUnit":{"$ref":"9"},"sourceKey":"trigger","destinationUnit":{"$ref":"11"},"destinationKey":"enter","guid":"bd60dfeb-1050-4ab8-9302-7c6b6b7d2f53","$type":"Bolt.ControlConnection"},{"sourceUnit":{"$ref":"14"},"sourceKey":"trigger","destinationUnit":{"$ref":"16"},"destinationKey":"enter","guid":"e73ecfc2-679a-4646-95ec-4cdd1bdd2d9a","$type":"Bolt.ControlConnection"}],"$version":"A"}}'
    _objectReferences: []
