%YAML 1.1
%TAG !u! tag:unity3d.com,2011:
--- !u!114 &11400000
MonoBehaviour:
  m_ObjectHideFlags: 0
  m_CorrespondingSourceObject: {fileID: 0}
  m_PrefabInstance: {fileID: 0}
  m_PrefabAsset: {fileID: 0}
  m_GameObject: {fileID: 0}
  m_Enabled: 1
  m_EditorHideFlags: 0
  m_Script: {fileID: -1893448595, guid: a040fb66244a7f54289914d98ea4ef7d, type: 3}
  m_Name: Fighter_IsGrounded
  m_EditorClassIdentifier: 
  _data:
    _json: '{"graph":{"variables":{"collection":{"$content":[],"$version":"A"},"$version":"A"},"controlInputDefinitions":[],"controlOutputDefinitions":[],"valueInputDefinitions":[],"valueOutputDefinitions":[],"title":null,"summary":null,"pan":{"x":13.16986,"y":166.9103},"zoom":1.0,"elements":[{"nest":{"source":"Macro","macro":0,"embed":null},"defaultValues":{"Tag":null},"position":{"x":-169.0,"y":-49.0},"guid":"f5244e73-2325-4573-85e7-22b3c804a8c8","$version":"A","$type":"Bolt.SuperUnit","$id":"9"},{"type":"System.String","value":{"$content":"call
      grounded","$type":"System.String"},"defaultValues":{},"position":{"x":304.0,"y":-73.0},"guid":"4b1c1351-10da-4dae-b025-1b4a8912aad0","$version":"A","$type":"Bolt.Literal","$id":"12"},{"chainable":false,"member":{"name":"Log","parameterTypes":["System.Object"],"targetType":"UnityEngine.Debug","targetTypeName":"UnityEngine.Debug","$version":"A"},"defaultValues":{},"position":{"x":466.0,"y":-182.0},"guid":"ded6b4f1-4110-4556-b30a-5b023c8a273f","$version":"A","$type":"Bolt.InvokeMember","$id":"14"},{"argumentCount":0,"defaultValues":{"name":{"$content":"IsNotGrounded","$type":"System.String"},"target":null},"position":{"x":146.0,"y":-13.0},"guid":"79b33d97-37bd-49ae-b314-85e92e0ac843","$version":"A","$type":"Bolt.TriggerCustomEvent","$id":"17"},{"specifyFallback":false,"kind":"Application","defaultValues":{"name":{"$content":"Player","$type":"System.String"}},"position":{"x":-175.0,"y":-149.0},"guid":"79de8c90-3217-4135-b7aa-e703e8cdef19","$version":"A","$type":"Bolt.GetVariable","$id":"19"},{"argumentCount":0,"defaultValues":{"name":{"$content":"IsGrounded","$type":"System.String"},"target":null},"position":{"x":162.0,"y":-248.0},"guid":"9af6053c-904e-47fe-8579-6e25bbedc151","$version":"A","$type":"Bolt.TriggerCustomEvent","$id":"21"},{"specifyFallback":false,"kind":"Object","defaultValues":{"name":{"$content":"Tag","$type":"System.String"},"object":null},"position":{"x":-398.0,"y":-64.0},"guid":"7ce96dd7-0a7d-4ccf-9fe6-ae0dc3e8e769","$version":"A","$type":"Bolt.GetVariable","$id":"23"},{"chainable":false,"member":{"name":"Log","parameterTypes":["System.Object"],"targetType":"UnityEngine.Debug","targetTypeName":"UnityEngine.Debug","$version":"A"},"defaultValues":{},"position":{"x":506.0,"y":4.0},"guid":"336c7833-5da6-4768-b74e-43a52abc94f9","$version":"A","$type":"Bolt.InvokeMember","$id":"25"},{"type":"System.String","value":{"$content":"not
      grounded","$type":"System.String"},"defaultValues":{},"position":{"x":311.0,"y":132.0},"guid":"8848786a-bfa5-4604-9a97-b1d04500f78b","$version":"A","$type":"Bolt.Literal","$id":"28"},{"sourceUnit":{"$ref":"9"},"sourceKey":"Exit","destinationUnit":{"$ref":"17"},"destinationKey":"enter","guid":"23ade429-931c-4be6-b0f4-f00967327a7c","$type":"Bolt.ControlConnection"},{"sourceUnit":{"$ref":"9"},"sourceKey":"Enter","destinationUnit":{"$ref":"21"},"destinationKey":"enter","guid":"b2e08719-ac45-4d26-91e0-ac747b1caad9","$type":"Bolt.ControlConnection"},{"sourceUnit":{"$ref":"21"},"sourceKey":"exit","destinationUnit":{"$ref":"14"},"destinationKey":"enter","guid":"ea18f9bd-a1e7-4e3f-835c-05943a7c0f2c","$type":"Bolt.ControlConnection"},{"sourceUnit":{"$ref":"17"},"sourceKey":"exit","destinationUnit":{"$ref":"25"},"destinationKey":"enter","guid":"daf22a42-f61b-4287-a576-9c3e4ef186f7","$type":"Bolt.ControlConnection"},{"sourceUnit":{"$ref":"19"},"sourceKey":"value","destinationUnit":{"$ref":"21"},"destinationKey":"target","guid":"1a462158-fc11-4e53-bd49-9f8d8e96eecc","$type":"Bolt.ValueConnection"},{"sourceUnit":{"$ref":"12"},"sourceKey":"output","destinationUnit":{"$ref":"14"},"destinationKey":"%message","guid":"5c5d4e1f-3af7-47c4-a9a1-69f7bb1930bb","$type":"Bolt.ValueConnection"},{"sourceUnit":{"$ref":"23"},"sourceKey":"value","destinationUnit":{"$ref":"9"},"destinationKey":"Tag","guid":"13698f76-1298-42d9-8142-c40209acfca8","$type":"Bolt.ValueConnection"},{"sourceUnit":{"$ref":"28"},"sourceKey":"output","destinationUnit":{"$ref":"25"},"destinationKey":"%message","guid":"c9f1c338-565f-4109-81ce-b0ba2ccec93c","$type":"Bolt.ValueConnection"}],"$version":"A"}}'
    _objectReferences:
    - {fileID: 11400000, guid: f7e173495aafd8740af293a313c38dc7, type: 2}
