%YAML 1.1
%TAG !u! tag:unity3d.com,2011:
--- !u!114 &11400000
MonoBehaviour:
  m_ObjectHideFlags: 0
  m_CorrespondingSourceObject: {fileID: 0}
  m_PrefabInstance: {fileID: 0}
  m_PrefabAsset: {fileID: 0}
  m_GameObject: {fileID: 0}
  m_Enabled: 1
  m_EditorHideFlags: 0
  m_Script: {fileID: -1893448595, guid: a040fb66244a7f54289914d98ea4ef7d, type: 3}
  m_Name: On_trigger_Enter_Exit_Event
  m_EditorClassIdentifier: 
  _data:
    _json: '{"graph":{"variables":{"collection":{"$content":[],"$version":"A"},"$version":"A"},"controlInputDefinitions":[],"controlOutputDefinitions":[{"key":"Enter","label":null,"summary":null,"hideLabel":false},{"key":"Exit","label":null,"summary":null,"hideLabel":false},{"key":"Stay","label":null,"summary":null,"hideLabel":false}],"valueInputDefinitions":[{"hasDefaultValue":false,"defaultValue":null,"_type":"System.String","key":"Tag","label":null,"summary":null,"hideLabel":false}],"valueOutputDefinitions":[{"_type":"UnityEngine.GameObject","key":"Game
      Object","label":null,"summary":null,"hideLabel":false}],"title":null,"summary":null,"pan":{"x":243.5017,"y":1.597809},"zoom":1.0,"elements":[{"member":{"name":"tag","parameterTypes":null,"targetType":"UnityEngine.GameObject","targetTypeName":"UnityEngine.GameObject","$version":"A"},"defaultValues":{"target":null},"position":{"x":-111.0,"y":-115.0},"guid":"f5ba3765-54d9-4f38-b527-cfe5215f6838","$version":"A","$type":"Bolt.GetMember","$id":"14"},{"defaultValues":{},"position":{"x":401.0,"y":-353.0},"guid":"e0f9ef4d-d823-488c-9360-8e7d0c8cbf47","$version":"A","$type":"Bolt.Branch","$id":"17"},{"member":{"name":"tag","parameterTypes":null,"targetType":"UnityEngine.GameObject","targetTypeName":"UnityEngine.GameObject","$version":"A"},"defaultValues":{"target":null},"position":{"x":-12.0,"y":-266.0},"guid":"0337fae5-e94a-4850-8ece-3f42a3f3491c","$version":"A","$type":"Bolt.GetMember","$id":"19"},{"coroutine":true,"defaultValues":{"target":null},"position":{"x":-316.0,"y":-395.0},"guid":"8c428e36-a2b3-4105-81e4-1a2bf571f2cc","$version":"A","$type":"Bolt.OnTriggerStay2D","$id":"22"},{"numeric":false,"defaultValues":{},"position":{"x":119.0,"y":-109.0},"guid":"8574106a-3514-40f1-92df-070a7a3797f0","$version":"A","$type":"Bolt.Equal","$id":"24"},{"coroutine":false,"defaultValues":{"target":null},"position":{"x":-305.0,"y":136.0},"guid":"fe8a72df-8aec-43d5-85a8-faa8a2cfe6fd","$version":"A","$type":"Bolt.OnTriggerExit2D","$id":"26"},{"numeric":false,"defaultValues":{},"position":{"x":234.0,"y":-276.0},"guid":"76a33e57-f1cf-4978-92fb-1afafe692d47","$version":"A","$type":"Bolt.Equal","$id":"28"},{"coroutine":false,"defaultValues":{"target":null},"position":{"x":-437.0,"y":-250.0},"guid":"9649bf9c-404b-40ee-9e35-b8c5c7196894","$version":"A","$type":"Bolt.OnTriggerEnter2D","$id":"30"},{"defaultValues":{},"position":{"x":-391.0,"y":-72.0},"guid":"dd8bfa08-5ded-41e5-8567-168b5d02591b","$version":"A","$type":"Bolt.GraphInput","$id":"32"},{"defaultValues":{},"position":{"x":514.0,"y":-119.0},"guid":"ee703e14-d9ca-4d94-804c-82391d275f53","$version":"A","$type":"Bolt.GraphOutput","$id":"34"},{"member":{"name":"tag","parameterTypes":null,"targetType":"UnityEngine.GameObject","targetTypeName":"UnityEngine.GameObject","$version":"A"},"defaultValues":{"target":null},"position":{"x":-56.0,"y":231.0},"guid":"e39f1a26-9bc4-49f6-8493-57077104297c","$version":"A","$type":"Bolt.GetMember","$id":"36"},{"numeric":false,"defaultValues":{},"position":{"x":131.0,"y":143.0},"guid":"2e0ad08e-63ba-4262-9a19-0353457baf08","$version":"A","$type":"Bolt.Equal","$id":"39"},{"defaultValues":{},"position":{"x":274.0,"y":96.0},"guid":"22f669fc-dc05-4d54-a5d9-17dc358de4ff","$version":"A","$type":"Bolt.Branch","$id":"41"},{"defaultValues":{},"position":{"x":277.0,"y":-158.0},"guid":"ae7ca36b-7655-4df5-a289-c2533baa9cb7","$version":"A","$type":"Bolt.Branch","$id":"43"},{"sourceUnit":{"$ref":"22"},"sourceKey":"trigger","destinationUnit":{"$ref":"17"},"destinationKey":"enter","guid":"101f483b-322b-4d35-bfe6-6cf5384ef007","$type":"Bolt.ControlConnection"},{"sourceUnit":{"$ref":"17"},"sourceKey":"ifTrue","destinationUnit":{"$ref":"34"},"destinationKey":"Stay","guid":"094f6c83-a5c4-4ca7-a5b2-a11cefc860a8","$type":"Bolt.ControlConnection"},{"sourceUnit":{"$ref":"30"},"sourceKey":"trigger","destinationUnit":{"$ref":"43"},"destinationKey":"enter","guid":"240a37fe-c48d-4836-9caa-5fda1b2d0951","$type":"Bolt.ControlConnection"},{"sourceUnit":{"$ref":"43"},"sourceKey":"ifTrue","destinationUnit":{"$ref":"34"},"destinationKey":"Enter","guid":"7d904934-96b8-49fc-9d91-fca47e7031c8","$type":"Bolt.ControlConnection"},{"sourceUnit":{"$ref":"41"},"sourceKey":"ifTrue","destinationUnit":{"$ref":"34"},"destinationKey":"Exit","guid":"267bcc28-fced-472c-bb92-fa1750a4b6a8","$type":"Bolt.ControlConnection"},{"sourceUnit":{"$ref":"26"},"sourceKey":"trigger","destinationUnit":{"$ref":"41"},"destinationKey":"enter","guid":"ba2c8888-4200-4abd-806e-9d09e78847a4","$type":"Bolt.ControlConnection"},{"sourceUnit":{"$ref":"32"},"sourceKey":"Tag","destinationUnit":{"$ref":"39"},"destinationKey":"a","guid":"eed50784-7cf1-474d-953d-3ff79cab862e","$type":"Bolt.ValueConnection"},{"sourceUnit":{"$ref":"32"},"sourceKey":"Tag","destinationUnit":{"$ref":"24"},"destinationKey":"b","guid":"a868bfaa-4a45-4313-90e9-967b378e48f1","$type":"Bolt.ValueConnection"},{"sourceUnit":{"$ref":"30"},"sourceKey":"collider","destinationUnit":{"$ref":"14"},"destinationKey":"target","guid":"3fda0066-7866-4282-a645-aaf887b0bb81","$type":"Bolt.ValueConnection"},{"sourceUnit":{"$ref":"24"},"sourceKey":"equal","destinationUnit":{"$ref":"43"},"destinationKey":"condition","guid":"a707f6e6-251b-41ba-a8a0-99fda1d7e1a7","$type":"Bolt.ValueConnection"},{"sourceUnit":{"$ref":"14"},"sourceKey":"value","destinationUnit":{"$ref":"24"},"destinationKey":"a","guid":"ebc5c133-ba1a-4377-895f-40ac87e8ab4e","$type":"Bolt.ValueConnection"},{"sourceUnit":{"$ref":"26"},"sourceKey":"collider","destinationUnit":{"$ref":"36"},"destinationKey":"target","guid":"69904fea-ca1a-4097-bb07-03bed5d94ce5","$type":"Bolt.ValueConnection"},{"sourceUnit":{"$ref":"39"},"sourceKey":"equal","destinationUnit":{"$ref":"41"},"destinationKey":"condition","guid":"c2e9aba2-62f0-4e72-a50a-2c147eb813cc","$type":"Bolt.ValueConnection"},{"sourceUnit":{"$ref":"32"},"sourceKey":"Tag","destinationUnit":{"$ref":"28"},"destinationKey":"b","guid":"c1e7e5cd-8ac2-4b0d-9463-0bc8c8e75727","$type":"Bolt.ValueConnection"},{"sourceUnit":{"$ref":"36"},"sourceKey":"value","destinationUnit":{"$ref":"39"},"destinationKey":"b","guid":"47fc4c79-7eb0-415d-b591-f386f46e77dd","$type":"Bolt.ValueConnection"},{"sourceUnit":{"$ref":"19"},"sourceKey":"value","destinationUnit":{"$ref":"28"},"destinationKey":"a","guid":"0ff48de8-5210-4eed-ba9d-b042407e2cd5","$type":"Bolt.ValueConnection"},{"sourceUnit":{"$ref":"28"},"sourceKey":"equal","destinationUnit":{"$ref":"17"},"destinationKey":"condition","guid":"be51adb1-5b30-4ec4-b701-4a95c350f87b","$type":"Bolt.ValueConnection"},{"sourceUnit":{"$ref":"22"},"sourceKey":"collider","destinationUnit":{"$ref":"19"},"destinationKey":"target","guid":"7644ce67-4f75-4c0d-a1c1-798bbef1a1d0","$type":"Bolt.ValueConnection"}],"$version":"A"}}'
    _objectReferences: []
