%YAML 1.1
%TAG !u! tag:unity3d.com,2011:
--- !u!114 &11400000
MonoBehaviour:
  m_ObjectHideFlags: 0
  m_CorrespondingSourceObject: {fileID: 0}
  m_PrefabInstance: {fileID: 0}
  m_PrefabAsset: {fileID: 0}
  m_GameObject: {fileID: 0}
  m_Enabled: 1
  m_EditorHideFlags: 0
  m_Script: {fileID: -1893448595, guid: a040fb66244a7f54289914d98ea4ef7d, type: 3}
  m_Name: F_Enemy
  m_EditorClassIdentifier: 
  _data:
    _json: '{"graph":{"variables":{"collection":{"$content":[],"$version":"A"},"$version":"A"},"controlInputDefinitions":[],"controlOutputDefinitions":[],"valueInputDefinitions":[],"valueOutputDefinitions":[],"title":null,"summary":null,"pan":{"x":417.9518,"y":3099.104},"zoom":0.5999999,"elements":[{"specifyFallback":false,"kind":"Object","defaultValues":{"name":{"$content":"Enemy_Bullet","$type":"System.String"},"object":null},"position":{"x":883.0,"y":1786.0},"guid":"7927d8f8-86be-4393-b7ae-149fd7bc2a29","$version":"A","$type":"Bolt.GetVariable","$id":"9"},{"chainable":false,"member":{"name":"CompareTag","parameterTypes":["System.String"],"targetType":"UnityEngine.GameObject","targetTypeName":"UnityEngine.GameObject","$version":"A"},"defaultValues":{"target":null,"%tag":{"$content":"Player","$type":"System.String"}},"position":{"x":673.0,"y":1550.0},"guid":"644e6036-63fd-4826-bf12-c69c30587ba0","$version":"A","$type":"Bolt.InvokeMember","$id":"11"},{"numeric":false,"defaultValues":{},"position":{"x":997.0,"y":-234.0},"guid":"e948e6f2-cab2-4262-8719-89df8dc9565c","$version":"A","$type":"Bolt.NotEqual","$id":"14"},{"specifyFallback":false,"kind":"Object","defaultValues":{"name":{"$content":"PlayerDetectorRight","$type":"System.String"},"object":null},"position":{"x":83.0,"y":1593.0},"guid":"7a0cf4f5-e9b9-4092-9da3-b509bbb0e60a","$version":"A","$type":"Bolt.GetVariable"},{"defaultValues":{},"position":{"x":510.0,"y":2745.0},"guid":"64d9488e-3854-4c56-911f-7a6dbd695dd9","$version":"A","$type":"Bolt.Branch","$id":"18"},{"coroutine":false,"defaultValues":{"target":null},"position":{"x":-70.0,"y":1961.0},"guid":"7c584ca1-cdb6-424f-89fe-1f25942392a1","$version":"A","$type":"Bolt.OnTriggerEnter2D","$id":"20"},{"specifyFallback":false,"kind":"Object","defaultValues":{"name":{"$content":"Enemy_Bullet","$type":"System.String"},"object":null},"position":{"x":572.0,"y":3054.0},"guid":"8de8b51e-fb4d-4e1e-a8a7-02bfd3b54727","$version":"A","$type":"Bolt.GetVariable","$id":"22"},{"coroutine":false,"defaultValues":{"target":null},"position":{"x":376.0,"y":989.0},"guid":"b7dba810-3a9d-476c-a644-baa13413df8a","$version":"A","$type":"Bolt.OnCollisionEnter2D","$id":"24"},{"defaultValues":{},"position":{"x":3612.0,"y":559.0},"guid":"70f48968-e43a-4f42-81e1-e4b191f82417","$version":"A","$type":"Bolt.Branch","$id":"26"},{"defaultValues":{},"position":{"x":-545.0,"y":814.0},"guid":"02a473f1-1032-49fe-8673-b7bcbd4011e8","$version":"A","$type":"Bolt.Or","$id":"28"},{"chainable":false,"member":{"name":"CompareTag","parameterTypes":["System.String"],"targetType":"UnityEngine.GameObject","targetTypeName":"UnityEngine.GameObject","$version":"A"},"defaultValues":{"target":null,"%tag":{"$content":"Enemy","$type":"System.String"}},"position":{"x":-765.0,"y":660.0},"guid":"c80dfda5-4c00-499b-97a1-2a2e80d8b4fb","$version":"A","$type":"Bolt.InvokeMember","$id":"30"},{"defaultValues":{},"position":{"x":3640.0,"y":832.0},"guid":"75623d09-e082-407b-8770-3a3a3c1d388b","$version":"A","$type":"Bolt.SelectUnit","$id":"33"},{"defaultValues":{},"position":{"x":1941.0,"y":296.0},"guid":"a412af60-ddc3-4bf1-b2c5-4979f6356008","$version":"A","$type":"Bolt.Self","$id":"35"},{"specifyFallback":false,"kind":"Object","defaultValues":{"name":{"$content":"life","$type":"System.String"},"object":null},"position":{"x":448.0,"y":328.0},"guid":"71244b29-1ce2-43df-8127-1c7d2981e9c9","$version":"A","$type":"Bolt.GetVariable","$id":"37"},{"argumentCount":0,"defaultValues":{"name":{"$content":"","$type":"System.String"},"target":null},"position":{"x":604.0,"y":2074.0},"guid":"e9ef06eb-3d04-4b3b-a00a-c3e7ab44e7c5","$version":"A","$type":"Bolt.TriggerCustomEvent","$id":"39"},{"chainable":false,"member":{"name":"SetBool","parameterTypes":["System.String","System.Boolean"],"targetType":"UnityEngine.Animator","targetTypeName":"UnityEngine.Animator","$version":"A"},"defaultValues":{"target":null,"%name":{"$content":"IsDead","$type":"System.String"},"%value":{"$content":false,"$type":"System.Boolean"}},"position":{"x":2490.0,"y":589.0},"guid":"15a55c57-a48a-4842-b5c9-4c45508e1e72","$version":"A","$type":"Bolt.InvokeMember","$id":"41"},{"type":"System.Single","value":{"$content":0.0,"$type":"System.Single"},"defaultValues":{},"position":{"x":1420.0,"y":308.0},"guid":"dae5c65d-454c-45a0-91e7-f5bd2494b522","$version":"A","$type":"Bolt.Literal","$id":"44"},{"defaultValues":{"b":{"$content":-1.0,"$type":"System.Single"}},"position":{"x":-286.0,"y":898.0},"guid":"54fd89b2-04ac-4c2f-9467-7c3f3bd93c2b","$version":"A","$type":"Bolt.ScalarMultiply","$id":"46"},{"chainable":false,"member":{"name":"CompareTag","parameterTypes":["System.String"],"targetType":"UnityEngine.GameObject","targetTypeName":"UnityEngine.GameObject","$version":"A"},"defaultValues":{"target":null,"%tag":{"$content":"Wall","$type":"System.String"}},"position":{"x":657.0,"y":991.0},"guid":"6ac3b406-b18b-4f17-826e-8610f235337a","$version":"A","$type":"Bolt.InvokeMember","$id":"48"},{"chainable":false,"member":{"name":"CompareTag","parameterTypes":["System.String"],"targetType":"UnityEngine.GameObject","targetTypeName":"UnityEngine.GameObject","$version":"A"},"defaultValues":{"target":null,"%tag":{"$content":"Player","$type":"System.String"}},"position":{"x":299.0,"y":2721.0},"guid":"c3984cfe-e5d7-49d6-91b1-7a7c90ccff1b","$version":"A","$type":"Bolt.InvokeMember","$id":"51"},{"kind":"Object","defaultValues":{"name":{"$content":"speed","$type":"System.String"},"object":null},"position":{"x":1081.0,"y":996.0},"guid":"8e941d10-78bb-492a-995d-c0579969de54","$version":"A","$type":"Bolt.SetVariable","$id":"54"},{"specifyFallback":false,"kind":"Object","defaultValues":{"name":{"$content":"speed","$type":"System.String"},"object":null},"position":{"x":-519.0,"y":952.0},"guid":"da998eac-da2b-42c9-99c9-657b49a3aab6","$version":"A","$type":"Bolt.GetVariable","$id":"56"},{"defaultValues":{},"position":{"x":2108.0,"y":815.0},"guid":"77458311-5c0a-495a-9a50-dcaae99a0953","$version":"A","$type":"Bolt.ScalarAbsolute","$id":"58"},{"type":"System.Single","value":{"$content":0.0,"$type":"System.Single"},"defaultValues":{},"position":{"x":3252.0,"y":688.0},"guid":"af4f8e9e-95c6-46b3-a2ce-480e77b0cf3d","$version":"A","$type":"Bolt.Literal","$id":"60"},{"argumentCount":0,"defaultValues":{"name":{"$content":"","$type":"System.String"},"target":null},"position":{"x":1651.0,"y":-356.0},"guid":"05f06871-122c-4d5d-86d4-bbe05019bd91","$version":"A","$type":"Bolt.TriggerCustomEvent","$id":"62"},{"coroutine":false,"defaultValues":{},"position":{"x":1100.0,"y":-404.0},"guid":"9d22f61a-65b5-42bd-ab1a-6adfc2c235fb","$version":"A","$type":"Bolt.Update","$id":"64"},{"chainable":false,"member":{"name":".ctor","parameterTypes":["System.Single","System.Single"],"targetType":"UnityEngine.Vector2","targetTypeName":"UnityEngine.Vector2","$version":"A"},"defaultValues":{"%x":{"$content":0.0,"$type":"System.Single"},"%y":{"$content":0.0,"$type":"System.Single"}},"position":{"x":1149.0,"y":501.0},"guid":"d60f5542-2e42-480b-95f8-62985dca07de","$version":"A","$type":"Bolt.InvokeMember","$id":"66"},{"specifyFallback":false,"kind":"Object","defaultValues":{"name":{"$content":"speed","$type":"System.String"},"object":null},"position":{"x":419.0,"y":1200.0},"guid":"0beb612d-762f-4c56-adec-c9781b7354e2","$version":"A","$type":"Bolt.GetVariable","$id":"69"},{"chainable":false,"member":{"name":"velocity","parameterTypes":null,"targetType":"UnityEngine.Rigidbody2D","targetTypeName":"UnityEngine.Rigidbody2D","$version":"A"},"defaultValues":{"target":null,"input":{"x":0.0,"y":0.0,"$type":"UnityEngine.Vector2"}},"position":{"x":1369.0,"y":499.0},"guid":"205cfd76-4ba4-4684-b0dc-c015e6935046","$version":"A","$type":"Bolt.SetMember","$id":"71"},{"chainable":false,"member":{"name":"CircleCast","parameterTypes":["UnityEngine.Vector2","System.Single","UnityEngine.Vector2","System.Single","System.Int32"],"targetType":"UnityEngine.Physics2D","targetTypeName":"UnityEngine.Physics2D","$version":"A"},"defaultValues":{"%origin":{"x":0.0,"y":0.0,"$type":"UnityEngine.Vector2"},"%radius":{"$content":2.0,"$type":"System.Single"},"%direction":{"x":0.0,"y":0.0,"$type":"UnityEngine.Vector2"},"%distance":{"$content":2.0,"$type":"System.Single"},"%layerMask":{"$content":0,"$type":"System.Int32"}},"position":{"x":305.0,"y":-456.0},"guid":"74653731-6f86-4363-890f-670590059dc6","$version":"A","$type":"Bolt.InvokeMember","$id":"74"},{"member":{"name":"x","parameterTypes":null,"targetType":"UnityEngine.Vector2","targetTypeName":"UnityEngine.Vector2","$version":"A"},"defaultValues":{"target":{"x":0.0,"y":0.0,"$type":"UnityEngine.Vector2"}},"position":{"x":824.0,"y":637.0},"guid":"14c9bd81-dc4b-45e1-bb64-663f24512238","$version":"A","$type":"Bolt.GetMember","$id":"77"},{"member":{"name":"position","parameterTypes":null,"targetType":"UnityEngine.Transform","targetTypeName":"UnityEngine.Transform","$version":"A"},"defaultValues":{"target":null},"position":{"x":-14.0,"y":-442.0},"guid":"54a483cf-7d7f-4bd1-8e49-620dbc1475bd","$version":"A","$type":"Bolt.GetMember","$id":"80"},{"defaultValues":{},"position":{"x":-379.0,"y":763.0},"guid":"61068eca-65af-4ad4-850e-0f2d38825a57","$version":"A","$type":"Bolt.Or","$id":"83"},{"type":"UnityEngine.LayerMask","value":{"value":8192,"$type":"UnityEngine.LayerMask"},"defaultValues":{},"position":{"x":-19.0,"y":-354.0},"guid":"1f1c47d4-022b-4143-8662-988570a05031","$version":"A","$type":"Bolt.Literal","$id":"85"},{"chainable":false,"member":{"name":"Instantiate","parameterTypes":["UnityEngine.Object","UnityEngine.Vector3","UnityEngine.Quaternion"],"targetType":"UnityEngine.GameObject","targetTypeName":"UnityEngine.GameObject","$version":"A"},"defaultValues":{"%original":null,"%position":{"x":0.0,"y":0.0,"z":0.0,"$type":"UnityEngine.Vector3"}},"position":{"x":1475.0,"y":1575.0},"guid":"fd30f4e7-9c04-4381-8bd4-94d209bc6c23","$version":"A","$type":"Bolt.InvokeMember","$id":"87"},{"chainable":false,"member":{"name":"CompareTag","parameterTypes":["System.String"],"targetType":"UnityEngine.GameObject","targetTypeName":"UnityEngine.GameObject","$version":"A"},"defaultValues":{"target":null,"%tag":{"$content":"Ground","$type":"System.String"}},"position":{"x":-554.0,"y":665.0},"guid":"819e1eb0-3b87-42ca-acb6-7e78c53d1bf4","$version":"A","$type":"Bolt.InvokeMember","$id":"90"},{"member":{"name":"velocity","parameterTypes":null,"targetType":"UnityEngine.Rigidbody2D","targetTypeName":"UnityEngine.Rigidbody2D","$version":"A"},"defaultValues":{"target":null},"position":{"x":873.0,"y":851.0},"guid":"9293d361-bed7-429a-abfb-ddbd7820526d","$version":"A","$type":"Bolt.GetMember","$id":"93"},{"kind":"Object","defaultValues":{"name":{"$content":"IsDead","$type":"System.String"},"object":null},"position":{"x":1983.0,"y":3.0},"guid":"1db3d846-c380-4998-888e-f0b3cda46119","$version":"A","$type":"Bolt.SetVariable","$id":"96"},{"argumentCount":0,"defaultValues":{"name":{"$content":"","$type":"System.String"},"target":null},"position":{"x":738.0,"y":2771.0},"guid":"140352e4-3da0-46fb-846a-153e727cb748","$version":"A","$type":"Bolt.TriggerCustomEvent","$id":"98"},{"specifyFallback":false,"kind":"Object","defaultValues":{"name":{"$content":"Detector","$type":"System.String"},"object":null},"position":{"x":-1375.0,"y":662.0},"guid":"378cf384-a0fd-4f89-a1ec-6c95770ddc8c","$version":"A","$type":"Bolt.GetVariable","$id":"100"},{"specifyFallback":false,"kind":"Application","defaultValues":{"name":{"$content":"DetectorLeftEvent","$type":"System.String"}},"position":{"x":59.0,"y":2875.0},"guid":"84b07cbe-e1a1-4926-91dd-205e1e0877d8","$version":"A","$type":"Bolt.GetVariable","$id":"102"},{"chainable":false,"member":{"name":"CompareTag","parameterTypes":["System.String"],"targetType":"UnityEngine.GameObject","targetTypeName":"UnityEngine.GameObject","$version":"A"},"defaultValues":{"target":null,"%tag":{"$content":"Player","$type":"System.String"}},"position":{"x":202.0,"y":1962.0},"guid":"0ba5f709-085a-4927-9440-6509ecda476d","$version":"A","$type":"Bolt.InvokeMember","$id":"104"},{"defaultValues":{},"position":{"x":814.0,"y":258.0},"guid":"b245e23c-3a91-4159-829f-b96b6da011d9","$version":"A","$type":"Bolt.GenericSubtract","$id":"107"},{"defaultValues":{},"position":{"x":980.0,"y":659.0},"guid":"6bc1a939-cb2e-4b8a-a747-f1ffffa3f6c9","$version":"A","$type":"Bolt.GenericMultiply","$id":"109"},{"specifyFallback":false,"kind":"Object","defaultValues":{"name":{"$content":"Enemy_Bullet","$type":"System.String"},"object":null},"position":{"x":76.0,"y":2305.0},"guid":"1abfc697-be4c-420a-a24e-c1c58afcc022","$version":"A","$type":"Bolt.GetVariable","$id":"111"},{"member":{"name":"x","parameterTypes":null,"targetType":"UnityEngine.Vector2","targetTypeName":"UnityEngine.Vector2","$version":"A"},"defaultValues":{"target":{"x":0.0,"y":0.0,"$type":"UnityEngine.Vector2"}},"position":{"x":1964.0,"y":815.0},"guid":"85090ef8-b2f4-4d56-838a-20aeb7c30ff9","$version":"A","$type":"Bolt.GetMember","$id":"113"},{"member":{"name":"gameObject","parameterTypes":null,"targetType":"UnityEngine.GameObject","targetTypeName":"UnityEngine.GameObject","$version":"A"},"defaultValues":{"target":null},"position":{"x":-1012.0,"y":859.0},"guid":"d443ddba-8ce6-407e-9356-6a18f7ea64fc","$version":"A","$type":"Bolt.GetMember","$id":"116"},{"specifyFallback":false,"kind":"Object","defaultValues":{"name":{"$content":"ChildAnimator","$type":"System.String"},"object":null},"position":{"x":2016.0,"y":543.0},"guid":"42d7fd08-51f9-4612-86ad-4c56d950a447","$version":"A","$type":"Bolt.GetVariable","$id":"119"},{"coroutine":false,"defaultValues":{"target":null},"position":{"x":32.0,"y":2710.0},"guid":"3e832e7f-8a6d-4c4f-ac90-b5842eaef501","$version":"A","$type":"Bolt.OnTriggerEnter2D","$id":"121"},{"specifyFallback":false,"kind":"Application","defaultValues":{"name":{"$content":"BulletCustomEvent","$type":"System.String"}},"position":{"x":137.0,"y":82.0},"guid":"0c70e43e-5d26-4568-91e6-31af7f67f3ee","$version":"A","$type":"Bolt.GetVariable","$id":"123"},{"specifyFallback":false,"kind":"Object","defaultValues":{"name":{"$content":"PlayerDetectorLeft","$type":"System.String"},"object":null},"position":{"x":-266.0,"y":2712.0},"guid":"cc4bb8c0-55dc-4ac8-82b8-cc728870649a","$version":"A","$type":"Bolt.GetVariable"},{"member":{"name":"position","parameterTypes":null,"targetType":"UnityEngine.Transform","targetTypeName":"UnityEngine.Transform","$version":"A"},"defaultValues":{"target":null},"position":{"x":1123.0,"y":1835.0},"guid":"872a50f2-f84a-42ac-9eaf-679421a6f878","$version":"A","$type":"Bolt.GetMember","$id":"127"},{"numeric":false,"defaultValues":{},"position":{"x":3418.0,"y":686.0},"guid":"76ceac76-d577-47fb-9c89-c1089eea7c65","$version":"A","$type":"Bolt.Equal","$id":"130"},{"type":"System.Single","value":{"$content":-1.0,"$type":"System.Single"},"defaultValues":{},"position":{"x":3481.0,"y":1090.0},"guid":"4c355470-9dde-4928-92a4-b10a730ff6f9","$version":"A","$type":"Bolt.Literal","$id":"132"},{"kind":"Object","defaultValues":{"name":{"$content":"speed","$type":"System.String"},"object":null},"position":{"x":-70.0,"y":741.0},"guid":"607746b0-d3cc-4636-aae3-7ec5e7aada8f","$version":"A","$type":"Bolt.SetVariable","$id":"134"},{"chainable":false,"member":{"name":"Instantiate","parameterTypes":["UnityEngine.Object","UnityEngine.Vector3","UnityEngine.Quaternion"],"targetType":"UnityEngine.GameObject","targetTypeName":"UnityEngine.GameObject","$version":"A"},"defaultValues":{"%original":null,"%position":{"x":0.0,"y":0.0,"z":0.0,"$type":"UnityEngine.Vector3"}},"position":{"x":1058.0,"y":2098.0},"guid":"b565108f-5d75-405a-9f11-4aedc638697c","$version":"A","$type":"Bolt.InvokeMember","$id":"136"},{"specifyFallback":false,"kind":"Object","defaultValues":{"name":{"$content":"Enemy_Bullet","$type":"System.String"},"object":null},"position":{"x":466.0,"y":2310.0},"guid":"db8b19ba-1fa4-4cf4-9514-34666d19950f","$version":"A","$type":"Bolt.GetVariable","$id":"139"},{"type":"System.Boolean","value":{"$content":true,"$type":"System.Boolean"},"defaultValues":{},"position":{"x":1784.0,"y":58.0},"guid":"8a4bf0ed-5716-4a84-a131-ee46ebcd3129","$version":"A","$type":"Bolt.Literal","$id":"141"},{"chainable":false,"member":{"name":"CompareTag","parameterTypes":["System.String"],"targetType":"UnityEngine.GameObject","targetTypeName":"UnityEngine.GameObject","$version":"A"},"defaultValues":{"target":null,"%tag":{"$content":"Wall","$type":"System.String"}},"position":{"x":-956.0,"y":667.0},"guid":"713eddf5-8519-40b1-b414-e281d7d64c40","$version":"A","$type":"Bolt.InvokeMember","$id":"143"},{"chainable":false,"member":{"name":"Destroy","parameterTypes":["UnityEngine.Object","System.Single"],"targetType":"UnityEngine.GameObject","targetTypeName":"UnityEngine.GameObject","$version":"A"},"defaultValues":{"%obj":null,"%t":{"$content":0.9,"$type":"System.Single"}},"position":{"x":2206.0,"y":116.0},"guid":"bfe973f9-dcbf-4e91-ba40-4256dd98ff46","$version":"A","$type":"Bolt.InvokeMember","$id":"146"},{"chainable":false,"member":{"name":"localScale","parameterTypes":null,"targetType":"UnityEngine.Transform","targetTypeName":"UnityEngine.Transform","$version":"A"},"defaultValues":{"target":null,"input":{"x":0.0,"y":0.0,"z":0.0,"$type":"UnityEngine.Vector3"}},"position":{"x":3974.0,"y":702.0},"guid":"ff23c214-1eed-49ea-9de1-2236c344a502","$version":"A","$type":"Bolt.SetMember","$id":"149"},{"coroutine":false,"defaultValues":{"target":null},"position":{"x":362.0,"y":1565.0},"guid":"5fff0c7c-ba73-48e3-a71f-7644115bbb01","$version":"A","$type":"Bolt.OnTriggerEnter2D","$id":"152"},{"defaultValues":{},"position":{"x":413.0,"y":1986.0},"guid":"bde7a154-374c-430d-b7b9-e17ab4433330","$version":"A","$type":"Bolt.Branch","$id":"154"},{"member":{"name":"position","parameterTypes":null,"targetType":"UnityEngine.Transform","targetTypeName":"UnityEngine.Transform","$version":"A"},"defaultValues":{"target":null},"position":{"x":706.0,"y":2358.0},"guid":"0aa80635-b8f9-4ff0-8d09-7faf47fa8093","$version":"A","$type":"Bolt.GetMember","$id":"156"},{"coroutine":false,"defaultValues":{"target":null},"position":{"x":-1176.0,"y":668.0},"guid":"45cf11ac-ee91-4697-8e07-32837cf48a16","$version":"A","$type":"Bolt.OnTriggerEnter2D","$id":"159"},{"defaultValues":{},"position":{"x":1276.0,"y":-336.0},"guid":"867006ad-c908-430a-ac08-a7d7e7c65f63","$version":"A","$type":"Bolt.Branch","$id":"161"},{"member":{"name":"x","parameterTypes":null,"targetType":"UnityEngine.Vector2","targetTypeName":"UnityEngine.Vector2","$version":"A"},"defaultValues":{"target":{"x":0.0,"y":0.0,"$type":"UnityEngine.Vector2"}},"position":{"x":3252.0,"y":836.0},"guid":"57d9db89-3894-45a2-b9c3-aabe448d8237","$version":"A","$type":"Bolt.GetMember","$id":"163"},{"specifyFallback":false,"kind":"Object","defaultValues":{"name":{"$content":"Detector","$type":"System.String"},"object":null},"position":{"x":144.0,"y":995.0},"guid":"b045c485-6fa0-4be7-82f4-271da355f556","$version":"A","$type":"Bolt.GetVariable","$id":"166"},{"specifyFallback":false,"kind":"Object","defaultValues":{"name":{"$content":"IsDead","$type":"System.String"},"object":null},"position":{"x":2299.0,"y":839.0},"guid":"c29b4805-0fea-4299-9a15-e0fd7f691a97","$version":"A","$type":"Bolt.GetVariable","$id":"168"},{"specifyFallback":false,"kind":"Application","defaultValues":{"name":{"$content":"Death_Player","$type":"System.String"}},"position":{"x":1389.0,"y":-220.0},"guid":"7f450ad1-a971-4ef3-b1ee-8a95767fac4b","$version":"A","$type":"Bolt.GetVariable","$id":"170"},{"specifyFallback":false,"kind":"Object","defaultValues":{"name":{"$content":"PlayerDetectorRight","$type":"System.String"},"object":null},"position":{"x":-376.0,"y":1958.0},"guid":"82930088-914f-4857-8603-2023a76eb50e","$version":"A","$type":"Bolt.GetVariable"},{"argumentCount":1,"coroutine":false,"defaultValues":{"target":null,"name":{"$content":"","$type":"System.String"}},"position":{"x":505.0,"y":82.0},"guid":"8d2e8c83-ca8d-48fb-9114-c5c71b73f155","$version":"A","$type":"Bolt.CustomEvent","$id":"174"},{"specifyFallback":false,"kind":"Application","defaultValues":{"name":{"$content":"DetectorRigthEvent","$type":"System.String"}},"position":{"x":52.0,"y":2152.0},"guid":"9d489672-cee5-4725-a83a-f76181e472af","$version":"A","$type":"Bolt.GetVariable","$id":"176"},{"member":{"name":"velocity","parameterTypes":null,"targetType":"UnityEngine.Rigidbody2D","targetTypeName":"UnityEngine.Rigidbody2D","$version":"A"},"defaultValues":{"target":null},"position":{"x":1771.0,"y":815.0},"guid":"f53c3af7-d8b9-44b0-a503-1d945dd07b2a","$version":"A","$type":"Bolt.GetMember","$id":"178"},{"numeric":false,"defaultValues":{},"position":{"x":1583.0,"y":182.0},"guid":"023b8226-3e07-42a3-8baf-4f43afd4dcab","$version":"A","$type":"Bolt.Equal","$id":"181"},{"coroutine":false,"defaultValues":{},"position":{"x":665.0,"y":499.0},"guid":"61186f6b-e720-4424-a118-0664911b70ee","$version":"A","$type":"Bolt.Update","$id":"183"},{"member":{"name":"y","parameterTypes":null,"targetType":"UnityEngine.Vector2","targetTypeName":"UnityEngine.Vector2","$version":"A"},"defaultValues":{"target":{"x":0.0,"y":0.0,"$type":"UnityEngine.Vector2"}},"position":{"x":1050.0,"y":805.0},"guid":"3f6c7ef5-2a2f-47f6-9aef-672210a48df7","$version":"A","$type":"Bolt.GetMember","$id":"185"},{"member":{"name":"right","parameterTypes":null,"targetType":"UnityEngine.Vector2","targetTypeName":"UnityEngine.Vector2","$version":"A"},"defaultValues":{},"position":{"x":662.0,"y":631.0},"guid":"eae25941-a85b-4e12-a074-821211f6a016","$version":"A","$type":"Bolt.GetMember","$id":"188"},{"defaultValues":{"b":{"$content":-1.0,"$type":"System.Single"}},"position":{"x":669.0,"y":1205.0},"guid":"a8fc8add-c3de-4fa9-a117-426e90416467","$version":"A","$type":"Bolt.ScalarMultiply","$id":"191"},{"chainable":false,"member":{"name":"Instantiate","parameterTypes":["UnityEngine.Object","UnityEngine.Vector3","UnityEngine.Quaternion"],"targetType":"UnityEngine.GameObject","targetTypeName":"UnityEngine.GameObject","$version":"A"},"defaultValues":{"%original":null,"%position":{"x":0.0,"y":0.0,"z":0.0,"$type":"UnityEngine.Vector3"}},"position":{"x":1180.0,"y":2799.0},"guid":"a521b5f6-bcb2-48a5-a68f-57db1e73a9f7","$version":"A","$type":"Bolt.InvokeMember","$id":"193"},{"member":{"name":"identity","parameterTypes":null,"targetType":"UnityEngine.Quaternion","targetTypeName":"UnityEngine.Quaternion","$version":"A"},"defaultValues":{},"position":{"x":1323.0,"y":1817.0},"guid":"7f50c803-b9d9-4165-a9ee-931d006ea37e","$version":"A","$type":"Bolt.GetMember","$id":"196"},{"defaultValues":{},"position":{"x":-234.0,"y":692.0},"guid":"6e010440-f41b-4587-9c39-b9286877309a","$version":"A","$type":"Bolt.Branch","$id":"199"},{"defaultValues":{},"position":{"x":867.0,"y":991.0},"guid":"c4a5caf9-2c65-4224-ae2d-a45836aab075","$version":"A","$type":"Bolt.Branch","$id":"201"},{"specifyFallback":false,"kind":"Object","defaultValues":{"name":{"$content":"Enemy_Bullet","$type":"System.String"},"object":null},"position":{"x":173.0,"y":3064.0},"guid":"934418b3-eee9-40f4-8dbb-77a13c1eab2a","$version":"A","$type":"Bolt.GetVariable","$id":"203"},{"kind":"Object","defaultValues":{"name":{"$content":"life","$type":"System.String"},"object":null},"position":{"x":1251.0,"y":139.0},"guid":"349359f3-cacc-40d9-9b4e-d01d30a38cdf","$version":"A","$type":"Bolt.SetVariable","$id":"205"},{"member":{"name":"velocity","parameterTypes":null,"targetType":"UnityEngine.Rigidbody2D","targetTypeName":"UnityEngine.Rigidbody2D","$version":"A"},"defaultValues":{"target":null},"position":{"x":3059.0,"y":836.0},"guid":"d9be34b0-6f65-49e8-bab5-9828e708f4fd","$version":"A","$type":"Bolt.GetMember","$id":"207"},{"type":"System.Single","value":{"$content":1.0,"$type":"System.Single"},"defaultValues":{},"position":{"x":3426.0,"y":987.0},"guid":"75792e80-e64b-4262-8bdf-75e271d893d7","$version":"A","$type":"Bolt.Literal","$id":"210"},{"chainable":false,"member":{"name":".ctor","parameterTypes":["System.Single","System.Single","System.Single"],"targetType":"UnityEngine.Vector3","targetTypeName":"UnityEngine.Vector3","$version":"A"},"defaultValues":{"%x":{"$content":0.0,"$type":"System.Single"},"%y":{"$content":1.0,"$type":"System.Single"},"%z":{"$content":1.0,"$type":"System.Single"}},"position":{"x":3788.0,"y":667.0},"guid":"f26307ce-3cb5-4bdf-880b-eb74a5ec254b","$version":"A","$type":"Bolt.InvokeMember","$id":"212"},{"numeric":true,"defaultValues":{"b":{"$content":0.0,"$type":"System.Single"}},"position":{"x":3419.0,"y":857.0},"guid":"9682bf5f-32e4-4fb8-bc89-c6a8b3e0ac04","$version":"A","$type":"Bolt.Greater","$id":"215"},{"defaultValues":{},"position":{"x":840.0,"y":-120.0},"guid":"58f983e3-530f-4514-a550-c5ada0d521e7","$version":"A","$type":"Bolt.Null","$id":"217"},{"member":{"name":"identity","parameterTypes":null,"targetType":"UnityEngine.Quaternion","targetTypeName":"UnityEngine.Quaternion","$version":"A"},"defaultValues":{},"position":{"x":841.0,"y":2448.0},"guid":"8f99618d-c71b-487f-99c9-0bf85c919bc0","$version":"A","$type":"Bolt.GetMember","$id":"219"},{"member":{"name":"identity","parameterTypes":null,"targetType":"UnityEngine.Quaternion","targetTypeName":"UnityEngine.Quaternion","$version":"A"},"defaultValues":{},"position":{"x":970.0,"y":3167.0},"guid":"31fb9c78-c762-4675-b093-9232a8f3376c","$version":"A","$type":"Bolt.GetMember","$id":"222"},{"defaultValues":{},"position":{"x":966.0,"y":1558.0},"guid":"2a0113b4-0fc7-4ea4-8430-1ef447e260d4","$version":"A","$type":"Bolt.Branch","$id":"225"},{"chainable":false,"member":{"name":"SetFloat","parameterTypes":["System.String","System.Single"],"targetType":"UnityEngine.Animator","targetTypeName":"UnityEngine.Animator","$version":"A"},"defaultValues":{"target":null,"%name":{"$content":"Speed","$type":"System.String"},"%value":{"$content":0.0,"$type":"System.Single"}},"position":{"x":2234.0,"y":659.0},"guid":"20a1f56c-464d-4283-92f5-39c08bc5e95f","$version":"A","$type":"Bolt.InvokeMember","$id":"227"},{"specifyFallback":false,"kind":"Object","defaultValues":{"name":{"$content":"speed","$type":"System.String"},"object":null},"position":{"x":716.0,"y":763.0},"guid":"29ab9c2e-a3db-44cd-95ba-d6f0e7f52b8c","$version":"A","$type":"Bolt.GetVariable","$id":"230"},{"defaultValues":{},"position":{"x":1801.0,"y":163.0},"guid":"201080af-9c8c-4352-9696-88893285998c","$version":"A","$type":"Bolt.Branch","$id":"232"},{"type":"UnityEngine.RaycastHit2D","instance":true,"static":true,"defaultValues":{},"position":{"x":744.0,"y":-518.0},"guid":"c125613d-a60e-4f83-9f88-88bbb391173a","$version":"A","$type":"Bolt.Expose","$id":"234"},{"member":{"name":"position","parameterTypes":null,"targetType":"UnityEngine.Transform","targetTypeName":"UnityEngine.Transform","$version":"A"},"defaultValues":{"target":null},"position":{"x":726.0,"y":3164.0},"guid":"0032c7b4-c0fe-41dc-90c5-c16bcd747914","$version":"A","$type":"Bolt.GetMember","$id":"236"},{"sourceUnit":{"$ref":"48"},"sourceKey":"exit","destinationUnit":{"$ref":"201"},"destinationKey":"enter","guid":"9230134e-a644-45ee-bc47-b858aae33419","$type":"Bolt.ControlConnection"},{"sourceUnit":{"$ref":"30"},"sourceKey":"exit","destinationUnit":{"$ref":"90"},"destinationKey":"enter","guid":"86de732d-83fd-4b2d-b9c0-58f20708d0c5","$type":"Bolt.ControlConnection"},{"sourceUnit":{"$ref":"96"},"sourceKey":"assigned","destinationUnit":{"$ref":"146"},"destinationKey":"enter","guid":"2dc007f8-5f1d-423f-9d8b-e673b2c6d135","$type":"Bolt.ControlConnection"},{"sourceUnit":{"$ref":"205"},"sourceKey":"assigned","destinationUnit":{"$ref":"232"},"destinationKey":"enter","guid":"22781f98-ffc9-402f-a6a6-a0df2674b516","$type":"Bolt.ControlConnection"},{"sourceUnit":{"$ref":"161"},"sourceKey":"ifTrue","destinationUnit":{"$ref":"62"},"destinationKey":"enter","guid":"273bb4cc-0da4-4b5c-99fd-98b05d4e43d5","$type":"Bolt.ControlConnection"},{"sourceUnit":{"$ref":"71"},"sourceKey":"assigned","destinationUnit":{"$ref":"227"},"destinationKey":"enter","guid":"fe11e611-637f-45dd-82a5-05024593174e","$type":"Bolt.ControlConnection"},{"sourceUnit":{"$ref":"232"},"sourceKey":"ifTrue","destinationUnit":{"$ref":"96"},"destinationKey":"assign","guid":"abf59347-859d-43e4-a77d-aafc2c948764","$type":"Bolt.ControlConnection"},{"sourceUnit":{"$ref":"159"},"sourceKey":"trigger","destinationUnit":{"$ref":"143"},"destinationKey":"enter","guid":"db222796-92ca-4785-9529-88cc6fcf2145","$type":"Bolt.ControlConnection"},{"sourceUnit":{"$ref":"41"},"sourceKey":"exit","destinationUnit":{"$ref":"26"},"destinationKey":"enter","guid":"8bde90ee-7e19-4842-a306-3b96a81bce1e","$type":"Bolt.ControlConnection"},{"sourceUnit":{"$ref":"201"},"sourceKey":"ifTrue","destinationUnit":{"$ref":"54"},"destinationKey":"assign","guid":"82a3492e-cde8-4880-bace-b43297558726","$type":"Bolt.ControlConnection"},{"sourceUnit":{"$ref":"66"},"sourceKey":"exit","destinationUnit":{"$ref":"71"},"destinationKey":"assign","guid":"c161dffd-07b7-441c-944d-a15f07ced1ee","$type":"Bolt.ControlConnection"},{"sourceUnit":{"$ref":"174"},"sourceKey":"trigger","destinationUnit":{"$ref":"205"},"destinationKey":"assign","guid":"88335c19-5969-4b57-b869-0711dc4dfa75","$type":"Bolt.ControlConnection"},{"sourceUnit":{"$ref":"104"},"sourceKey":"exit","destinationUnit":{"$ref":"154"},"destinationKey":"enter","guid":"33f3746a-4950-4be7-ba1f-5ad19f1296e9","$type":"Bolt.ControlConnection"},{"sourceUnit":{"$ref":"154"},"sourceKey":"ifTrue","destinationUnit":{"$ref":"39"},"destinationKey":"enter","guid":"b27c970a-6448-4a98-88d4-e0015b74e85f","$type":"Bolt.ControlConnection"},{"sourceUnit":{"$ref":"18"},"sourceKey":"ifTrue","destinationUnit":{"$ref":"98"},"destinationKey":"enter","guid":"379ad9d3-b211-419a-85be-a5c5954d4fe1","$type":"Bolt.ControlConnection"},{"sourceUnit":{"$ref":"98"},"sourceKey":"exit","destinationUnit":{"$ref":"193"},"destinationKey":"enter","guid":"0fc8cac9-4842-4f54-861d-8cd3dcbf3206","$type":"Bolt.ControlConnection"},{"sourceUnit":{"$ref":"51"},"sourceKey":"exit","destinationUnit":{"$ref":"18"},"destinationKey":"enter","guid":"b4de82dc-5960-46a4-b64a-58719ed6e981","$type":"Bolt.ControlConnection"},{"sourceUnit":{"$ref":"39"},"sourceKey":"exit","destinationUnit":{"$ref":"136"},"destinationKey":"enter","guid":"bec20816-73d3-4fc7-8188-9acb62ea1108","$type":"Bolt.ControlConnection"},{"sourceUnit":{"$ref":"199"},"sourceKey":"ifTrue","destinationUnit":{"$ref":"134"},"destinationKey":"assign","guid":"1168ceff-8208-4fe6-a1a1-e53c80554b2e","$type":"Bolt.ControlConnection"},{"sourceUnit":{"$ref":"90"},"sourceKey":"exit","destinationUnit":{"$ref":"199"},"destinationKey":"enter","guid":"3a252923-bfbb-4dda-8610-c6bfb25a7030","$type":"Bolt.ControlConnection"},{"sourceUnit":{"$ref":"143"},"sourceKey":"exit","destinationUnit":{"$ref":"30"},"destinationKey":"enter","guid":"8a952684-061e-418c-801e-9bd9e0ead43f","$type":"Bolt.ControlConnection"},{"sourceUnit":{"$ref":"227"},"sourceKey":"exit","destinationUnit":{"$ref":"41"},"destinationKey":"enter","guid":"1ded4843-ccb3-4574-8cfb-df041d39924c","$type":"Bolt.ControlConnection"},{"sourceUnit":{"$ref":"225"},"sourceKey":"ifTrue","destinationUnit":{"$ref":"87"},"destinationKey":"enter","guid":"3cd18280-b3ef-4bc7-8f69-4085352a1e0e","$type":"Bolt.ControlConnection"},{"sourceUnit":{"$ref":"183"},"sourceKey":"trigger","destinationUnit":{"$ref":"66"},"destinationKey":"enter","guid":"83122c97-4b91-490c-822a-8167c9677f7c","$type":"Bolt.ControlConnection"},{"sourceUnit":{"$ref":"64"},"sourceKey":"trigger","destinationUnit":{"$ref":"161"},"destinationKey":"enter","guid":"982aa517-6138-425b-a564-905b6c31495a","$type":"Bolt.ControlConnection"},{"sourceUnit":{"$ref":"212"},"sourceKey":"exit","destinationUnit":{"$ref":"149"},"destinationKey":"assign","guid":"ee90c827-bf12-4315-a221-1f4aca5e8126","$type":"Bolt.ControlConnection"},{"sourceUnit":{"$ref":"11"},"sourceKey":"exit","destinationUnit":{"$ref":"225"},"destinationKey":"enter","guid":"b7e691f9-dcfd-4308-bcdf-6c3a2e480a25","$type":"Bolt.ControlConnection"},{"sourceUnit":{"$ref":"26"},"sourceKey":"ifFalse","destinationUnit":{"$ref":"212"},"destinationKey":"enter","guid":"1a832f89-caef-4ba1-8f78-aa81233fae6f","$type":"Bolt.ControlConnection"},{"sourceUnit":{"$ref":"66"},"sourceKey":"result","destinationUnit":{"$ref":"71"},"destinationKey":"input","guid":"f3b7eaf6-21ed-4888-93e0-58d8f4f69a13","$type":"Bolt.ValueConnection"},{"sourceUnit":{"$ref":"210"},"sourceKey":"output","destinationUnit":{"$ref":"33"},"destinationKey":"ifTrue","guid":"cf69f20a-d98f-40ec-b4ff-4d21e00b8944","$type":"Bolt.ValueConnection"},{"sourceUnit":{"$ref":"203"},"sourceKey":"value","destinationUnit":{"$ref":"98"},"destinationKey":"target","guid":"3b508f9f-18b0-452d-a1ba-8aa33df68b20","$type":"Bolt.ValueConnection"},{"sourceUnit":{"$ref":"60"},"sourceKey":"output","destinationUnit":{"$ref":"130"},"destinationKey":"b","guid":"87968325-529a-4bd6-95db-1633e3cb2278","$type":"Bolt.ValueConnection"},{"sourceUnit":{"$ref":"191"},"sourceKey":"product","destinationUnit":{"$ref":"54"},"destinationKey":"input","guid":"f5530cc0-f148-4872-b4dc-44e86f40163d","$type":"Bolt.ValueConnection"},{"sourceUnit":{"$ref":"14"},"sourceKey":"notEqual","destinationUnit":{"$ref":"161"},"destinationKey":"condition","guid":"b9b10495-8139-4d2f-b1c4-6284fd71163c","$type":"Bolt.ValueConnection"},{"sourceUnit":{"$ref":"130"},"sourceKey":"equal","destinationUnit":{"$ref":"26"},"destinationKey":"condition","guid":"0b09da4f-eaf5-47bf-b3be-accac9d8e506","$type":"Bolt.ValueConnection"},{"sourceUnit":{"$ref":"215"},"sourceKey":"comparison","destinationUnit":{"$ref":"33"},"destinationKey":"condition","guid":"0c3166d6-019a-4d26-b062-41bb46997629","$type":"Bolt.ValueConnection"},{"sourceUnit":{"$ref":"80"},"sourceKey":"value","destinationUnit":{"$ref":"74"},"destinationKey":"%origin","guid":"7a0b344b-e159-4e99-896e-35230388bb45","$type":"Bolt.ValueConnection"},{"sourceUnit":{"$ref":"35"},"sourceKey":"self","destinationUnit":{"$ref":"146"},"destinationKey":"%obj","guid":"a0240f18-ec59-4635-a32a-c309433315b6","$type":"Bolt.ValueConnection"},{"sourceUnit":{"$ref":"93"},"sourceKey":"value","destinationUnit":{"$ref":"185"},"destinationKey":"target","guid":"4d130e2b-4a1f-4dec-97e0-260fb81923a3","$type":"Bolt.ValueConnection"},{"sourceUnit":{"$ref":"219"},"sourceKey":"value","destinationUnit":{"$ref":"136"},"destinationKey":"%rotation","guid":"38ad2d58-f47d-40b7-ae72-eb8e5a5d1057","$type":"Bolt.ValueConnection"},{"sourceUnit":{"$ref":"20"},"sourceKey":"collider","destinationUnit":{"$ref":"104"},"destinationKey":"target","guid":"82e5d993-399c-4595-b241-c793f8a8a103","$type":"Bolt.ValueConnection"},{"sourceUnit":{"$ref":"141"},"sourceKey":"output","destinationUnit":{"$ref":"96"},"destinationKey":"input","guid":"86baf820-1639-447b-9d8f-89513be2f987","$type":"Bolt.ValueConnection"},{"sourceUnit":{"$ref":"56"},"sourceKey":"value","destinationUnit":{"$ref":"46"},"destinationKey":"a","guid":"aaa24a4b-2206-4eb9-9a5c-81799c94f487","$type":"Bolt.ValueConnection"},{"sourceUnit":{"$ref":"207"},"sourceKey":"value","destinationUnit":{"$ref":"163"},"destinationKey":"target","guid":"c1c12265-5685-4b20-91fb-01f361b28355","$type":"Bolt.ValueConnection"},{"sourceUnit":{"$ref":"222"},"sourceKey":"value","destinationUnit":{"$ref":"193"},"destinationKey":"%rotation","guid":"7a1abd3b-eab5-41f6-a8c5-8c83f42795dc","$type":"Bolt.ValueConnection"},{"sourceUnit":{"$ref":"24"},"sourceKey":"collider","destinationUnit":{"$ref":"48"},"destinationKey":"target","guid":"8eac36ea-5d3d-41e6-9d44-3ffa1e25a5de","$type":"Bolt.ValueConnection"},{"sourceUnit":{"$ref":"28"},"sourceKey":"result","destinationUnit":{"$ref":"83"},"destinationKey":"b","guid":"d394d104-5cd3-4bef-b16f-1291daf6783d","$type":"Bolt.ValueConnection"},{"sourceUnit":{"$ref":"119"},"sourceKey":"value","destinationUnit":{"$ref":"227"},"destinationKey":"target","guid":"987bec84-4fc4-4f3c-887d-a497369b4ac5","$type":"Bolt.ValueConnection"},{"sourceUnit":{"$ref":"168"},"sourceKey":"value","destinationUnit":{"$ref":"41"},"destinationKey":"%value","guid":"be0246a5-0d22-4a6c-a192-4d958165083a","$type":"Bolt.ValueConnection"},{"sourceUnit":{"$ref":"116"},"sourceKey":"value","destinationUnit":{"$ref":"143"},"destinationKey":"target","guid":"828b38aa-006a-47a6-ab41-2e299d968bbe","$type":"Bolt.ValueConnection"},{"sourceUnit":{"$ref":"113"},"sourceKey":"value","destinationUnit":{"$ref":"58"},"destinationKey":"input","guid":"bd9c003b-3a2c-4f49-a73e-e9c62e47a659","$type":"Bolt.ValueConnection"},{"sourceUnit":{"$ref":"119"},"sourceKey":"value","destinationUnit":{"$ref":"41"},"destinationKey":"target","guid":"e8523a98-6e35-4996-9499-b4a772e45824","$type":"Bolt.ValueConnection"},{"sourceUnit":{"$ref":"176"},"sourceKey":"value","destinationUnit":{"$ref":"39"},"destinationKey":"name","guid":"e86d02a1-0836-4aba-98d2-2329a1db3134","$type":"Bolt.ValueConnection"},{"sourceUnit":{"$ref":"51"},"sourceKey":"result","destinationUnit":{"$ref":"18"},"destinationKey":"condition","guid":"b89d3e72-61f6-483b-8d91-0cbd2a433f92","$type":"Bolt.ValueConnection"},{"sourceUnit":{"$ref":"132"},"sourceKey":"output","destinationUnit":{"$ref":"33"},"destinationKey":"ifFalse","guid":"8defea93-a4db-40b2-b596-efe20d99254d","$type":"Bolt.ValueConnection"},{"sourceUnit":{"$ref":"188"},"sourceKey":"value","destinationUnit":{"$ref":"77"},"destinationKey":"target","guid":"6d115807-a86b-4b94-9199-a60b49c16988","$type":"Bolt.ValueConnection"},{"sourceUnit":{"$ref":"185"},"sourceKey":"value","destinationUnit":{"$ref":"66"},"destinationKey":"%y","guid":"b482e555-3169-4190-b5a0-0e38998c51a4","$type":"Bolt.ValueConnection"},{"sourceUnit":{"$ref":"174"},"sourceKey":"argument_0","destinationUnit":{"$ref":"107"},"destinationKey":"subtrahend","guid":"61b63f1a-613a-42d6-96b3-770fe9094b38","$type":"Bolt.ValueConnection"},{"sourceUnit":{"$ref":"85"},"sourceKey":"output","destinationUnit":{"$ref":"74"},"destinationKey":"%layerMask","guid":"78f173ef-f406-4fbe-b270-c1b6d95327a3","$type":"Bolt.ValueConnection"},{"sourceUnit":{"$ref":"48"},"sourceKey":"result","destinationUnit":{"$ref":"201"},"destinationKey":"condition","guid":"cdc56890-6950-4e88-8ac3-a3b494bcf022","$type":"Bolt.ValueConnection"},{"sourceUnit":{"$ref":"139"},"sourceKey":"value","destinationUnit":{"$ref":"136"},"destinationKey":"%original","guid":"d8a63e08-ea49-47fc-afc7-cfd0b1866c35","$type":"Bolt.ValueConnection"},{"sourceUnit":{"$ref":"102"},"sourceKey":"value","destinationUnit":{"$ref":"98"},"destinationKey":"name","guid":"38f7d1ca-e75c-4855-bee3-b60f68449550","$type":"Bolt.ValueConnection"},{"sourceUnit":{"$ref":"37"},"sourceKey":"value","destinationUnit":{"$ref":"107"},"destinationKey":"minuend","guid":"ee7fe2d4-9ba8-44a5-b2e9-3fdce7018485","$type":"Bolt.ValueConnection"},{"sourceUnit":{"$ref":"77"},"sourceKey":"value","destinationUnit":{"$ref":"109"},"destinationKey":"a","guid":"940adfba-3869-4d09-b611-9f3959c0c6a5","$type":"Bolt.ValueConnection"},{"sourceUnit":{"$ref":"58"},"sourceKey":"output","destinationUnit":{"$ref":"227"},"destinationKey":"%value","guid":"5d86e9c4-9d03-4e2c-bcb5-a6c57e34c024","$type":"Bolt.ValueConnection"},{"sourceUnit":{"$ref":"116"},"sourceKey":"value","destinationUnit":{"$ref":"90"},"destinationKey":"target","guid":"c1d52f65-fe04-46e3-afe5-19315d8585ec","$type":"Bolt.ValueConnection"},{"sourceUnit":{"$ref":"212"},"sourceKey":"result","destinationUnit":{"$ref":"149"},"destinationKey":"input","guid":"6f4b5902-3114-43be-9350-17e82d256d65","$type":"Bolt.ValueConnection"},{"sourceUnit":{"$ref":"152"},"sourceKey":"collider","destinationUnit":{"$ref":"11"},"destinationKey":"target","guid":"63485ec4-3166-468a-bab0-331f4a2eab5d","$type":"Bolt.ValueConnection"},{"sourceUnit":{"$ref":"196"},"sourceKey":"value","destinationUnit":{"$ref":"87"},"destinationKey":"%rotation","guid":"e7246ed7-1a2f-42fe-96ac-caaccc37663a","$type":"Bolt.ValueConnection"},{"sourceUnit":{"$ref":"9"},"sourceKey":"value","destinationUnit":{"$ref":"87"},"destinationKey":"%original","guid":"13251a5a-1abe-4bde-9c25-37b58306c2c4","$type":"Bolt.ValueConnection"},{"sourceUnit":{"$ref":"104"},"sourceKey":"result","destinationUnit":{"$ref":"154"},"destinationKey":"condition","guid":"76062061-4cbd-4337-976b-54d3564d24e6","$type":"Bolt.ValueConnection"},{"sourceUnit":{"$ref":"121"},"sourceKey":"collider","destinationUnit":{"$ref":"51"},"destinationKey":"target","guid":"ddf81198-6762-4e30-addb-578ddb3d90b4","$type":"Bolt.ValueConnection"},{"sourceUnit":{"$ref":"163"},"sourceKey":"value","destinationUnit":{"$ref":"215"},"destinationKey":"a","guid":"f8f3701a-ea92-40df-ac9e-e2cd73629630","$type":"Bolt.ValueConnection"},{"sourceUnit":{"$ref":"205"},"sourceKey":"output","destinationUnit":{"$ref":"181"},"destinationKey":"a","guid":"d500f85f-e56f-4709-95be-ba15abc95593","$type":"Bolt.ValueConnection"},{"sourceUnit":{"$ref":"236"},"sourceKey":"value","destinationUnit":{"$ref":"193"},"destinationKey":"%position","guid":"19cea565-a9fe-4c02-937d-acaea930afcc","$type":"Bolt.ValueConnection"},{"sourceUnit":{"$ref":"100"},"sourceKey":"value","destinationUnit":{"$ref":"159"},"destinationKey":"target","guid":"b08e3ffb-77b1-455d-88da-b41c72629043","$type":"Bolt.ValueConnection"},{"sourceUnit":{"$ref":"217"},"sourceKey":"null","destinationUnit":{"$ref":"14"},"destinationKey":"b","guid":"43891d6b-3240-469d-8ec7-6a184d4e1f29","$type":"Bolt.ValueConnection"},{"sourceUnit":{"$ref":"163"},"sourceKey":"value","destinationUnit":{"$ref":"130"},"destinationKey":"a","guid":"520468ab-fd7b-4ecf-a6e9-b6c145f65417","$type":"Bolt.ValueConnection"},{"sourceUnit":{"$ref":"44"},"sourceKey":"output","destinationUnit":{"$ref":"181"},"destinationKey":"b","guid":"f98e8aa0-9f60-4772-a51e-1dda8d261363","$type":"Bolt.ValueConnection"},{"sourceUnit":{"$ref":"181"},"sourceKey":"equal","destinationUnit":{"$ref":"232"},"destinationKey":"condition","guid":"60ae3541-d42a-4cd7-8628-40491f61fad0","$type":"Bolt.ValueConnection"},{"sourceUnit":{"$ref":"90"},"sourceKey":"result","destinationUnit":{"$ref":"83"},"destinationKey":"a","guid":"62dab9af-0e21-4804-aecc-551fb91e1382","$type":"Bolt.ValueConnection"},{"sourceUnit":{"$ref":"74"},"sourceKey":"result","destinationUnit":{"$ref":"234"},"destinationKey":"target","guid":"6df151ee-6ad9-438e-85c3-e0fa144dc522","$type":"Bolt.ValueConnection"},{"sourceUnit":{"$ref":"234"},"sourceKey":"collider","destinationUnit":{"$ref":"62"},"destinationKey":"target","guid":"f73362a7-5431-4b22-ab4e-ed6906dfd0f7","$type":"Bolt.ValueConnection"},{"sourceUnit":{"$ref":"22"},"sourceKey":"value","destinationUnit":{"$ref":"193"},"destinationKey":"%original","guid":"fd0381d5-ef33-4189-b9cd-c695afc0d1ec","$type":"Bolt.ValueConnection"},{"sourceUnit":{"$ref":"69"},"sourceKey":"value","destinationUnit":{"$ref":"191"},"destinationKey":"a","guid":"09a6d872-7282-479c-8029-c57a6e8671bc","$type":"Bolt.ValueConnection"},{"sourceUnit":{"$ref":"111"},"sourceKey":"value","destinationUnit":{"$ref":"39"},"destinationKey":"target","guid":"5b4c96a7-c78d-44fa-bd9b-0af376cb7e6c","$type":"Bolt.ValueConnection"},{"sourceUnit":{"$ref":"143"},"sourceKey":"result","destinationUnit":{"$ref":"28"},"destinationKey":"a","guid":"1654dda4-fc00-4896-b021-65c568c9b386","$type":"Bolt.ValueConnection"},{"sourceUnit":{"$ref":"170"},"sourceKey":"value","destinationUnit":{"$ref":"62"},"destinationKey":"name","guid":"4e5dd7fd-5118-4ca1-9583-43f8942d1a74","$type":"Bolt.ValueConnection"},{"sourceUnit":{"$ref":"46"},"sourceKey":"product","destinationUnit":{"$ref":"134"},"destinationKey":"input","guid":"bab2b18e-690b-44b9-9f22-4e4a0cf2db64","$type":"Bolt.ValueConnection"},{"sourceUnit":{"$ref":"11"},"sourceKey":"result","destinationUnit":{"$ref":"225"},"destinationKey":"condition","guid":"c88f519a-8bfa-4850-a5e7-554598f8544e","$type":"Bolt.ValueConnection"},{"sourceUnit":{"$ref":"166"},"sourceKey":"value","destinationUnit":{"$ref":"24"},"destinationKey":"target","guid":"f1ce4f62-751c-40fd-9364-aae3f663cd93","$type":"Bolt.ValueConnection"},{"sourceUnit":{"$ref":"159"},"sourceKey":"collider","destinationUnit":{"$ref":"116"},"destinationKey":"target","guid":"19132cd0-a768-45de-b639-ebfe476aa86a","$type":"Bolt.ValueConnection"},{"sourceUnit":{"$ref":"30"},"sourceKey":"result","destinationUnit":{"$ref":"28"},"destinationKey":"b","guid":"159983ad-de0e-467a-90f9-ea1c3ee52d9b","$type":"Bolt.ValueConnection"},{"sourceUnit":{"$ref":"178"},"sourceKey":"value","destinationUnit":{"$ref":"113"},"destinationKey":"target","guid":"fb338635-2b64-466a-a307-6ff80df0eabb","$type":"Bolt.ValueConnection"},{"sourceUnit":{"$ref":"234"},"sourceKey":"collider","destinationUnit":{"$ref":"14"},"destinationKey":"a","guid":"b0051c56-fc60-4944-917d-f73d917b3390","$type":"Bolt.ValueConnection"},{"sourceUnit":{"$ref":"127"},"sourceKey":"value","destinationUnit":{"$ref":"87"},"destinationKey":"%position","guid":"adb5561a-907b-4618-94ca-45eff6449349","$type":"Bolt.ValueConnection"},{"sourceUnit":{"$ref":"156"},"sourceKey":"value","destinationUnit":{"$ref":"136"},"destinationKey":"%position","guid":"e9e331d4-789a-4390-bdaa-c8f2c8559a60","$type":"Bolt.ValueConnection"},{"sourceUnit":{"$ref":"230"},"sourceKey":"value","destinationUnit":{"$ref":"109"},"destinationKey":"b","guid":"a22386f6-bb44-46f5-9977-3bb913ed9fbe","$type":"Bolt.ValueConnection"},{"sourceUnit":{"$ref":"123"},"sourceKey":"value","destinationUnit":{"$ref":"174"},"destinationKey":"name","guid":"a0fa89d0-d60d-42bc-8982-76d0a28072a0","$type":"Bolt.ValueConnection"},{"sourceUnit":{"$ref":"33"},"sourceKey":"selection","destinationUnit":{"$ref":"212"},"destinationKey":"%x","guid":"a2ac4650-1efd-4209-99dd-e8f81f4951af","$type":"Bolt.ValueConnection"},{"sourceUnit":{"$ref":"109"},"sourceKey":"product","destinationUnit":{"$ref":"66"},"destinationKey":"%x","guid":"c1fdada1-3ec8-43e0-864b-39cd5e0d31ed","$type":"Bolt.ValueConnection"},{"sourceUnit":{"$ref":"83"},"sourceKey":"result","destinationUnit":{"$ref":"199"},"destinationKey":"condition","guid":"d08b6771-2669-4bb0-b1a8-4f3ce49539dd","$type":"Bolt.ValueConnection"},{"sourceUnit":{"$ref":"116"},"sourceKey":"value","destinationUnit":{"$ref":"30"},"destinationKey":"target","guid":"03a08c7d-a589-4e0f-a785-95a21e1ea82a","$type":"Bolt.ValueConnection"},{"sourceUnit":{"$ref":"107"},"sourceKey":"difference","destinationUnit":{"$ref":"205"},"destinationKey":"input","guid":"6fd416e9-f9c3-4a80-b79b-accef0e68c89","$type":"Bolt.ValueConnection"},{"position":{"xMin":1694.0,"yMin":467.0,"xMax":2656.0,"yMax":979.5},"label":"Animator
      flow","comment":null,"color":{"r":0.0,"g":0.0,"b":0.0,"a":1.0},"guid":"234c2f9a-be52-4f5f-a380-15ac0fee5d62","$version":"A","$type":"Ludiq.GraphGroup"},{"position":{"xMin":3027.0,"yMin":454.0,"xMax":4170.0,"yMax":1251.0},"label":"Flip
      Direction","comment":null,"color":{"r":1.0,"g":0.8009266,"b":0.0,"a":1.0},"guid":"c0366118-e586-4ca7-8733-ef52a3b97f52","$version":"A","$type":"Ludiq.GraphGroup"},{"position":{"xMin":-71.0,"yMin":-643.0,"xMax":1844.0,"yMax":-5.0},"label":"Kill
      Player","comment":null,"color":{"r":0.0,"g":0.0,"b":0.0,"a":1.0},"guid":"375cb731-1259-4e75-801e-04ff30c4c398","$version":"A","$type":"Ludiq.GraphGroup"}],"$version":"A"}}'
    _objectReferences: []
