%YAML 1.1
%TAG !u! tag:unity3d.com,2011:
--- !u!74 &7400000
AnimationClip:
  m_ObjectHideFlags: 0
  m_CorrespondingSourceObject: {fileID: 0}
  m_PrefabInstance: {fileID: 0}
  m_PrefabAsset: {fileID: 0}
  m_Name: GJ3_Ghost_Idle
  serializedVersion: 6
  m_Legacy: 0
  m_Compressed: 0
  m_UseHighQualityCurve: 1
  m_RotationCurves: []
  m_CompressedRotationCurves: []
  m_EulerCurves: []
  m_PositionCurves: []
  m_ScaleCurves: []
  m_FloatCurves: []
  m_PPtrCurves:
  - curve:
    - time: 0
      value: {fileID: 21300000, guid: e27adc159b93d7f4a95d2f8727d929d4, type: 3}
    - time: 0.1
      value: {fileID: 21300000, guid: 075c853d6eb12a446b226262cd449037, type: 3}
    - time: 0.2
      value: {fileID: 21300000, guid: 74adfe5caf01f0144ac787aac9e56c31, type: 3}
    - time: 0.3
      value: {fileID: 21300000, guid: d469f2526c4f6d1418ecf7bbb5b6be46, type: 3}
    - time: 0.4
      value: {fileID: 21300000, guid: 7d9f64447de339449a7fa51dab276f79, type: 3}
    - time: 0.51666665
      value: {fileID: 21300000, guid: 0c370efa7ab16bb498560446d878d441, type: 3}
    - time: 0.6166667
      value: {fileID: 21300000, guid: 3dfd2b9e766b5624faafe54844b6df84, type: 3}
    - time: 0.71666664
      value: {fileID: 21300000, guid: 26b8d15d5590c1b4a919ffe530a39a25, type: 3}
    - time: 0.81666666
      value: {fileID: 21300000, guid: fbabed8d41b2b9246b6733002938b704, type: 3}
    - time: 0.9166667
      value: {fileID: 21300000, guid: 5a170ae8fb1bff24aaa02c7dbd67e692, type: 3}
    attribute: m_Sprite
    path: 
    classID: 212
    script: {fileID: 0}
  m_SampleRate: 60
  m_WrapMode: 0
  m_Bounds:
    m_Center: {x: 0, y: 0, z: 0}
    m_Extent: {x: 0, y: 0, z: 0}
  m_ClipBindingConstant:
    genericBindings:
    - serializedVersion: 2
      path: 0
      attribute: 0
      script: {fileID: 0}
      typeID: 212
      customType: 23
      isPPtrCurve: 1
    pptrCurveMapping:
    - {fileID: 21300000, guid: e27adc159b93d7f4a95d2f8727d929d4, type: 3}
    - {fileID: 21300000, guid: 075c853d6eb12a446b226262cd449037, type: 3}
    - {fileID: 21300000, guid: 74adfe5caf01f0144ac787aac9e56c31, type: 3}
    - {fileID: 21300000, guid: d469f2526c4f6d1418ecf7bbb5b6be46, type: 3}
    - {fileID: 21300000, guid: 7d9f64447de339449a7fa51dab276f79, type: 3}
    - {fileID: 21300000, guid: 0c370efa7ab16bb498560446d878d441, type: 3}
    - {fileID: 21300000, guid: 3dfd2b9e766b5624faafe54844b6df84, type: 3}
    - {fileID: 21300000, guid: 26b8d15d5590c1b4a919ffe530a39a25, type: 3}
    - {fileID: 21300000, guid: fbabed8d41b2b9246b6733002938b704, type: 3}
    - {fileID: 21300000, guid: 5a170ae8fb1bff24aaa02c7dbd67e692, type: 3}
  m_AnimationClipSettings:
    serializedVersion: 2
    m_AdditiveReferencePoseClip: {fileID: 0}
    m_AdditiveReferencePoseTime: 0
    m_StartTime: 0
    m_StopTime: 0.93333334
    m_OrientationOffsetY: 0
    m_Level: 0
    m_CycleOffset: 0
    m_HasAdditiveReferencePose: 0
    m_LoopTime: 1
    m_LoopBlend: 0
    m_LoopBlendOrientation: 0
    m_LoopBlendPositionY: 0
    m_LoopBlendPositionXZ: 0
    m_KeepOriginalOrientation: 0
    m_KeepOriginalPositionY: 1
    m_KeepOriginalPositionXZ: 0
    m_HeightFromFeet: 0
    m_Mirror: 0
  m_EditorCurves: []
  m_EulerEditorCurves: []
  m_HasGenericRootTransform: 0
  m_HasMotionFloatCurves: 0
  m_Events: []
