%YAML 1.1
%TAG !u! tag:unity3d.com,2011:
--- !u!74 &7400000
AnimationClip:
  m_ObjectHideFlags: 0
  m_CorrespondingSourceObject: {fileID: 0}
  m_PrefabInstance: {fileID: 0}
  m_PrefabAsset: {fileID: 0}
  m_Name: GJ3_Skeleton_Idle
  serializedVersion: 6
  m_Legacy: 0
  m_Compressed: 0
  m_UseHighQualityCurve: 1
  m_RotationCurves: []
  m_CompressedRotationCurves: []
  m_EulerCurves: []
  m_PositionCurves: []
  m_ScaleCurves: []
  m_FloatCurves: []
  m_PPtrCurves:
  - curve:
    - time: 0
      value: {fileID: 21300000, guid: 35c0fbaef37ad43418703c5be30fed84, type: 3}
    - time: 0.06666667
      value: {fileID: 21300000, guid: 8537ed40a33106a4e9e74e5e9f52a4ea, type: 3}
    - time: 0.13333334
      value: {fileID: 21300000, guid: 4deb01251a4f12a42946b06afc061b9e, type: 3}
    - time: 0.28333333
      value: {fileID: 21300000, guid: 39c81b09f38495e4ba769798c8298f62, type: 3}
    - time: 0.35
      value: {fileID: 21300000, guid: 8dfe4c4b3c0ec1c469a51a172791d32c, type: 3}
    - time: 0.41666666
      value: {fileID: 21300000, guid: f555846d74d3db9458c8f0a29f8f0e30, type: 3}
    - time: 0.46666667
      value: {fileID: 21300000, guid: 728757a05c766724fbc3f96e4cb6bd92, type: 3}
    - time: 0.53333336
      value: {fileID: 21300000, guid: ae519843f7560b34789c38cf87d8a79f, type: 3}
    - time: 0.6
      value: {fileID: 21300000, guid: 87ab3d8b5120d8b4f91cfea6956f01de, type: 3}
    - time: 0.75
      value: {fileID: 21300000, guid: 7f0946ac45b2a294e9402e0920cf36f4, type: 3}
    - time: 0.81666666
      value: {fileID: 21300000, guid: 390cbe881abe22a438d928f5e4d5d48c, type: 3}
    - time: 0.8833333
      value: {fileID: 21300000, guid: 212d92603be89c94a96194792eb379e8, type: 3}
    attribute: m_Sprite
    path: 
    classID: 212
    script: {fileID: 0}
  m_SampleRate: 60
  m_WrapMode: 0
  m_Bounds:
    m_Center: {x: 0, y: 0, z: 0}
    m_Extent: {x: 0, y: 0, z: 0}
  m_ClipBindingConstant:
    genericBindings:
    - serializedVersion: 2
      path: 0
      attribute: 0
      script: {fileID: 0}
      typeID: 212
      customType: 23
      isPPtrCurve: 1
    pptrCurveMapping:
    - {fileID: 21300000, guid: 35c0fbaef37ad43418703c5be30fed84, type: 3}
    - {fileID: 21300000, guid: 8537ed40a33106a4e9e74e5e9f52a4ea, type: 3}
    - {fileID: 21300000, guid: 4deb01251a4f12a42946b06afc061b9e, type: 3}
    - {fileID: 21300000, guid: 39c81b09f38495e4ba769798c8298f62, type: 3}
    - {fileID: 21300000, guid: 8dfe4c4b3c0ec1c469a51a172791d32c, type: 3}
    - {fileID: 21300000, guid: f555846d74d3db9458c8f0a29f8f0e30, type: 3}
    - {fileID: 21300000, guid: 728757a05c766724fbc3f96e4cb6bd92, type: 3}
    - {fileID: 21300000, guid: ae519843f7560b34789c38cf87d8a79f, type: 3}
    - {fileID: 21300000, guid: 87ab3d8b5120d8b4f91cfea6956f01de, type: 3}
    - {fileID: 21300000, guid: 7f0946ac45b2a294e9402e0920cf36f4, type: 3}
    - {fileID: 21300000, guid: 390cbe881abe22a438d928f5e4d5d48c, type: 3}
    - {fileID: 21300000, guid: 212d92603be89c94a96194792eb379e8, type: 3}
  m_AnimationClipSettings:
    serializedVersion: 2
    m_AdditiveReferencePoseClip: {fileID: 0}
    m_AdditiveReferencePoseTime: 0
    m_StartTime: 0
    m_StopTime: 0.9
    m_OrientationOffsetY: 0
    m_Level: 0
    m_CycleOffset: 0
    m_HasAdditiveReferencePose: 0
    m_LoopTime: 1
    m_LoopBlend: 0
    m_LoopBlendOrientation: 0
    m_LoopBlendPositionY: 0
    m_LoopBlendPositionXZ: 0
    m_KeepOriginalOrientation: 0
    m_KeepOriginalPositionY: 1
    m_KeepOriginalPositionXZ: 0
    m_HeightFromFeet: 0
    m_Mirror: 0
  m_EditorCurves: []
  m_EulerEditorCurves: []
  m_HasGenericRootTransform: 0
  m_HasMotionFloatCurves: 0
  m_Events: []
